verilog/digitalsystem4/4bit_add_sub_tb.vcd
$date
	Sat Sep 28 14:08:43 2019
$end
$version
	Icarus Verilog
$end
$timescale
	1ps
$end
$scope module add_sub_4bit_tb $end
$var wire 5 ! sum_f [4:0] $end
$var wire 4 " sum [3:0] $end
$var wire 1 # cout $end
$var reg 4 $ A [3:0] $end
$var reg 4 % B [3:0] $end
$var reg 1 & cin $end
$var integer 32 ' i [31:0] $end
$var integer 32 ( j [31:0] $end
$var integer 32 ) k [31:0] $end
$scope module a_s0 $end
$var wire 4 * A [3:0] $end
$var wire 4 + B [3:0] $end
$var wire 1 & cin $end
$var wire 5 , sum_f [4:0] $end
$var wire 4 - sum [3:0] $end
$var wire 1 # cout $end
$var wire 3 . c [2:0] $end
$var wire 4 / a [3:0] $end
$scope module fa0 $end
$var wire 1 0 A $end
$var wire 1 1 B $end
$var wire 1 & cin $end
$var wire 1 2 cout $end
$var wire 1 3 sum $end
$var wire 1 4 t1 $end
$var wire 1 5 t2 $end
$var wire 1 6 t3 $end
$upscope $end
$scope module fa1 $end
$var wire 1 7 A $end
$var wire 1 8 B $end
$var wire 1 9 cin $end
$var wire 1 : cout $end
$var wire 1 ; sum $end
$var wire 1 < t1 $end
$var wire 1 = t2 $end
$var wire 1 > t3 $end
$upscope $end
$scope module fa2 $end
$var wire 1 ? A $end
$var wire 1 @ B $end
$var wire 1 A cin $end
$var wire 1 B cout $end
$var wire 1 C sum $end
$var wire 1 D t1 $end
$var wire 1 E t2 $end
$var wire 1 F t3 $end
$upscope $end
$scope module fa3 $end
$var wire 1 G A $end
$var wire 1 H B $end
$var wire 1 I cin $end
$var wire 1 # cout $end
$var wire 1 J sum $end
$var wire 1 K t1 $end
$var wire 1 L t2 $end
$var wire 1 M t3 $end
$upscope $end
$upscope $end
$upscope $end
$enddefinitions $end
#0
$dumpvars
0M
0L
0K
0J
0I
0H
0G
0F
0E
0D
0C
0B
0A
0@
0?
0>
0=
0<
0;
0:
09
08
07
06
05
04
03
02
01
00
b0 /
b0 .
b0 -
b0 ,
b0 +
b0 *
b0 )
b0 (
b0 '
0&
b0 %
b0 $
0#
b0 "
b0 !
$end
#1000
b1 !
b1 ,
b1 "
b1 -
13
14
10
b1 /
b1 $
b1 *
b1 )
#2000
03
b10 !
b10 ,
b10 "
b10 -
1;
04
1<
00
17
b10 /
b10 $
b10 *
b10 )
#3000
b11 !
b11 ,
b11 "
b11 -
13
14
10
b11 /
b11 $
b11 *
b11 )
#4000
03
0;
b100 !
b100 ,
b100 "
b100 -
1C
04
0<
1D
00
07
1?
b100 /
b100 $
b100 *
b100 )
#5000
b101 !
b101 ,
b101 "
b101 -
13
14
10
b101 /
b101 $
b101 *
b101 )
#6000
03
b110 !
b110 ,
b110 "
b110 -
1;
04
1<
00
17
b110 /
b110 $
b110 *
b110 )
#7000
b111 !
b111 ,
b111 "
b111 -
13
14
10
b111 /
b111 $
b111 *
b111 )
#8000
03
0;
0C
b1000 !
b1000 ,
b1000 "
b1000 -
1J
04
0<
0D
1K
00
07
0?
1G
b1000 /
b1000 $
b1000 *
b1000 )
#9000
b1001 !
b1001 ,
b1001 "
b1001 -
13
14
10
b1001 /
b1001 $
b1001 *
b1001 )
#10000
03
b1010 !
b1010 ,
b1010 "
b1010 -
1;
04
1<
00
17
b1010 /
b1010 $
b1010 *
b1010 )
#11000
b1011 !
b1011 ,
b1011 "
b1011 -
13
14
10
b1011 /
b1011 $
b1011 *
b1011 )
#12000
03
0;
b1100 !
b1100 ,
b1100 "
b1100 -
1C
04
0<
1D
00
07
1?
b1100 /
b1100 $
b1100 *
b1100 )
#13000
b1101 !
b1101 ,
b1101 "
b1101 -
13
14
10
b1101 /
b1101 $
b1101 *
b1101 )
#14000
03
b1110 !
b1110 ,
b1110 "
b1110 -
1;
04
1<
00
17
b1110 /
b1110 $
b1110 *
b1110 )
#15000
b1111 !
b1111 ,
b1111 "
b1111 -
13
14
10
b1111 /
b1111 $
b1111 *
b1111 )
#16000
0;
0C
0J
0<
0D
0K
09
00
07
0?
0G
b1 !
b1 ,
b1 "
b1 -
13
b0 .
02
b0 /
14
05
11
b0 $
b0 *
b1 %
b1 +
b1 (
b0 )
#17000
1;
19
b10 !
b10 ,
b10 "
b10 -
03
b1 .
12
04
15
10
b1 /
b1 $
b1 *
b1 )
#18000
0C
0A
09
0:
13
b0 .
02
b11 !
b11 ,
b11 "
b11 -
1;
0>
14
05
1<
00
17
b10 /
b10 $
b10 *
b10 )
#19000
1C
1A
1:
0;
1>
19
b100 !
b100 ,
b100 "
b100 -
03
b11 .
12
04
15
10
b11 /
b11 $
b11 *
b11 )
#20000
0J
0A
0I
09
0:
0B
13
b0 .
02
0;
0>
b101 !
b101 ,
b101 "
b101 -
1C
0F
14
05
0<
1D
00
07
1?
b100 /
b100 $
b100 *
b100 )
#21000
1;
19
b110 !
b110 ,
b110 "
b110 -
03
b1 .
12
04
15
10
b101 /
b101 $
b101 *
b101 )
#22000
0J
0I
0B
1C
0F
0A
09
0:
13
b0 .
02
b111 !
b111 ,
b111 "
b111 -
1;
0>
14
05
1<
00
17
b110 /
b110 $
b110 *
b110 )
#23000
1J
1I
1B
0C
1F
1A
1:
0;
1>
19
b1000 !
b1000 ,
b1000 "
b1000 -
03
b111 .
12
04
15
10
b111 /
b111 $
b111 *
b111 )
#24000
0A
0I
09
0:
0B
0#
13
b0 .
02
0;
0>
0C
0F
b1001 !
b1001 ,
b1001 "
b1001 -
1J
0M
14
05
0<
0D
1K
00
07
0?
1G
b1000 /
b1000 $
b1000 *
b1000 )
#25000
1;
19
b1010 !
b1010 ,
b1010 "
b1010 -
03
b1 .
12
04
15
10
b1001 /
b1001 $
b1001 *
b1001 )
#26000
0C
0A
09
0:
13
b0 .
02
b1011 !
b1011 ,
b1011 "
b1011 -
1;
0>
14
05
1<
00
17
b1010 /
b1010 $
b1010 *
b1010 )
#27000
1C
1A
1:
0;
1>
19
b1100 !
b1100 ,
b1100 "
b1100 -
03
b11 .
12
04
15
10
b1011 /
b1011 $
b1011 *
b1011 )
#28000
0#
1J
0M
0A
0I
09
0:
0B
13
b0 .
02
0;
0>
b1101 !
b1101 ,
b1101 "
b1101 -
1C
0F
14
05
0<
1D
00
07
1?
b1100 /
b1100 $
b1100 *
b1100 )
#29000
1;
19
b1110 !
b1110 ,
b1110 "
b1110 -
03
b1 .
12
04
15
10
b1101 /
b1101 $
b1101 *
b1101 )
#30000
0#
1J
0M
0I
0B
1C
0F
0A
09
0:
13
b0 .
02
b1111 !
b1111 ,
b1111 "
b1111 -
1;
0>
14
05
1<
00
17
b1110 /
b1110 $
b1110 *
b1110 )
#31000
1#
0J
1M
1I
1B
0C
1F
1A
1:
0;
1>
19
b10000 !
b10000 ,
b0 "
b0 -
03
b111 .
12
04
15
10
b1111 /
b1111 $
b1111 *
b1111 )
#32000
0I
0A
0B
0#
0:
0C
0F
0J
0M
0D
0K
09
00
07
0?
0G
03
b0 .
02
b10 !
b10 ,
b10 "
b10 -
1;
0>
b0 /
04
05
1<
0=
01
18
b0 $
b0 *
b10 %
b10 +
b10 (
b0 )
#33000
b11 !
b11 ,
b11 "
b11 -
13
14
10
b1 /
b1 $
b1 *
b1 )
#34000
1C
1A
03
b100 !
b100 ,
b100 "
b100 -
0;
b10 .
1:
04
0<
1=
00
17
b10 /
b10 $
b10 *
b10 )
#35000
b101 !
b101 ,
b101 "
b101 -
13
14
10
b11 /
b11 $
b11 *
b11 )
#36000
0J
0I
0A
0B
03
1;
b0 .
0:
b110 !
b110 ,
b110 "
b110 -
1C
0F
04
1<
0=
1D
00
07
1?
b100 /
b100 $
b100 *
b100 )
#37000
b111 !
b111 ,
b111 "
b111 -
13
14
10
b101 /
b101 $
b101 *
b101 )
#38000
1J
1I
1B
0C
1F
1A
03
b1000 !
b1000 ,
b1000 "
b1000 -
0;
b110 .
1:
04
0<
1=
00
17
b110 /
b110 $
b110 *
b110 )
#39000
b1001 !
b1001 ,
b1001 "
b1001 -
13
14
10
b111 /
b111 $
b111 *
b111 )
#40000
0I
0A
0B
0#
03
1;
b0 .
0:
0C
0F
b1010 !
b1010 ,
b1010 "
b1010 -
1J
0M
04
1<
0=
0D
1K
00
07
0?
1G
b1000 /
b1000 $
b1000 *
b1000 )
#41000
b1011 !
b1011 ,
b1011 "
b1011 -
13
14
10
b1001 /
b1001 $
b1001 *
b1001 )
#42000
1C
1A
03
b1100 !
b1100 ,
b1100 "
b1100 -
0;
b10 .
1:
04
0<
1=
00
17
b1010 /
b1010 $
b1010 *
b1010 )
#43000
b1101 !
b1101 ,
b1101 "
b1101 -
13
14
10
b1011 /
b1011 $
b1011 *
b1011 )
#44000
0#
1J
0M
0I
0A
0B
03
1;
b0 .
0:
b1110 !
b1110 ,
b1110 "
b1110 -
1C
0F
04
1<
0=
1D
00
07
1?
b1100 /
b1100 $
b1100 *
b1100 )
#45000
b1111 !
b1111 ,
b1111 "
b1111 -
13
14
10
b1101 /
b1101 $
b1101 *
b1101 )
#46000
1#
0J
1M
1I
1B
0C
1F
1A
03
b10000 !
b10000 ,
b0 "
b0 -
0;
b110 .
1:
04
0<
1=
00
17
b1110 /
b1110 $
b1110 *
b1110 )
#47000
b10001 !
b10001 ,
b1 "
b1 -
13
14
10
b1111 /
b1111 $
b1111 *
b1111 )
#48000
0A
0:
1;
0I
0B
0#
0C
0F
0J
0M
0>
1<
0=
0D
0K
09
00
07
0?
0G
b11 !
b11 ,
b11 "
b11 -
13
b0 .
02
b0 /
14
05
11
b0 $
b0 *
b11 %
b11 +
b11 (
b0 )
#49000
1C
1A
1:
0;
1>
19
b100 !
b100 ,
b100 "
b100 -
03
b11 .
12
04
15
10
b1 /
b1 $
b1 *
b1 )
#50000
09
13
b10 .
02
b101 !
b101 ,
b101 "
b101 -
0;
0>
14
05
0<
1=
00
17
b10 /
b10 $
b10 *
b10 )
#51000
1;
19
b110 !
b110 ,
b110 "
b110 -
03
b11 .
12
04
15
10
b11 /
b11 $
b11 *
b11 )
#52000
0J
0I
09
0A
0B
13
02
1;
0>
b0 .
0:
b111 !
b111 ,
b111 "
b111 -
1C
0F
14
05
1<
0=
1D
00
07
1?
b100 /
b100 $
b100 *
b100 )
#53000
1J
1I
1B
0C
1F
1A
1:
0;
1>
19
b1000 !
b1000 ,
b1000 "
b1000 -
03
b111 .
12
04
15
10
b101 /
b101 $
b101 *
b101 )
#54000
09
13
b110 .
02
b1001 !
b1001 ,
b1001 "
b1001 -
0;
0>
14
05
0<
1=
00
17
b110 /
b110 $
b110 *
b110 )
#55000
1;
19
b1010 !
b1010 ,
b1010 "
b1010 -
03
b111 .
12
04
15
10
b111 /
b111 $
b111 *
b111 )
#56000
0I
09
0A
0B
0#
13
02
1;
0>
b0 .
0:
0C
0F
b1011 !
b1011 ,
b1011 "
b1011 -
1J
0M
14
05
1<
0=
0D
1K
00
07
0?
1G
b1000 /
b1000 $
b1000 *
b1000 )
#57000
1C
1A
1:
0;
1>
19
b1100 !
b1100 ,
b1100 "
b1100 -
03
b11 .
12
04
15
10
b1001 /
b1001 $
b1001 *
b1001 )
#58000
09
13
b10 .
02
b1101 !
b1101 ,
b1101 "
b1101 -
0;
0>
14
05
0<
1=
00
17
b1010 /
b1010 $
b1010 *
b1010 )
#59000
1;
19
b1110 !
b1110 ,
b1110 "
b1110 -
03
b11 .
12
04
15
10
b1011 /
b1011 $
b1011 *
b1011 )
#60000
0#
1J
0M
0I
09
0A
0B
13
02
1;
0>
b0 .
0:
b1111 !
b1111 ,
b1111 "
b1111 -
1C
0F
14
05
1<
0=
1D
00
07
1?
b1100 /
b1100 $
b1100 *
b1100 )
#61000
1#
0J
1M
1I
1B
0C
1F
1A
1:
0;
1>
19
b10000 !
b10000 ,
b0 "
b0 -
03
b111 .
12
04
15
10
b1101 /
b1101 $
b1101 *
b1101 )
#62000
09
13
b110 .
02
b10001 !
b10001 ,
b1 "
b1 -
0;
0>
14
05
0<
1=
00
17
b1110 /
b1110 $
b1110 *
b1110 )
#63000
1;
19
b10010 !
b10010 ,
b10 "
b10 -
03
b111 .
12
04
15
10
b1111 /
b1111 $
b1111 *
b1111 )
#64000
0I
0#
0B
0J
0M
0K
09
0A
00
07
0?
0G
03
02
0;
0>
b0 .
0:
b100 !
b100 ,
b100 "
b100 -
1C
0F
b0 /
04
05
0<
0=
1D
0E
01
08
1@
b0 $
b0 *
b100 %
b100 +
b100 (
b0 )
#65000
b101 !
b101 ,
b101 "
b101 -
13
14
10
b1 /
b1 $
b1 *
b1 )
#66000
03
b110 !
b110 ,
b110 "
b110 -
1;
04
1<
00
17
b10 /
b10 $
b10 *
b10 )
#67000
b111 !
b111 ,
b111 "
b111 -
13
14
10
b11 /
b11 $
b11 *
b11 )
#68000
1J
1I
03
0;
b1000 !
b1000 ,
b1000 "
b1000 -
0C
b100 .
1B
04
0<
0D
1E
00
07
1?
b100 /
b100 $
b100 *
b100 )
#69000
b1001 !
b1001 ,
b1001 "
b1001 -
13
14
10
b101 /
b101 $
b101 *
b101 )
#70000
03
b1010 !
b1010 ,
b1010 "
b1010 -
1;
04
1<
00
17
b110 /
b110 $
b110 *
b110 )
#71000
b1011 !
b1011 ,
b1011 "
b1011 -
13
14
10
b111 /
b111 $
b111 *
b111 )
#72000
0I
0#
03
0;
1C
b0 .
0B
b1100 !
b1100 ,
b1100 "
b1100 -
1J
0M
04
0<
1D
0E
1K
00
07
0?
1G
b1000 /
b1000 $
b1000 *
b1000 )
#73000
b1101 !
b1101 ,
b1101 "
b1101 -
13
14
10
b1001 /
b1001 $
b1001 *
b1001 )
#74000
03
b1110 !
b1110 ,
b1110 "
b1110 -
1;
04
1<
00
17
b1010 /
b1010 $
b1010 *
b1010 )
#75000
b1111 !
b1111 ,
b1111 "
b1111 -
13
14
10
b1011 /
b1011 $
b1011 *
b1011 )
#76000
1#
0J
1M
1I
03
0;
b10000 !
b10000 ,
b0 "
b0 -
0C
b100 .
1B
04
0<
0D
1E
00
07
1?
b1100 /
b1100 $
b1100 *
b1100 )
#77000
b10001 !
b10001 ,
b1 "
b1 -
13
14
10
b1101 /
b1101 $
b1101 *
b1101 )
#78000
03
b10010 !
b10010 ,
b10 "
b10 -
1;
04
1<
00
17
b1110 /
b1110 $
b1110 *
b1110 )
#79000
b10011 !
b10011 ,
b11 "
b11 -
13
14
10
b1111 /
b1111 $
b1111 *
b1111 )
#80000
0;
0I
0#
1C
0B
0J
0M
0<
1D
0E
0K
09
00
07
0?
0G
b101 !
b101 ,
b101 "
b101 -
13
b0 .
02
b0 /
14
05
11
b0 $
b0 *
b101 %
b101 +
b101 (
b0 )
#81000
1;
19
b110 !
b110 ,
b110 "
b110 -
03
b1 .
12
04
15
10
b1 /
b1 $
b1 *
b1 )
#82000
0J
0I
0B
1C
0F
0A
09
0:
13
b0 .
02
b111 !
b111 ,
b111 "
b111 -
1;
0>
14
05
1<
00
17
b10 /
b10 $
b10 *
b10 )
#83000
1J
1I
1B
0C
1F
1A
1:
0;
1>
19
b1000 !
b1000 ,
b1000 "
b1000 -
03
b111 .
12
04
15
10
b11 /
b11 $
b11 *
b11 )
#84000
0A
09
0:
13
b100 .
02
0;
0>
b1001 !
b1001 ,
b1001 "
b1001 -
0C
0F
14
05
0<
0D
1E
00
07
1?
b100 /
b100 $
b100 *
b100 )
#85000
1;
19
b1010 !
b1010 ,
b1010 "
b1010 -
03
b101 .
12
04
15
10
b101 /
b101 $
b101 *
b101 )
#86000
0C
0A
09
0:
13
b100 .
02
b1011 !
b1011 ,
b1011 "
b1011 -
1;
0>
14
05
1<
00
17
b110 /
b110 $
b110 *
b110 )
#87000
1C
1A
1:
0;
1>
19
b1100 !
b1100 ,
b1100 "
b1100 -
03
b111 .
12
04
15
10
b111 /
b111 $
b111 *
b111 )
#88000
0A
09
0:
0I
0#
13
02
0;
0>
1C
0F
b0 .
0B
b1101 !
b1101 ,
b1101 "
b1101 -
1J
0M
14
05
0<
1D
0E
1K
00
07
0?
1G
b1000 /
b1000 $
b1000 *
b1000 )
#89000
1;
19
b1110 !
b1110 ,
b1110 "
b1110 -
03
b1 .
12
04
15
10
b1001 /
b1001 $
b1001 *
b1001 )
#90000
0#
1J
0M
0I
0B
1C
0F
0A
09
0:
13
b0 .
02
b1111 !
b1111 ,
b1111 "
b1111 -
1;
0>
14
05
1<
00
17
b1010 /
b1010 $
b1010 *
b1010 )
#91000
1#
0J
1M
1I
1B
0C
1F
1A
1:
0;
1>
19
b10000 !
b10000 ,
b0 "
b0 -
03
b111 .
12
04
15
10
b1011 /
b1011 $
b1011 *
b1011 )
#92000
0A
09
0:
13
b100 .
02
0;
0>
b10001 !
b10001 ,
b1 "
b1 -
0C
0F
14
05
0<
0D
1E
00
07
1?
b1100 /
b1100 $
b1100 *
b1100 )
#93000
1;
19
b10010 !
b10010 ,
b10 "
b10 -
03
b101 .
12
04
15
10
b1101 /
b1101 $
b1101 *
b1101 )
#94000
0C
0A
09
0:
13
b100 .
02
b10011 !
b10011 ,
b11 "
b11 -
1;
0>
14
05
1<
00
17
b1110 /
b1110 $
b1110 *
b1110 )
#95000
1C
1A
1:
0;
1>
19
b10100 !
b10100 ,
b100 "
b100 -
03
b111 .
12
04
15
10
b1111 /
b1111 $
b1111 *
b1111 )
#96000
0A
0I
0#
0:
1C
0F
0B
0J
0M
1D
0E
0K
09
00
07
0?
0G
03
b0 .
02
b110 !
b110 ,
b110 "
b110 -
1;
0>
b0 /
04
05
1<
0=
01
18
b0 $
b0 *
b110 %
b110 +
b110 (
b0 )
#97000
b111 !
b111 ,
b111 "
b111 -
13
14
10
b1 /
b1 $
b1 *
b1 )
#98000
1J
1I
1B
0C
1F
1A
03
b1000 !
b1000 ,
b1000 "
b1000 -
0;
b110 .
1:
04
0<
1=
00
17
b10 /
b10 $
b10 *
b10 )
#99000
b1001 !
b1001 ,
b1001 "
b1001 -
13
14
10
b11 /
b11 $
b11 *
b11 )
#100000
0A
03
1;
b100 .
0:
b1010 !
b1010 ,
b1010 "
b1010 -
0C
0F
04
1<
0=
0D
1E
00
07
1?
b100 /
b100 $
b100 *
b100 )
#101000
b1011 !
b1011 ,
b1011 "
b1011 -
13
14
10
b101 /
b101 $
b101 *
b101 )
#102000
1C
1A
03
b1100 !
b1100 ,
b1100 "
b1100 -
0;
b110 .
1:
04
0<
1=
00
17
b110 /
b110 $
b110 *
b110 )
#103000
b1101 !
b1101 ,
b1101 "
b1101 -
13
14
10
b111 /
b111 $
b111 *
b111 )
#104000
0A
0I
0#
03
1;
0:
1C
0F
b0 .
0B
b1110 !
b1110 ,
b1110 "
b1110 -
1J
0M
04
1<
0=
1D
0E
1K
00
07
0?
1G
b1000 /
b1000 $
b1000 *
b1000 )
#105000
b1111 !
b1111 ,
b1111 "
b1111 -
13
14
10
b1001 /
b1001 $
b1001 *
b1001 )
#106000
1#
0J
1M
1I
1B
0C
1F
1A
03
b10000 !
b10000 ,
b0 "
b0 -
0;
b110 .
1:
04
0<
1=
00
17
b1010 /
b1010 $
b1010 *
b1010 )
#107000
b10001 !
b10001 ,
b1 "
b1 -
13
14
10
b1011 /
b1011 $
b1011 *
b1011 )
#108000
0A
03
1;
b100 .
0:
b10010 !
b10010 ,
b10 "
b10 -
0C
0F
04
1<
0=
0D
1E
00
07
1?
b1100 /
b1100 $
b1100 *
b1100 )
#109000
b10011 !
b10011 ,
b11 "
b11 -
13
14
10
b1101 /
b1101 $
b1101 *
b1101 )
#110000
1C
1A
03
b10100 !
b10100 ,
b100 "
b100 -
0;
b110 .
1:
04
0<
1=
00
17
b1110 /
b1110 $
b1110 *
b1110 )
#111000
b10101 !
b10101 ,
b101 "
b101 -
13
14
10
b1111 /
b1111 $
b1111 *
b1111 )
#112000
0A
0:
1;
0I
0#
1C
0F
0B
0J
0M
0>
1<
0=
1D
0E
0K
09
00
07
0?
0G
b111 !
b111 ,
b111 "
b111 -
13
b0 .
02
b0 /
14
05
11
b0 $
b0 *
b111 %
b111 +
b111 (
b0 )
#113000
1J
1I
1B
0C
1F
1A
1:
0;
1>
19
b1000 !
b1000 ,
b1000 "
b1000 -
03
b111 .
12
04
15
10
b1 /
b1 $
b1 *
b1 )
#114000
09
13
b110 .
02
b1001 !
b1001 ,
b1001 "
b1001 -
0;
0>
14
05
0<
1=
00
17
b10 /
b10 $
b10 *
b10 )
#115000
1;
19
b1010 !
b1010 ,
b1010 "
b1010 -
03
b111 .
12
04
15
10
b11 /
b11 $
b11 *
b11 )
#116000
09
0A
13
02
1;
0>
b100 .
0:
b1011 !
b1011 ,
b1011 "
b1011 -
0C
0F
14
05
1<
0=
0D
1E
00
07
1?
b100 /
b100 $
b100 *
b100 )
#117000
1C
1A
1:
0;
1>
19
b1100 !
b1100 ,
b1100 "
b1100 -
03
b111 .
12
04
15
10
b101 /
b101 $
b101 *
b101 )
#118000
09
13
b110 .
02
b1101 !
b1101 ,
b1101 "
b1101 -
0;
0>
14
05
0<
1=
00
17
b110 /
b110 $
b110 *
b110 )
#119000
1;
19
b1110 !
b1110 ,
b1110 "
b1110 -
03
b111 .
12
04
15
10
b111 /
b111 $
b111 *
b111 )
#120000
09
0A
0I
0#
13
02
1;
0>
0:
1C
0F
b0 .
0B
b1111 !
b1111 ,
b1111 "
b1111 -
1J
0M
14
05
1<
0=
1D
0E
1K
00
07
0?
1G
b1000 /
b1000 $
b1000 *
b1000 )
#121000
1#
0J
1M
1I
1B
0C
1F
1A
1:
0;
1>
19
b10000 !
b10000 ,
b0 "
b0 -
03
b111 .
12
04
15
10
b1001 /
b1001 $
b1001 *
b1001 )
#122000
09
13
b110 .
02
b10001 !
b10001 ,
b1 "
b1 -
0;
0>
14
05
0<
1=
00
17
b1010 /
b1010 $
b1010 *
b1010 )
#123000
1;
19
b10010 !
b10010 ,
b10 "
b10 -
03
b111 .
12
04
15
10
b1011 /
b1011 $
b1011 *
b1011 )
#124000
09
0A
13
02
1;
0>
b100 .
0:
b10011 !
b10011 ,
b11 "
b11 -
0C
0F
14
05
1<
0=
0D
1E
00
07
1?
b1100 /
b1100 $
b1100 *
b1100 )
#125000
1C
1A
1:
0;
1>
19
b10100 !
b10100 ,
b100 "
b100 -
03
b111 .
12
04
15
10
b1101 /
b1101 $
b1101 *
b1101 )
#126000
09
13
b110 .
02
b10101 !
b10101 ,
b101 "
b101 -
0;
0>
14
05
0<
1=
00
17
b1110 /
b1110 $
b1110 *
b1110 )
#127000
1;
19
b10110 !
b10110 ,
b110 "
b110 -
03
b111 .
12
04
15
10
b1111 /
b1111 $
b1111 *
b1111 )
#128000
0#
09
0A
0I
00
07
0?
0G
03
02
0;
0>
0:
0C
0F
b0 .
0B
b1000 !
b1000 ,
b1000 "
b1000 -
1J
0M
b0 /
04
05
0<
0=
0D
0E
1K
0L
01
08
0@
1H
b0 $
b0 *
b1000 %
b1000 +
b1000 (
b0 )
#129000
b1001 !
b1001 ,
b1001 "
b1001 -
13
14
10
b1 /
b1 $
b1 *
b1 )
#130000
03
b1010 !
b1010 ,
b1010 "
b1010 -
1;
04
1<
00
17
b10 /
b10 $
b10 *
b10 )
#131000
b1011 !
b1011 ,
b1011 "
b1011 -
13
14
10
b11 /
b11 $
b11 *
b11 )
#132000
03
0;
b1100 !
b1100 ,
b1100 "
b1100 -
1C
04
0<
1D
00
07
1?
b100 /
b100 $
b100 *
b100 )
#133000
b1101 !
b1101 ,
b1101 "
b1101 -
13
14
10
b101 /
b101 $
b101 *
b101 )
#134000
03
b1110 !
b1110 ,
b1110 "
b1110 -
1;
04
1<
00
17
b110 /
b110 $
b110 *
b110 )
#135000
b1111 !
b1111 ,
b1111 "
b1111 -
13
14
10
b111 /
b111 $
b111 *
b111 )
#136000
03
0;
0C
b0 "
b0 -
0J
b10000 !
b10000 ,
1#
04
0<
0D
0K
1L
00
07
0?
1G
b1000 /
b1000 $
b1000 *
b1000 )
#137000
b10001 !
b10001 ,
b1 "
b1 -
13
14
10
b1001 /
b1001 $
b1001 *
b1001 )
#138000
03
b10010 !
b10010 ,
b10 "
b10 -
1;
04
1<
00
17
b1010 /
b1010 $
b1010 *
b1010 )
#139000
b10011 !
b10011 ,
b11 "
b11 -
13
14
10
b1011 /
b1011 $
b1011 *
b1011 )
#140000
03
0;
b10100 !
b10100 ,
b100 "
b100 -
1C
04
0<
1D
00
07
1?
b1100 /
b1100 $
b1100 *
b1100 )
#141000
b10101 !
b10101 ,
b101 "
b101 -
13
14
10
b1101 /
b1101 $
b1101 *
b1101 )
#142000
03
b10110 !
b10110 ,
b110 "
b110 -
1;
04
1<
00
17
b1110 /
b1110 $
b1110 *
b1110 )
#143000
b10111 !
b10111 ,
b111 "
b111 -
13
14
10
b1111 /
b1111 $
b1111 *
b1111 )
#144000
0;
0C
1J
0#
0<
0D
1K
0L
09
00
07
0?
0G
b1001 !
b1001 ,
b1001 "
b1001 -
13
b0 .
02
b0 /
14
05
11
b0 $
b0 *
b1001 %
b1001 +
b1001 (
b0 )
#145000
1;
19
b1010 !
b1010 ,
b1010 "
b1010 -
03
b1 .
12
04
15
10
b1 /
b1 $
b1 *
b1 )
#146000
0C
0A
09
0:
13
b0 .
02
b1011 !
b1011 ,
b1011 "
b1011 -
1;
0>
14
05
1<
00
17
b10 /
b10 $
b10 *
b10 )
#147000
1C
1A
1:
0;
1>
19
b1100 !
b1100 ,
b1100 "
b1100 -
03
b11 .
12
04
15
10
b11 /
b11 $
b11 *
b11 )
#148000
0#
1J
0M
0A
0I
09
0:
0B
13
b0 .
02
0;
0>
b1101 !
b1101 ,
b1101 "
b1101 -
1C
0F
14
05
0<
1D
00
07
1?
b100 /
b100 $
b100 *
b100 )
#149000
1;
19
b1110 !
b1110 ,
b1110 "
b1110 -
03
b1 .
12
04
15
10
b101 /
b101 $
b101 *
b101 )
#150000
0#
1J
0M
0I
0B
1C
0F
0A
09
0:
13
b0 .
02
b1111 !
b1111 ,
b1111 "
b1111 -
1;
0>
14
05
1<
00
17
b110 /
b110 $
b110 *
b110 )
#151000
1#
0J
1M
1I
1B
0C
1F
1A
1:
0;
1>
19
b10000 !
b10000 ,
b0 "
b0 -
03
b111 .
12
04
15
10
b111 /
b111 $
b111 *
b111 )
#152000
0A
0I
09
0:
0B
13
b0 .
02
0;
0>
0C
0F
b10001 !
b10001 ,
b1 "
b1 -
0J
0M
14
05
0<
0D
0K
1L
00
07
0?
1G
b1000 /
b1000 $
b1000 *
b1000 )
#153000
1;
19
b10010 !
b10010 ,
b10 "
b10 -
03
b1 .
12
04
15
10
b1001 /
b1001 $
b1001 *
b1001 )
#154000
0C
0A
09
0:
13
b0 .
02
b10011 !
b10011 ,
b11 "
b11 -
1;
0>
14
05
1<
00
17
b1010 /
b1010 $
b1010 *
b1010 )
#155000
1C
1A
1:
0;
1>
19
b10100 !
b10100 ,
b100 "
b100 -
03
b11 .
12
04
15
10
b1011 /
b1011 $
b1011 *
b1011 )
#156000
0J
0A
0I
09
0:
0B
13
b0 .
02
0;
0>
b10101 !
b10101 ,
b101 "
b101 -
1C
0F
14
05
0<
1D
00
07
1?
b1100 /
b1100 $
b1100 *
b1100 )
#157000
1;
19
b10110 !
b10110 ,
b110 "
b110 -
03
b1 .
12
04
15
10
b1101 /
b1101 $
b1101 *
b1101 )
#158000
0J
0I
0B
1C
0F
0A
09
0:
13
b0 .
02
b10111 !
b10111 ,
b111 "
b111 -
1;
0>
14
05
1<
00
17
b1110 /
b1110 $
b1110 *
b1110 )
#159000
1J
1I
1B
0C
1F
1A
1:
0;
1>
19
b11000 !
b11000 ,
b1000 "
b1000 -
03
b111 .
12
04
15
10
b1111 /
b1111 $
b1111 *
b1111 )
#160000
0I
0A
0B
0:
0C
0F
1J
0M
0#
0D
1K
0L
09
00
07
0?
0G
03
b0 .
02
b1010 !
b1010 ,
b1010 "
b1010 -
1;
0>
b0 /
04
05
1<
0=
01
18
b0 $
b0 *
b1010 %
b1010 +
b1010 (
b0 )
#161000
b1011 !
b1011 ,
b1011 "
b1011 -
13
14
10
b1 /
b1 $
b1 *
b1 )
#162000
1C
1A
03
b1100 !
b1100 ,
b1100 "
b1100 -
0;
b10 .
1:
04
0<
1=
00
17
b10 /
b10 $
b10 *
b10 )
#163000
b1101 !
b1101 ,
b1101 "
b1101 -
13
14
10
b11 /
b11 $
b11 *
b11 )
#164000
0#
1J
0M
0I
0A
0B
03
1;
b0 .
0:
b1110 !
b1110 ,
b1110 "
b1110 -
1C
0F
04
1<
0=
1D
00
07
1?
b100 /
b100 $
b100 *
b100 )
#165000
b1111 !
b1111 ,
b1111 "
b1111 -
13
14
10
b101 /
b101 $
b101 *
b101 )
#166000
1#
0J
1M
1I
1B
0C
1F
1A
03
b10000 !
b10000 ,
b0 "
b0 -
0;
b110 .
1:
04
0<
1=
00
17
b110 /
b110 $
b110 *
b110 )
#167000
b10001 !
b10001 ,
b1 "
b1 -
13
14
10
b111 /
b111 $
b111 *
b111 )
#168000
0I
0A
0B
03
1;
b0 .
0:
0C
0F
b10010 !
b10010 ,
b10 "
b10 -
0J
0M
04
1<
0=
0D
0K
1L
00
07
0?
1G
b1000 /
b1000 $
b1000 *
b1000 )
#169000
b10011 !
b10011 ,
b11 "
b11 -
13
14
10
b1001 /
b1001 $
b1001 *
b1001 )
#170000
1C
1A
03
b10100 !
b10100 ,
b100 "
b100 -
0;
b10 .
1:
04
0<
1=
00
17
b1010 /
b1010 $
b1010 *
b1010 )
#171000
b10101 !
b10101 ,
b101 "
b101 -
13
14
10
b1011 /
b1011 $
b1011 *
b1011 )
#172000
0J
0I
0A
0B
03
1;
b0 .
0:
b10110 !
b10110 ,
b110 "
b110 -
1C
0F
04
1<
0=
1D
00
07
1?
b1100 /
b1100 $
b1100 *
b1100 )
