verilog/digitalsystem7/counter_tb.vcd
$date
	Tue Oct 22 00:52:52 2019
$end
$version
	Icarus Verilog
$end
$timescale
	1ns
$end
$scope module RES_UPDNC_tb $end
$var wire 4 ! Q [3:0] $end
$var reg 1 " CLK $end
$var reg 1 # RESETN $end
$var reg 1 $ UD $end
$var integer 32 % i [31:0] $end
$scope module test $end
$var wire 1 " CLK $end
$var wire 1 # RESETN $end
$var wire 1 & UD $end
$var wire 1 ' w $end
$var wire 4 ( nQ [3:0] $end
$var wire 4 ) Q [3:0] $end
$scope module F1 $end
$var wire 1 " CLK $end
$var wire 1 ' J $end
$var wire 1 ' K $end
$var wire 1 # set $end
$var wire 1 * w1 $end
$var wire 1 + nQ $end
$var wire 1 , Q $end
$scope module F1 $end
$var wire 1 " CLK $end
$var wire 1 * D $end
$var wire 1 # set $end
$var wire 1 - w4 $end
$var wire 1 . w3 $end
$var wire 1 / w2 $end
$var wire 1 0 w1 $end
$var wire 1 + nQ $end
$var wire 1 , Q $end
$scope module L1 $end
$var wire 1 0 Q $end
$var wire 1 / nQ $end
$var wire 1 1 r $end
$var wire 1 2 s $end
$upscope $end
$scope module L2 $end
$var wire 1 . Q $end
$var wire 1 - nQ $end
$var wire 1 3 r $end
$var wire 1 4 s $end
$upscope $end
$scope module L3 $end
$var wire 1 , Q $end
$var wire 1 + nQ $end
$var wire 1 . r $end
$var wire 1 / s $end
$upscope $end
$upscope $end
$upscope $end
$scope module F2 $end
$var wire 1 " CLK $end
$var wire 1 5 J $end
$var wire 1 6 K $end
$var wire 1 # set $end
$var wire 1 7 w1 $end
$var wire 1 8 nQ $end
$var wire 1 9 Q $end
$scope module F1 $end
$var wire 1 " CLK $end
$var wire 1 7 D $end
$var wire 1 # set $end
$var wire 1 : w4 $end
$var wire 1 ; w3 $end
$var wire 1 < w2 $end
$var wire 1 = w1 $end
$var wire 1 8 nQ $end
$var wire 1 9 Q $end
$scope module L1 $end
$var wire 1 = Q $end
$var wire 1 < nQ $end
$var wire 1 > r $end
$var wire 1 ? s $end
$upscope $end
$scope module L2 $end
$var wire 1 ; Q $end
$var wire 1 : nQ $end
$var wire 1 @ r $end
$var wire 1 A s $end
$upscope $end
$scope module L3 $end
$var wire 1 9 Q $end
$var wire 1 8 nQ $end
$var wire 1 ; r $end
$var wire 1 < s $end
$upscope $end
$upscope $end
$upscope $end
$scope module F3 $end
$var wire 1 " CLK $end
$var wire 1 B J $end
$var wire 1 C K $end
$var wire 1 # set $end
$var wire 1 D w1 $end
$var wire 1 E nQ $end
$var wire 1 F Q $end
$scope module F1 $end
$var wire 1 " CLK $end
$var wire 1 D D $end
$var wire 1 # set $end
$var wire 1 G w4 $end
$var wire 1 H w3 $end
$var wire 1 I w2 $end
$var wire 1 J w1 $end
$var wire 1 E nQ $end
$var wire 1 F Q $end
$scope module L1 $end
$var wire 1 J Q $end
$var wire 1 I nQ $end
$var wire 1 K r $end
$var wire 1 L s $end
$upscope $end
$scope module L2 $end
$var wire 1 H Q $end
$var wire 1 G nQ $end
$var wire 1 M r $end
$var wire 1 N s $end
$upscope $end
$scope module L3 $end
$var wire 1 F Q $end
$var wire 1 E nQ $end
$var wire 1 H r $end
$var wire 1 I s $end
$upscope $end
$upscope $end
$upscope $end
$scope module F4 $end
$var wire 1 " CLK $end
$var wire 1 O J $end
$var wire 1 P K $end
$var wire 1 # set $end
$var wire 1 Q w1 $end
$var wire 1 R nQ $end
$var wire 1 S Q $end
$scope module F1 $end
$var wire 1 " CLK $end
$var wire 1 Q D $end
$var wire 1 # set $end
$var wire 1 T w4 $end
$var wire 1 U w3 $end
$var wire 1 V w2 $end
$var wire 1 W w1 $end
$var wire 1 R nQ $end
$var wire 1 S Q $end
$scope module L1 $end
$var wire 1 W Q $end
$var wire 1 V nQ $end
$var wire 1 X r $end
$var wire 1 Y s $end
$upscope $end
$scope module L2 $end
$var wire 1 U Q $end
$var wire 1 T nQ $end
$var wire 1 Z r $end
$var wire 1 [ s $end
$upscope $end
$scope module L3 $end
$var wire 1 S Q $end
$var wire 1 R nQ $end
$var wire 1 U r $end
$var wire 1 V s $end
$upscope $end
$upscope $end
$upscope $end
$upscope $end
$upscope $end
$enddefinitions $end
#0
$dumpvars
0[
xZ
xY
0X
xW
1V
1U
xT
xS
xR
xQ
xP
xO
0N
xM
xL
0K
xJ
1I
1H
xG
xF
xE
xD
xC
xB
0A
x@
x?
0>
x=
1<
1;
x:
x9
x8
x7
x6
x5
04
x3
x2
01
x0
1/
1.
x-
x,
x+
x*
bx )
bx (
1'
1&
bx %
0$
0#
0"
bx !
$end
#10
07
0D
0Q
06
05
0C
0B
0P
0O
0,
1*
09
0F
b0 !
b0 )
0S
1+
18
1E
b1111 (
1R
1-
1:
1G
1T
00
0.
0=
0;
0J
0H
0W
0U
03
0@
0M
0Z
12
14
1?
1A
1L
1N
1Y
1[
1#
#20
10
02
0-
1.
1;
1H
1U
13
04
0A
0N
0[
0#
b0 %
#40
12
1-
1@
03
17
0*
16
15
b1110 (
0+
b1 !
b1 )
1,
0;
0H
0U
0/
04
1A
1N
1[
11
1>
1K
1X
1"
b1 %
#60
1=
0?
0:
00
1;
1H
1U
1/
0A
0N
0[
01
0>
0K
0X
0"
b10 %
#80
0?
0:
06
05
0M
1@
0D
13
17
0,
1*
0C
0B
08
b1101 (
1+
b10 !
b10 )
19
0.
0H
0U
0<
14
0A
1N
1[
11
1>
1K
1X
1"
b11 %
#100
10
02
0-
1.
1H
1U
1<
04
0N
0[
01
0>
0K
0X
0"
b100 %
#120
1?
1:
12
1-
1M
0@
1D
07
03
0*
1C
1B
16
15
b1100 (
0+
b11 !
b11 )
1,
0H
0U
0/
0<
04
0A
1N
1[
11
1>
1K
1X
1"
b101 %
#140
1J
0L
0G
00
0=
1H
1U
1/
1<
0N
0[
01
0>
0K
0X
0"
b110 %
#160
0L
0G
06
05
0C
0B
0Z
1M
0Q
13
0@
1D
0,
1*
09
07
0P
0O
0E
1+
b1011 (
18
b100 !
b100 )
1F
0.
0;
0U
0I
14
1A
0N
1[
11
1>
1K
1X
1"
b111 %
#180
10
02
0-
1.
1;
1U
1I
04
0A
0[
01
0>
0K
0X
0"
b1000 %
#200
12
1-
1@
03
17
0*
16
15
b1010 (
0+
b101 !
b101 )
1,
0;
0U
0/
0I
04
1A
0N
1[
11
1>
1K
1X
1"
b1001 %
#220
1=
0?
0:
00
1;
1U
1/
1I
0A
0[
01
0>
0K
0X
0"
b1010 %
#240
0L
0G
0?
0:
1Z
1M
06
05
1Q
1D
1@
13
17
1P
1O
0,
1*
0C
0B
08
b1001 (
1+
b110 !
b110 )
19
0.
0U
0<
0I
14
0A
0N
1[
11
1>
1K
1X
1"
b1011 %
#260
10
1W
02
0Y
0-
0T
1.
1U
1<
1I
04
0[
01
0>
0K
0X
0"
b1100 %
#280
1L
1G
1?
1:
12
0M
1Y
1-
0D
0@
1T
07
03
0Z
0*
1C
1B
0Q
16
15
0+
b0 (
0R
1,
b1111 !
b1111 )
1S
0/
0<
0I
0V
04
0A
0N
0[
11
1>
1K
1X
1"
b1101 %
#300
00
0=
0J
0W
1/
1<
1I
1V
01
0>
0K
0X
0"
b1110 %
#320
06
05
0C
0B
0P
0O
13
0@
0M
0Z
0,
1*
09
07
0F
0D
b0 !
b0 )
0S
0Q
1+
18
1E
b1111 (
1R
0.
0;
0H
0U
14
1A
1N
1[
11
1>
1K
1X
1"
b1111 %
#340
10
02
0-
1.
1;
1H
1U
04
0A
0N
0[
01
0>
0K
0X
0"
b10000 %
#360
12
1-
1@
03
17
0*
16
15
b1110 (
0+
b1 !
b1 )
1,
0;
0H
0U
0/
04
1A
1N
1[
11
1>
1K
1X
1"
b10001 %
#380
1=
0?
0:
00
1;
1H
1U
1/
0A
0N
0[
01
0>
0K
0X
0"
b10010 %
#400
0?
0:
06
05
0M
1@
0D
13
17
0,
1*
0C
0B
08
b1101 (
1+
b10 !
b10 )
19
0.
0H
0U
0<
14
0A
1N
1[
11
1>
1K
1X
1"
b10011 %
#420
10
02
0-
1.
1H
1U
1<
04
0N
0[
01
0>
0K
0X
0"
b10100 %
#440
1?
1:
12
1-
1M
0@
1D
07
03
0*
1C
1B
16
15
b1100 (
0+
b11 !
b11 )
1,
0H
0U
0/
0<
04
0A
1N
1[
11
1>
1K
1X
1"
b10101 %
#460
1J
0L
0G
00
0=
1H
1U
1/
1<
0N
0[
01
0>
0K
0X
0"
b10110 %
#480
0L
0G
06
05
0C
0B
0Z
1M
0Q
13
0@
1D
0,
1*
09
07
0P
0O
0E
1+
b1011 (
18
b100 !
b100 )
1F
0.
0;
0U
0I
14
1A
0N
1[
11
1>
1K
1X
1"
b10111 %
#500
10
02
0-
1.
1;
1U
1I
04
0A
0[
01
0>
0K
0X
0"
b11000 %
#520
12
1-
1@
03
17
0*
16
15
b1010 (
0+
b101 !
b101 )
1,
0;
0U
0/
0I
04
1A
0N
1[
11
1>
1K
1X
1"
b11001 %
#540
1=
0?
0:
00
1;
1U
1/
1I
0A
0[
01
0>
0K
0X
0"
b11010 %
#560
0L
0G
0?
0:
1Z
1M
06
05
1Q
1D
1@
13
17
1P
1O
0,
1*
0C
0B
08
b1001 (
1+
b110 !
b110 )
19
0.
0U
0<
0I
14
0A
0N
1[
11
1>
1K
1X
1"
b11011 %
#580
10
1W
02
0Y
0-
0T
1.
1U
1<
1I
04
0[
01
0>
0K
0X
0"
b11100 %
#600
1L
1G
1?
1:
12
0M
1Y
1-
0D
0@
1T
07
03
0Z
0*
1C
1B
0Q
16
15
0+
b0 (
0R
1,
b1111 !
b1111 )
1S
0/
0<
0I
0V
04
0A
0N
0[
11
1>
1K
1X
1"
b11101 %
#620
00
0=
0J
0W
1/
1<
1I
1V
01
0>
0K
0X
0"
b11110 %
#640
06
05
0C
0B
0P
0O
13
0@
0M
0Z
0,
1*
09
07
0F
0D
b0 !
b0 )
0S
0Q
1+
18
1E
b1111 (
1R
0.
0;
0H
0U
14
1A
1N
1[
11
1>
1K
1X
1"
b11111 %
#660
1J
1W
1=
0L
0Y
0?
0G
0T
0:
10
1M
1Z
1@
1D
1Q
02
17
0-
1B
1C
1O
1P
15
16
1.
1;
1H
1U
04
0A
0N
0[
0&
01
0>
0K
0X
1$
0"
b0 %
#680
12
0?
0L
0Y
1-
0:
0G
0T
03
06
05
1@
0C
0B
1M
0P
0O
1Z
0*
17
1D
1Q
0+
08
0E
b0 (
0R
1,
19
1F
b1111 !
b1111 )
1S
0/
0<
0I
0V
04
0A
0N
0[
11
1>
1K
1X
1"
b1 %
#700
00
1/
1<
1I
1V
01
0>
0K
0X
0"
b10 %
#720
1?
1:
0@
07
13
16
15
b1110 !
b1110 )
0,
1*
b1 (
1+
0.
0<
0I
0V
14
0A
0N
0[
11
1>
1K
1X
1"
b11 %
#740
10
02
0-
0=
1.
1<
1I
1V
04
01
0>
0K
0X
0"
b100 %
#760
0L
0G
12
1M
1-
1D
03
06
05
0*
0@
0C
0B
09
07
0+
b10 (
18
b1101 !
b1101 )
1,
0;
0/
0I
0V
04
1A
0N
0[
11
1>
1K
1X
1"
b101 %
#780
00
1;
1/
1I
1V
0A
01
0>
0K
0X
0"
b110 %
#800
1L
1G
0M
0D
1@
17
1C
1B
13
16
15
b1100 !
b1100 )
0,
1*
b11 (
1+
0.
0;
0I
0V
14
1A
0N
0[
11
1>
1K
1X
1"
b111 %
#820
10
1=
02
0?
0-
0:
0J
1.
1;
1I
1V
04
0A
01
0>
0K
0X
0"
b1000 %
#840
0Y
0T
12
0?
1Z
1-
0:
1Q
03
06
05
1@
0C
0B
0*
17
0M
0P
0O
0F
0D
0+
08
b100 (
1E
1,
b1011 !
b1011 )
19
0H
0/
0<
0V
04
0A
1N
0[
11
1>
1K
1X
1"
b1001 %
#860
00
1H
1/
1<
1V
0N
01
0>
0K
0X
0"
b1010 %
#880
1?
1:
0@
07
13
16
15
b1010 !
b1010 )
0,
1*
b101 (
1+
0.
0H
0<
0V
14
0A
1N
0[
11
1>
1K
1X
1"
b1011 %
#900
10
02
0-
0=
1.
1H
1<
1V
04
0N
01
0>
0K
0X
0"
b1100 %
#920
1Y
1T
0Z
12
0Q
1-
0M
0D
03
06
05
1P
1O
0*
0@
0C
0B
09
07
0+
b110 (
18
b1001 !
b1001 )
1,
0;
0H
0/
0V
04
1A
1N
0[
11
1>
1K
1X
1"
b1101 %
#940
00
0W
1;
1H
1/
1V
0A
0N
01
0>
0K
0X
0"
b1110 %
#960
1M
1D
1@
17
1C
1B
13
16
15
1Z
0,
1*
b0 !
b0 )
0S
1Q
1+
b1111 (
1R
0.
0;
0H
0U
14
1A
1N
1[
11
1>
1K
1X
1"
b1111 %
#980
10
1=
1J
1W
02
0?
0L
0Y
0-
0:
0G
0T
1.
1;
1H
1U
04
0A
0N
0[
01
0>
0K
0X
0"
b10000 %
#1000
12
0?
0L
0Y
1-
0:
0G
0T
03
06
05
1@
0C
0B
1M
0P
0O
1Z
0*
17
1D
1Q
0+
08
0E
b0 (
0R
1,
19
1F
b1111 !
b1111 )
1S
0/
0<
0I
0V
04
0A
0N
0[
11
1>
1K
1X
1"
b10001 %
#1020
00
1/
1<
1I
1V
01
0>
0K
0X
0"
b10010 %
#1040
1?
1:
0@
07
13
16
15
b1110 !
b1110 )
0,
1*
b1 (
1+
0.
0<
0I
0V
14
0A
0N
0[
11
1>
1K
1X
1"
b10011 %
#1060
10
02
0-
0=
1.
1<
1I
1V
04
01
0>
0K
0X
0"
b10100 %
#1080
0L
0G
12
1M
1-
1D
03
06
05
0*
0@
0C
0B
09
07
0+
b10 (
18
b1101 !
b1101 )
1,
0;
0/
0I
0V
04
1A
0N
0[
11
1>
1K
1X
1"
b10101 %
#1100
00
1;
1/
1I
1V
0A
01
0>
0K
0X
0"
b10110 %
#1120
1L
1G
0M
0D
1@
17
1C
1B
13
16
15
b1100 !
b1100 )
0,
1*
b11 (
1+
0.
0;
0I
0V
14
1A
0N
0[
11
1>
1K
1X
1"
b10111 %
#1140
10
1=
02
0?
0-
0:
0J
1.
1;
1I
1V
04
0A
01
0>
0K
0X
0"
b11000 %
#1160
0Y
0T
12
0?
1Z
1-
0:
1Q
03
06
05
1@
0C
0B
0*
17
0M
0P
0O
0F
0D
0+
08
b100 (
1E
1,
b1011 !
b1011 )
19
0H
0/
0<
0V
04
0A
1N
0[
11
1>
1K
1X
1"
b11001 %
#1180
00
1H
1/
1<
1V
0N
01
0>
0K
0X
0"
b11010 %
#1200
1?
1:
0@
07
13
16
15
b1010 !
b1010 )
0,
1*
b101 (
1+
0.
0H
0<
0V
14
0A
1N
0[
11
1>
1K
1X
1"
b11011 %
#1220
10
02
0-
0=
1.
1H
1<
1V
04
0N
01
0>
0K
0X
0"
b11100 %
#1240
1Y
1T
0Z
12
0Q
1-
0M
0D
03
06
05
1P
1O
0*
0@
0C
0B
09
07
0+
b110 (
18
b1001 !
b1001 )
1,
0;
0H
0/
0V
04
1A
1N
0[
11
1>
1K
1X
1"
b11101 %
#1260
00
0W
1;
1H
1/
1V
0A
0N
01
0>
0K
0X
0"
b11110 %
#1280
1M
1D
1@
17
1C
1B
13
16
15
1Z
0,
1*
b0 !
b0 )
0S
1Q
1+
b1111 (
1R
0.
0;
0H
0U
14
1A
1N
1[
11
1>
1K
1X
1"
b11111 %
#1300
10
1=
1J
1W
02
0?
0L
0Y
0-
0:
0G
0T
1.
1;
1H
1U
04
0A
0N
0[
01
0>
0K
0X
0"
b100000 %
