verilog/digital_system_experiment/digitalsystem project/counter_tb.vcd
$date
	Sat Nov 30 14:39:37 2019
$end
$version
	Icarus Verilog
$end
$timescale
	1us
$end
$scope module counter_tb $end
$var wire 1 ! c_out $end
$var reg 1 " clk $end
$var reg 1 # reset $end
$scope module counter $end
$var wire 1 ! c_out $end
$var wire 1 " clk $end
$var wire 1 # reset $end
$var reg 6 $ count [5:0] $end
$var reg 1 % q $end
$upscope $end
$upscope $end
$enddefinitions $end
#0
$dumpvars
0%
b0 $
1#
1"
0!
$end
#500
0"
#1000
b1 $
1"
0#
#1500
0"
#2000
b10 $
1"
#2500
0"
#3000
b11 $
1"
#3500
0"
#4000
b100 $
1"
#4500
0"
#5000
b101 $
1"
#5500
0"
#6000
b110 $
1"
#6500
0"
#7000
b111 $
1"
#7500
0"
#8000
b1000 $
1"
#8500
0"
#9000
b1001 $
1"
#9500
0"
#10000
b1010 $
1"
#10500
0"
#11000
b1011 $
1"
#11500
0"
#12000
b1100 $
1"
#12500
0"
#13000
b1101 $
1"
#13500
0"
#14000
b1110 $
1"
#14500
0"
#15000
b1111 $
1"
#15500
0"
#16000
b10000 $
1"
#16500
0"
#17000
b10001 $
1"
#17500
0"
#18000
b10010 $
1"
#18500
0"
#19000
b10011 $
1"
#19500
0"
#20000
b10100 $
1"
#20500
0"
#21000
b10101 $
1"
#21500
0"
#22000
b10110 $
1"
#22500
0"
#23000
b10111 $
1"
#23500
0"
#24000
b11000 $
1"
#24500
0"
#25000
b11001 $
1"
#25500
0"
#26000
b11010 $
1"
#26500
0"
#27000
b11011 $
1"
#27500
0"
#28000
b11100 $
1"
#28500
0"
#29000
b11101 $
1"
#29500
0"
#30000
b11110 $
1"
#30500
0"
#31000
b11111 $
1"
#31500
0"
#32000
b100000 $
1"
#32500
0"
#33000
b100001 $
1"
#33500
0"
#34000
b100010 $
1"
#34500
0"
#35000
b100011 $
1"
#35500
0"
#36000
b100100 $
1"
#36500
0"
#37000
b100101 $
1"
#37500
0"
#38000
b100110 $
1"
#38500
0"
#39000
b100111 $
1"
#39500
0"
#40000
b101000 $
1"
#40500
0"
#41000
b101001 $
1"
#41500
0"
#42000
b101010 $
1"
#42500
0"
#43000
b101011 $
1"
#43500
0"
#44000
b101100 $
1"
#44500
0"
#45000
b101101 $
1"
#45500
0"
#46000
b101110 $
1"
#46500
0"
#47000
b101111 $
1"
#47500
0"
#48000
b110000 $
1"
#48500
0"
#49000
b110001 $
1"
#49500
0"
#50000
1!
1%
b0 $
1"
#50500
0"
#51000
b1 $
1"
#51500
0"
#52000
b10 $
1"
#52500
0"
#53000
b11 $
1"
#53500
0"
#54000
b100 $
1"
#54500
0"
#55000
b101 $
1"
#55500
0"
#56000
b110 $
1"
#56500
0"
#57000
b111 $
1"
#57500
0"
#58000
b1000 $
1"
#58500
0"
#59000
b1001 $
1"
#59500
0"
#60000
b1010 $
1"
#60500
0"
#61000
b1011 $
1"
#61500
0"
#62000
b1100 $
1"
#62500
0"
#63000
b1101 $
1"
#63500
0"
#64000
b1110 $
1"
#64500
0"
#65000
b1111 $
1"
#65500
0"
#66000
b10000 $
1"
#66500
0"
#67000
b10001 $
1"
#67500
0"
#68000
b10010 $
1"
#68500
0"
#69000
b10011 $
1"
#69500
0"
#70000
b10100 $
1"
#70500
0"
#71000
b10101 $
1"
#71500
0"
#72000
b10110 $
1"
#72500
0"
#73000
b10111 $
1"
#73500
0"
#74000
b11000 $
1"
#74500
0"
#75000
b11001 $
1"
#75500
0"
#76000
b11010 $
1"
#76500
0"
#77000
b11011 $
1"
#77500
0"
#78000
b11100 $
1"
#78500
0"
#79000
b11101 $
1"
#79500
0"
#80000
b11110 $
1"
#80500
0"
#81000
b11111 $
1"
#81500
0"
#82000
b100000 $
1"
#82500
0"
#83000
b100001 $
1"
#83500
0"
#84000
b100010 $
1"
#84500
0"
#85000
b100011 $
1"
#85500
0"
#86000
b100100 $
1"
#86500
0"
#87000
b100101 $
1"
#87500
0"
#88000
b100110 $
1"
#88500
0"
#89000
b100111 $
1"
#89500
0"
#90000
b101000 $
1"
#90500
0"
#91000
b101001 $
1"
#91500
0"
#92000
b101010 $
1"
#92500
0"
#93000
b101011 $
1"
#93500
0"
#94000
b101100 $
1"
#94500
0"
#95000
b101101 $
1"
#95500
0"
#96000
b101110 $
1"
#96500
0"
#97000
b101111 $
1"
#97500
0"
#98000
b110000 $
1"
#98500
0"
#99000
b110001 $
1"
#99500
0"
#100000
0!
0%
b0 $
1"
#100500
0"
#101000
b1 $
1"
