verilog/digital_system_experiment/digitalsystem project/rtb.vcd
$date
	Mon Dec  9 17:09:44 2019
$end
$version
	Icarus Verilog
$end
$timescale
	100ns
$end
$scope module rtb $end
$var wire 1 ! piezo $end
$var wire 8 " led [7:0] $end
$var wire 4 # R [3:0] $end
$var wire 1 $ LCD_RW $end
$var wire 1 % LCD_RS $end
$var wire 1 & LCD_E $end
$var wire 8 ' LCD_DATA [7:0] $end
$var wire 4 ( G [3:0] $end
$var wire 4 ) B [3:0] $end
$var reg 1 * CLK $end
$var reg 1 + RESETN $end
$var reg 1 , back $end
$var reg 8 - key [7:0] $end
$var reg 1 . menu1 $end
$var reg 1 / menu2 $end
$scope module rhythm $end
$var wire 1 * CLK $end
$var wire 1 + RESETN $end
$var wire 1 , back $end
$var wire 8 0 key [7:0] $end
$var wire 1 . menu1 $end
$var wire 1 / menu2 $end
$var wire 6 1 rgb [5:0] $end
$var wire 1 ! piezo $end
$var wire 4 2 notes3 [3:0] $end
$var wire 4 3 notes2 [3:0] $end
$var wire 4 4 notes [3:0] $end
$var wire 8 5 led [7:0] $end
$var wire 1 6 em3 $end
$var wire 1 7 em2 $end
$var wire 1 8 em1 $end
$var wire 4 9 R [3:0] $end
$var wire 1 $ LCD_RW $end
$var wire 1 % LCD_RS $end
$var wire 1 & LCD_E $end
$var wire 8 : LCD_DATA [7:0] $end
$var wire 4 ; G [3:0] $end
$var wire 1 < C_OUT2 $end
$var wire 1 = C_OUT $end
$var wire 4 > B [3:0] $end
$var reg 2 ? B_IN [1:0] $end
$var reg 2 @ G_IN [1:0] $end
$var reg 2 A R_IN [1:0] $end
$var reg 1 B en $end
$var reg 4 C music_input [3:0] $end
$var reg 3 D state_game [2:0] $end
$var reg 3 E state_lcd [2:0] $end
$scope module LED $end
$var wire 2 F B_IN [1:0] $end
$var wire 1 * CLK $end
$var wire 2 G G_IN [1:0] $end
$var wire 1 + RESETN $end
$var wire 2 H R_IN [1:0] $end
$var reg 4 I B [3:0] $end
$var reg 4 J G [3:0] $end
$var reg 4 K R [3:0] $end
$var integer 32 L B_REG [31:0] $end
$var integer 32 M CNT [31:0] $end
$var integer 32 N G_REG [31:0] $end
$var integer 32 O R_REG [31:0] $end
$upscope $end
$scope module count1 $end
$var wire 1 * clk $end
$var wire 1 + reset $end
$var wire 1 = c_out $end
$var reg 6 P count [5:0] $end
$var reg 1 = q $end
$upscope $end
$scope module count2 $end
$var wire 1 < c_out $end
$var wire 1 = clk $end
$var wire 1 + reset $end
$var reg 6 Q count [5:0] $end
$var reg 1 R q $end
$upscope $end
$scope module doremi $end
$var wire 1 * clk $end
$var wire 4 S key [3:0] $end
$var wire 1 ! piezo $end
$var wire 1 + reset $end
$var reg 1 T buff $end
$var integer 32 U cnt_sound [31:0] $end
$var integer 32 V limit [31:0] $end
$upscope $end
$scope module lcd_menu $end
$var wire 1 & LCD_E $end
$var wire 1 = clk $end
$var wire 1 + resetn $end
$var wire 3 W state_lcd [2:0] $end
$var reg 8 X LCD_DATA [7:0] $end
$var reg 1 % LCD_RS $end
$var reg 1 $ LCD_RW $end
$var reg 3 Y state [2:0] $end
$var integer 32 Z CNT [31:0] $end
$upscope $end
$scope module led8 $end
$var wire 1 * clk $end
$var wire 4 [ key [3:0] $end
$var wire 8 \ led [7:0] $end
$var reg 8 ] q [7:0] $end
$upscope $end
$scope module music1 $end
$var wire 1 < clk $end
$var wire 4 ^ notes [3:0] $end
$var wire 1 _ sel $end
$var reg 1 8 em $end
$var reg 4 ` note [3:0] $end
$var integer 32 a freq [31:0] $end
$upscope $end
$scope module music2 $end
$var wire 1 < clk $end
$var wire 4 b notes [3:0] $end
$var wire 1 c sel $end
$var reg 1 7 em $end
$var reg 4 d note [3:0] $end
$var integer 32 e freq [31:0] $end
$upscope $end
$scope module music3 $end
$var wire 1 < clk $end
$var wire 4 f notes [3:0] $end
$var wire 1 g sel $end
$var reg 1 6 em $end
$var reg 4 h note [3:0] $end
$var integer 32 i freq [31:0] $end
$upscope $end
$scope module score $end
$var wire 8 j a [7:0] $end
$var wire 8 k b [7:0] $end
$var wire 1 < clk $end
$var wire 1 B en $end
$var wire 6 l light [5:0] $end
$var wire 1 + reset $end
$var reg 6 m q [5:0] $end
$var reg 8 n r [7:0] $end
$var reg 6 o rgb [5:0] $end
$upscope $end
$upscope $end
$upscope $end
$enddefinitions $end
#0
$dumpvars
bx o
bx n
b0 m
bx l
bx k
b0 j
b0 i
bx h
0g
bx f
b0 e
bx d
0c
bx b
b0 a
bx `
0_
bx ^
bx ]
bx \
bx [
b0 Z
b0 Y
b0 X
bx W
bx V
bx U
xT
bx S
0R
b0 Q
b0 P
b0 O
b0 N
b0 M
b0 L
b0 K
b0 J
b0 I
bx H
bx G
bx F
bx E
b0 D
bx C
xB
bx A
bx @
bx ?
b0 >
0=
0<
b0 ;
b0 :
b0 9
08
07
06
bx 5
bx 4
bx 3
bx 2
bx 1
b0 0
0/
x.
b0 -
0,
1+
0*
b0 )
b0 (
b0 '
0&
1%
1$
b0 #
bx "
x!
$end
#10
b10 A
b10 H
b0 @
b0 G
b0 ?
b0 F
b0 U
0!
0T
b0 E
b0 W
1*
#20
0*
#30
1*
#40
0*
#50
1*
#60
0*
#70
1*
#80
0*
#90
1*
#100
0*
#110
1*
#120
0*
#130
1*
#140
0*
#150
1*
#160
0*
#170
1*
#180
0*
#190
1*
#200
0*
#210
1*
#220
0*
#230
1*
#240
0*
#250
1*
#260
0*
#270
1*
#280
0*
#290
1*
#300
0*
#310
1*
#320
0*
#330
1*
#340
0*
#350
1*
#360
0*
#370
1*
#380
0*
#390
1*
#400
0*
#410
1*
#420
0*
#430
1*
#440
0*
#450
1*
#460
0*
#470
1*
#480
0*
#490
1*
#500
0*
#510
1*
#520
0*
#530
1*
#540
0*
#550
1*
#560
0*
#570
1*
#580
0*
#590
1*
#600
0*
#610
1*
#620
0*
#630
1*
#640
0*
#650
1*
#660
0*
#670
1*
#680
0*
#690
1*
#700
0*
#710
1*
#720
0*
#730
1*
#740
0*
#750
1*
#760
0*
#770
1*
#780
0*
#790
1*
#800
0*
#810
1*
#820
0*
#830
1*
#840
0*
#850
1*
#860
0*
#870
1*
#880
0*
#890
1*
#900
0*
#910
1*
#920
0*
#930
1*
#940
0*
#950
1*
#960
0*
#970
1*
#980
0*
#990
1*
#1000
0*
0+
#1010
b1111 #
b1111 9
b1111 K
b1 M
b1000010 O
b1 U
b1 P
1*
#1020
0*
#1030
b10 M
b10 P
b10 U
1*
#1040
0*
#1050
b11 M
b11 U
b11 P
1*
#1060
0*
#1070
b100 M
b100 P
b100 U
1*
#1080
0*
#1090
b101 M
b101 U
b101 P
1*
#1100
0*
1.
#1110
b110 M
b1 D
b110 P
b110 U
1*
#1120
0*
#1130
b0 A
b0 H
b10 @
b10 G
b111 M
b111 U
b111 P
b1 E
b1 W
1*
#1140
0*
#1150
b0 O
b1000010 N
b1000 M
b1000 P
b1000 U
1*
#1160
0*
#1170
b1111 (
b1111 ;
b1111 J
b0 #
b0 9
b0 K
b1001 M
b1001 U
b1001 P
1*
#1180
0*
#1190
b1010 M
b1010 P
b1010 U
1*
#1200
0*
#1210
b1011 M
b1011 U
b1011 P
1*
#1220
0*
#1230
b1100 M
b1100 P
b1100 U
1*
#1240
0*
#1250
b1101 M
b1101 U
b1101 P
1*
#1260
0*
#1270
b1110 M
b1110 P
b1110 U
1*
#1280
0*
#1290
b1111 M
b1111 U
b1111 P
1*
#1300
0*
#1310
b10000 M
b10000 P
b10000 U
1*
#1320
0*
#1330
b10001 M
b10001 U
b10001 P
1*
#1340
0*
#1350
b10010 M
b10010 P
b10010 U
1*
#1360
0*
#1370
b10011 M
b10011 U
b10011 P
1*
#1380
0*
#1390
b10100 M
b10100 P
b10100 U
1*
#1400
0*
#1410
b10101 M
b10101 U
b10101 P
1*
#1420
0*
#1430
b10110 M
b10110 P
b10110 U
1*
#1440
0*
#1450
b10111 M
b10111 U
b10111 P
1*
#1460
0*
#1470
b11000 M
b11000 P
b11000 U
1*
#1480
0*
#1490
b11001 M
b11001 U
b11001 P
1*
#1500
0*
#1510
b11010 M
b11010 P
b11010 U
1*
#1520
0*
#1530
b11011 M
b11011 U
b11011 P
1*
#1540
0*
#1550
b11100 M
b11100 P
b11100 U
1*
#1560
0*
#1570
b11101 M
b11101 U
b11101 P
1*
#1580
0*
#1590
b11110 M
b11110 P
b11110 U
1*
#1600
0*
#1610
b11111 M
b11111 U
b11111 P
1*
#1620
0*
#1630
b100000 M
b100000 P
b100000 U
1*
#1640
0*
#1650
b100001 M
b100001 U
b100001 P
1*
#1660
0*
#1670
b100010 M
b100010 P
b100010 U
1*
#1680
0*
#1690
b100011 M
b100011 U
b100011 P
1*
#1700
0*
#1710
b100100 M
b100100 P
b100100 U
1*
#1720
0*
#1730
b100101 M
b100101 U
b100101 P
1*
#1740
0*
#1750
b100110 M
b100110 P
b100110 U
1*
#1760
0*
#1770
b100111 M
b100111 U
b100111 P
1*
#1780
0*
#1790
b101000 M
b101000 P
b101000 U
1*
#1800
0*
#1810
b101001 M
b101001 U
b101001 P
1*
#1820
0*
#1830
b101010 M
b101010 P
b101010 U
1*
#1840
0*
#1850
b101011 M
b101011 U
b101011 P
1*
#1860
0*
#1870
b101100 M
b101100 P
b101100 U
1*
#1880
0*
#1890
b101101 M
b101101 U
b101101 P
1*
#1900
0*
#1910
b101110 M
b101110 P
b101110 U
1*
#1920
0*
#1930
b101111 M
b101111 U
b101111 P
1*
#1940
0*
#1950
b110000 M
b110000 P
b110000 U
1*
#1960
0*
#1970
b110001 M
b110001 U
b110001 P
1*
#1980
0*
#1990
b1 Q
b1 Z
1&
1=
b110010 M
b0 P
b110010 U
1*
#2000
0*
#2010
b110011 M
b110011 U
b1 P
1*
#2020
0*
#2030
b110100 M
b10 P
b110100 U
1*
#2040
0*
#2050
b110101 M
b110101 U
b11 P
1*
#2060
0*
#2070
b110110 M
b100 P
b110110 U
1*
#2080
0*
#2090
b110111 M
b110111 U
b101 P
1*
#2100
0*
#2110
b111000 M
b110 P
b111000 U
1*
#2120
0*
#2130
b111001 M
b111001 U
b111 P
1*
#2140
0*
#2150
b111010 M
b1000 P
b111010 U
1*
#2160
0*
#2170
b111011 M
b111011 U
b1001 P
1*
#2180
0*
#2190
b111100 M
b1010 P
b111100 U
1*
#2200
0*
#2210
b111101 M
b111101 U
b1011 P
1*
#2220
0*
#2230
b111110 M
b1100 P
b111110 U
1*
#2240
0*
#2250
b111111 M
b111111 U
b1101 P
1*
#2260
0*
#2270
b1000000 M
b1110 P
b1000000 U
1*
#2280
0*
#2290
b1000001 M
b1000001 U
b1111 P
1*
#2300
0*
#2310
b1000010 M
b10000 P
b1000010 U
1*
#2320
0*
#2330
b0 (
b0 ;
b0 J
b1000011 M
b1000011 U
b10001 P
1*
#2340
0*
#2350
b1000100 M
b10010 P
b1000100 U
1*
#2360
0*
#2370
b1000101 M
b1000101 U
b10011 P
1*
#2380
0*
#2390
b1000110 M
b10100 P
b1000110 U
1*
#2400
0*
#2410
b1000111 M
b1000111 U
b10101 P
1*
#2420
0*
#2430
b1001000 M
b10110 P
b1001000 U
1*
#2440
0*
#2450
b1001001 M
b1001001 U
b10111 P
1*
#2460
0*
#2470
b1001010 M
b11000 P
b1001010 U
1*
#2480
0*
#2490
b1001011 M
b1001011 U
b11001 P
1*
#2500
0*
#2510
b1001100 M
b11010 P
b1001100 U
1*
#2520
0*
#2530
b1001101 M
b1001101 U
b11011 P
1*
#2540
0*
#2550
b1001110 M
b11100 P
b1001110 U
1*
#2560
0*
#2570
b1001111 M
b1001111 U
b11101 P
1*
#2580
0*
#2590
b1010000 M
b11110 P
b1010000 U
1*
#2600
0*
#2610
b1010001 M
b1010001 U
b11111 P
1*
#2620
0*
#2630
b1010010 M
b100000 P
b1010010 U
1*
#2640
0*
#2650
b1010011 M
b1010011 U
b100001 P
1*
#2660
0*
#2670
b1010100 M
b100010 P
b1010100 U
1*
#2680
0*
#2690
b1010101 M
b1010101 U
b100011 P
1*
#2700
0*
#2710
b1010110 M
b100100 P
b1010110 U
1*
#2720
0*
#2730
b1010111 M
b1010111 U
b100101 P
1*
#2740
0*
#2750
b1011000 M
b100110 P
b1011000 U
1*
#2760
0*
#2770
b1011001 M
b1011001 U
b100111 P
1*
#2780
0*
#2790
b1011010 M
b101000 P
b1011010 U
1*
#2800
0*
#2810
b1011011 M
b1011011 U
b101001 P
1*
#2820
0*
#2830
b1011100 M
b101010 P
b1011100 U
1*
#2840
0*
#2850
b1011101 M
b1011101 U
b101011 P
1*
#2860
0*
#2870
b1011110 M
b101100 P
b1011110 U
1*
#2880
0*
#2890
b1011111 M
b1011111 U
b101101 P
1*
#2900
0*
#2910
b1100000 M
b101110 P
b1100000 U
1*
#2920
0*
#2930
b1100001 M
b1100001 U
b101111 P
1*
#2940
0*
#2950
b1100010 M
b110000 P
b1100010 U
1*
#2960
0*
#2970
b1100011 M
b1100011 U
b110001 P
1*
#2980
0*
#2990
0&
0=
b0 M
b0 P
b1100100 U
1*
#3000
0*
#3010
b1111 (
b1111 ;
b1111 J
b1 M
b1100101 U
b1 P
1*
#3020
0*
#3030
b10 M
b10 P
b1100110 U
1*
#3040
0*
#3050
b11 M
b1100111 U
b11 P
1*
#3060
0*
#3070
b100 M
b100 P
b1101000 U
1*
#3080
0*
#3090
b101 M
b1101001 U
b101 P
1*
#3100
0*
#3110
b110 M
b110 P
b1101010 U
1*
#3120
0*
#3130
b111 M
b1101011 U
b111 P
1*
#3140
0*
#3150
b1000 M
b1000 P
b1101100 U
1*
#3160
0*
#3170
b1001 M
b1101101 U
b1001 P
1*
#3180
0*
#3190
b1010 M
b1010 P
b1101110 U
1*
#3200
0*
#3210
b1011 M
b1101111 U
b1011 P
1*
#3220
0*
#3230
b1100 M
b1100 P
b1110000 U
1*
#3240
0*
#3250
b1101 M
b1110001 U
b1101 P
1*
#3260
0*
#3270
b1110 M
b1110 P
b1110010 U
1*
#3280
0*
#3290
b1111 M
b1110011 U
b1111 P
1*
#3300
0*
#3310
b10000 M
b10000 P
b1110100 U
1*
#3320
0*
#3330
b10001 M
b1110101 U
b10001 P
1*
#3340
0*
#3350
b10010 M
b10010 P
b1110110 U
1*
#3360
0*
#3370
b10011 M
b1110111 U
b10011 P
1*
#3380
0*
#3390
b10100 M
b10100 P
b1111000 U
1*
#3400
0*
#3410
b10101 M
b1111001 U
b10101 P
1*
#3420
0*
#3430
b10110 M
b10110 P
b1111010 U
1*
#3440
0*
#3450
b10111 M
b1111011 U
b10111 P
1*
#3460
0*
#3470
b11000 M
b11000 P
b1111100 U
1*
#3480
0*
#3490
b11001 M
b1111101 U
b11001 P
1*
#3500
0*
#3510
b11010 M
b11010 P
b1111110 U
1*
#3520
0*
#3530
b11011 M
b1111111 U
b11011 P
1*
#3540
0*
#3550
b11100 M
b11100 P
b10000000 U
1*
#3560
0*
#3570
b11101 M
b10000001 U
b11101 P
1*
#3580
0*
#3590
b11110 M
b11110 P
b10000010 U
1*
#3600
0*
#3610
b11111 M
b10000011 U
b11111 P
1*
#3620
0*
#3630
b100000 M
b100000 P
b10000100 U
1*
#3640
0*
#3650
b100001 M
b10000101 U
b100001 P
1*
#3660
0*
#3670
b100010 M
b100010 P
b10000110 U
1*
#3680
0*
#3690
b100011 M
b10000111 U
b100011 P
1*
#3700
0*
#3710
b100100 M
b100100 P
b10001000 U
1*
#3720
0*
#3730
b100101 M
b10001001 U
b100101 P
1*
#3740
0*
#3750
b100110 M
b100110 P
b10001010 U
1*
#3760
0*
#3770
b100111 M
b10001011 U
b100111 P
1*
#3780
0*
#3790
b101000 M
b101000 P
b10001100 U
1*
#3800
0*
#3810
b101001 M
b10001101 U
b101001 P
1*
#3820
0*
#3830
b101010 M
b101010 P
b10001110 U
1*
#3840
0*
#3850
b101011 M
b10001111 U
b101011 P
1*
#3860
0*
#3870
b101100 M
b101100 P
b10010000 U
1*
#3880
0*
#3890
b101101 M
b10010001 U
b101101 P
1*
#3900
0*
#3910
b101110 M
b101110 P
b10010010 U
1*
#3920
0*
#3930
b101111 M
b10010011 U
b101111 P
1*
#3940
0*
#3950
b110000 M
b110000 P
b10010100 U
1*
#3960
0*
#3970
b110001 M
b10010101 U
b110001 P
1*
#3980
0*
#3990
b10 Q
b10 Z
1&
1=
b110010 M
b0 P
b10010110 U
1*
#4000
0*
#4010
b110011 M
b10010111 U
b1 P
1*
#4020
0*
#4030
b110100 M
b10 P
b10011000 U
1*
#4040
0*
#4050
b110101 M
b10011001 U
b11 P
1*
#4060
0*
#4070
b110110 M
b100 P
b10011010 U
1*
#4080
0*
#4090
b110111 M
b10011011 U
b101 P
1*
#4100
0*
#4110
b111000 M
b110 P
b10011100 U
1*
#4120
0*
#4130
b111001 M
b10011101 U
b111 P
1*
#4140
0*
#4150
b111010 M
b1000 P
b10011110 U
1*
#4160
0*
#4170
b111011 M
b10011111 U
b1001 P
1*
#4180
0*
#4190
b111100 M
b1010 P
b10100000 U
1*
#4200
0*
#4210
b111101 M
b10100001 U
b1011 P
1*
#4220
0*
#4230
b111110 M
b1100 P
b10100010 U
1*
#4240
0*
#4250
b111111 M
b10100011 U
b1101 P
1*
#4260
0*
#4270
b1000000 M
b1110 P
b10100100 U
1*
#4280
0*
#4290
b1000001 M
b10100101 U
b1111 P
1*
#4300
0*
#4310
b1000010 M
b10000 P
b10100110 U
1*
#4320
0*
#4330
b0 (
b0 ;
b0 J
b1000011 M
b10100111 U
b10001 P
1*
#4340
0*
#4350
b1000100 M
b10010 P
b10101000 U
1*
#4360
0*
#4370
b1000101 M
b10101001 U
b10011 P
1*
#4380
0*
#4390
b1000110 M
b10100 P
b10101010 U
1*
#4400
0*
#4410
b1000111 M
b10101011 U
b10101 P
1*
#4420
0*
#4430
b1001000 M
b10110 P
b10101100 U
1*
#4440
0*
#4450
b1001001 M
b10101101 U
b10111 P
1*
#4460
0*
#4470
b1001010 M
b11000 P
b10101110 U
1*
#4480
0*
#4490
b1001011 M
b10101111 U
b11001 P
1*
#4500
0*
#4510
b1001100 M
b11010 P
b10110000 U
1*
#4520
0*
#4530
b1001101 M
b10110001 U
b11011 P
1*
#4540
0*
#4550
b1001110 M
b11100 P
b10110010 U
1*
#4560
0*
#4570
b1001111 M
b10110011 U
b11101 P
1*
#4580
0*
#4590
b1010000 M
b11110 P
b10110100 U
1*
#4600
0*
#4610
b1010001 M
b10110101 U
b11111 P
1*
#4620
0*
#4630
b1010010 M
b100000 P
b10110110 U
1*
#4640
0*
#4650
b1010011 M
b10110111 U
b100001 P
1*
#4660
0*
#4670
b1010100 M
b100010 P
b10111000 U
1*
#4680
0*
#4690
b1010101 M
b10111001 U
b100011 P
1*
#4700
0*
#4710
b1010110 M
b100100 P
b10111010 U
1*
#4720
0*
#4730
b1010111 M
b10111011 U
b100101 P
1*
#4740
0*
#4750
b1011000 M
b100110 P
b10111100 U
1*
#4760
0*
#4770
b1011001 M
b10111101 U
b100111 P
1*
#4780
0*
#4790
b1011010 M
b101000 P
b10111110 U
1*
#4800
0*
#4810
b1011011 M
b10111111 U
b101001 P
1*
#4820
0*
#4830
b1011100 M
b101010 P
b11000000 U
1*
#4840
0*
#4850
b1011101 M
b11000001 U
b101011 P
1*
#4860
0*
#4870
b1011110 M
b101100 P
b11000010 U
1*
#4880
0*
#4890
b1011111 M
b11000011 U
b101101 P
1*
#4900
0*
#4910
b1100000 M
b101110 P
b11000100 U
1*
#4920
0*
#4930
b1100001 M
b11000101 U
b101111 P
1*
#4940
0*
#4950
b1100010 M
b110000 P
b11000110 U
1*
#4960
0*
#4970
b1100011 M
b11000111 U
b110001 P
1*
#4980
0*
#4990
0&
0=
b0 M
b0 P
b11001000 U
1*
#5000
0*
#5010
b1111 (
b1111 ;
b1111 J
b1 M
b11001001 U
b1 P
1*
#5020
0*
#5030
b10 M
b10 P
b11001010 U
1*
#5040
0*
#5050
b11 M
b11001011 U
b11 P
1*
#5060
0*
#5070
b100 M
b100 P
b11001100 U
1*
#5080
0*
#5090
b101 M
b11001101 U
b101 P
1*
#5100
0*
#5110
b110 M
b110 P
b11001110 U
1*
#5120
0*
#5130
b111 M
b11001111 U
b111 P
1*
#5140
0*
#5150
b1000 M
b1000 P
b11010000 U
1*
#5160
0*
#5170
b1001 M
b11010001 U
b1001 P
1*
#5180
0*
#5190
b1010 M
b1010 P
b11010010 U
1*
#5200
0*
#5210
b1011 M
b11010011 U
b1011 P
1*
#5220
0*
#5230
b1100 M
b1100 P
b11010100 U
1*
#5240
0*
#5250
b1101 M
b11010101 U
b1101 P
1*
#5260
0*
#5270
b1110 M
b1110 P
b11010110 U
1*
#5280
0*
#5290
b1111 M
b11010111 U
b1111 P
1*
#5300
0*
#5310
b10000 M
b10000 P
b11011000 U
1*
#5320
0*
#5330
b10001 M
b11011001 U
b10001 P
1*
#5340
0*
#5350
b10010 M
b10010 P
b11011010 U
1*
#5360
0*
#5370
b10011 M
b11011011 U
b10011 P
1*
#5380
0*
#5390
b10100 M
b10100 P
b11011100 U
1*
#5400
0*
#5410
b10101 M
b11011101 U
b10101 P
1*
#5420
0*
#5430
b10110 M
b10110 P
b11011110 U
1*
#5440
0*
#5450
b10111 M
b11011111 U
b10111 P
1*
#5460
0*
#5470
b11000 M
b11000 P
b11100000 U
1*
#5480
0*
#5490
b11001 M
b11100001 U
b11001 P
1*
#5500
0*
#5510
b11010 M
b11010 P
b11100010 U
1*
#5520
0*
#5530
b11011 M
b11100011 U
b11011 P
1*
#5540
0*
#5550
b11100 M
b11100 P
b11100100 U
1*
#5560
0*
#5570
b11101 M
b11100101 U
b11101 P
1*
#5580
0*
#5590
b11110 M
b11110 P
b11100110 U
1*
#5600
0*
#5610
b11111 M
b11100111 U
b11111 P
1*
#5620
0*
#5630
b100000 M
b100000 P
b11101000 U
1*
#5640
0*
#5650
b100001 M
b11101001 U
b100001 P
1*
#5660
0*
#5670
b100010 M
b100010 P
b11101010 U
1*
#5680
0*
#5690
b100011 M
b11101011 U
b100011 P
1*
#5700
0*
#5710
b100100 M
b100100 P
b11101100 U
1*
#5720
0*
#5730
b100101 M
b11101101 U
b100101 P
1*
#5740
0*
#5750
b100110 M
b100110 P
b11101110 U
1*
#5760
0*
#5770
b100111 M
b11101111 U
b100111 P
1*
#5780
0*
#5790
b101000 M
b101000 P
b11110000 U
1*
#5800
0*
#5810
b101001 M
b11110001 U
b101001 P
1*
#5820
0*
#5830
b101010 M
b101010 P
b11110010 U
1*
#5840
0*
#5850
b101011 M
b11110011 U
b101011 P
1*
#5860
0*
#5870
b101100 M
b101100 P
b11110100 U
1*
#5880
0*
#5890
b101101 M
b11110101 U
b101101 P
1*
#5900
0*
#5910
b101110 M
b101110 P
b11110110 U
1*
#5920
0*
#5930
b101111 M
b11110111 U
b101111 P
1*
#5940
0*
#5950
b110000 M
b110000 P
b11111000 U
1*
#5960
0*
#5970
b110001 M
b11111001 U
b110001 P
1*
#5980
0*
#5990
b11 Q
b11 Z
1&
1=
b110010 M
b0 P
b11111010 U
1*
#6000
0*
#6010
b110011 M
b11111011 U
b1 P
1*
#6020
0*
#6030
b110100 M
b10 P
b11111100 U
1*
#6040
0*
#6050
b110101 M
b11111101 U
b11 P
1*
#6060
0*
#6070
b110110 M
b100 P
b11111110 U
1*
#6080
0*
#6090
b110111 M
b11111111 U
b101 P
1*
#6100
0*
#6110
b111000 M
b110 P
b100000000 U
1*
#6120
0*
#6130
b111001 M
b100000001 U
b111 P
1*
#6140
0*
#6150
b111010 M
b1000 P
b100000010 U
1*
#6160
0*
#6170
b111011 M
b100000011 U
b1001 P
1*
#6180
0*
#6190
b111100 M
b1010 P
b100000100 U
1*
#6200
0*
#6210
b111101 M
b100000101 U
b1011 P
1*
#6220
0*
#6230
b111110 M
b1100 P
b100000110 U
1*
#6240
0*
#6250
b111111 M
b100000111 U
b1101 P
1*
#6260
0*
#6270
b1000000 M
b1110 P
b100001000 U
1*
#6280
0*
#6290
b1000001 M
b100001001 U
b1111 P
1*
#6300
0*
#6310
b1000010 M
b10000 P
b100001010 U
1*
#6320
0*
#6330
b0 (
b0 ;
b0 J
b1000011 M
b100001011 U
b10001 P
1*
#6340
0*
#6350
b1000100 M
b10010 P
b100001100 U
1*
#6360
0*
#6370
b1000101 M
b100001101 U
b10011 P
1*
#6380
0*
#6390
b1000110 M
b10100 P
b100001110 U
1*
#6400
0*
#6410
b1000111 M
b100001111 U
b10101 P
1*
#6420
0*
#6430
b1001000 M
b10110 P
b100010000 U
1*
#6440
0*
#6450
b1001001 M
b100010001 U
b10111 P
1*
#6460
0*
#6470
b1001010 M
b11000 P
b100010010 U
1*
#6480
0*
#6490
b1001011 M
b100010011 U
b11001 P
1*
#6500
0*
#6510
b1001100 M
b11010 P
b100010100 U
1*
#6520
0*
#6530
b1001101 M
b100010101 U
b11011 P
1*
#6540
0*
#6550
b1001110 M
b11100 P
b100010110 U
1*
#6560
0*
#6570
b1001111 M
b100010111 U
b11101 P
1*
#6580
0*
#6590
b1010000 M
b11110 P
b100011000 U
1*
#6600
0*
#6610
b1010001 M
b100011001 U
b11111 P
1*
#6620
0*
#6630
b1010010 M
b100000 P
b100011010 U
1*
#6640
0*
#6650
b1010011 M
b100011011 U
b100001 P
1*
#6660
0*
#6670
b1010100 M
b100010 P
b100011100 U
1*
#6680
0*
#6690
b1010101 M
b100011101 U
b100011 P
1*
#6700
0*
#6710
b1010110 M
b100100 P
b100011110 U
1*
#6720
0*
#6730
b1010111 M
b100011111 U
b100101 P
1*
#6740
0*
#6750
b1011000 M
b100110 P
b100100000 U
1*
#6760
0*
#6770
b1011001 M
b100100001 U
b100111 P
1*
#6780
0*
#6790
b1011010 M
b101000 P
b100100010 U
1*
#6800
0*
#6810
b1011011 M
b100100011 U
b101001 P
1*
#6820
0*
#6830
b1011100 M
b101010 P
b100100100 U
1*
#6840
0*
#6850
b1011101 M
b100100101 U
b101011 P
1*
#6860
0*
#6870
b1011110 M
b101100 P
b100100110 U
1*
#6880
0*
#6890
b1011111 M
b100100111 U
b101101 P
1*
#6900
0*
#6910
b1100000 M
b101110 P
b100101000 U
1*
#6920
0*
#6930
b1100001 M
b100101001 U
b101111 P
1*
#6940
0*
#6950
b1100010 M
b110000 P
b100101010 U
1*
#6960
0*
#6970
b1100011 M
b100101011 U
b110001 P
1*
#6980
0*
#6990
0&
0=
b0 M
b0 P
b100101100 U
1*
#7000
0*
#7010
b1111 (
b1111 ;
b1111 J
b1 M
b100101101 U
b1 P
1*
#7020
0*
#7030
b10 M
b10 P
b100101110 U
1*
#7040
0*
#7050
b11 M
b100101111 U
b11 P
1*
#7060
0*
#7070
b100 M
b100 P
b100110000 U
1*
#7080
0*
#7090
b101 M
b100110001 U
b101 P
1*
#7100
0*
#7110
b110 M
b110 P
b100110010 U
1*
#7120
0*
#7130
b111 M
b100110011 U
b111 P
1*
#7140
0*
#7150
b1000 M
b1000 P
b100110100 U
1*
#7160
0*
#7170
b1001 M
b100110101 U
b1001 P
1*
#7180
0*
#7190
b1010 M
b1010 P
b100110110 U
1*
#7200
0*
#7210
b1011 M
b100110111 U
b1011 P
1*
#7220
0*
#7230
b1100 M
b1100 P
b100111000 U
1*
#7240
0*
#7250
b1101 M
b100111001 U
b1101 P
1*
#7260
0*
#7270
b1110 M
b1110 P
b100111010 U
1*
#7280
0*
#7290
b1111 M
b100111011 U
b1111 P
1*
#7300
0*
#7310
b10000 M
b10000 P
b100111100 U
1*
#7320
0*
#7330
b10001 M
b100111101 U
b10001 P
1*
#7340
0*
#7350
b10010 M
b10010 P
b100111110 U
1*
#7360
0*
#7370
b10011 M
b100111111 U
b10011 P
1*
#7380
0*
#7390
b10100 M
b10100 P
b101000000 U
1*
#7400
0*
#7410
b10101 M
b101000001 U
b10101 P
1*
#7420
0*
#7430
b10110 M
b10110 P
b101000010 U
1*
#7440
0*
#7450
b10111 M
b101000011 U
b10111 P
1*
#7460
0*
#7470
b11000 M
b11000 P
b101000100 U
1*
#7480
0*
#7490
b11001 M
b101000101 U
b11001 P
1*
#7500
0*
#7510
b11010 M
b11010 P
b101000110 U
1*
#7520
0*
#7530
b11011 M
b101000111 U
b11011 P
1*
#7540
0*
#7550
b11100 M
b11100 P
b101001000 U
1*
#7560
0*
#7570
b11101 M
b101001001 U
b11101 P
1*
#7580
0*
#7590
b11110 M
b11110 P
b101001010 U
1*
#7600
0*
#7610
b11111 M
b101001011 U
b11111 P
1*
#7620
0*
#7630
b100000 M
b100000 P
b101001100 U
1*
#7640
0*
#7650
b100001 M
b101001101 U
b100001 P
1*
#7660
0*
#7670
b100010 M
b100010 P
b101001110 U
1*
#7680
0*
#7690
b100011 M
b101001111 U
b100011 P
1*
#7700
0*
#7710
b100100 M
b100100 P
b101010000 U
1*
#7720
0*
#7730
b100101 M
b101010001 U
b100101 P
1*
#7740
0*
#7750
b100110 M
b100110 P
b101010010 U
1*
#7760
0*
#7770
b100111 M
b101010011 U
b100111 P
1*
#7780
0*
#7790
b101000 M
b101000 P
b101010100 U
1*
#7800
0*
#7810
b101001 M
b101010101 U
b101001 P
1*
#7820
0*
#7830
b101010 M
b101010 P
b101010110 U
1*
#7840
0*
#7850
b101011 M
b101010111 U
b101011 P
1*
#7860
0*
#7870
b101100 M
b101100 P
b101011000 U
1*
#7880
0*
#7890
b101101 M
b101011001 U
b101101 P
1*
#7900
0*
#7910
b101110 M
b101110 P
b101011010 U
1*
#7920
0*
#7930
b101111 M
b101011011 U
b101111 P
1*
#7940
0*
#7950
b110000 M
b110000 P
b101011100 U
1*
#7960
0*
#7970
b110001 M
b101011101 U
b110001 P
1*
#7980
0*
