verilog/VLSI_experiment/counter/r_counter_tb.vcd
$date
	Sat Mar 11 18:43:36 2023
$end
$version
	Icarus Verilog
$end
$timescale
	10ps
$end
$scope module r_counter_tb $end
$var wire 5 ! q [4:0] $end
$var reg 1 " clk $end
$var reg 1 # reset $end
$scope module r1 $end
$var wire 1 " clk $end
$var wire 1 # reset $end
$var wire 5 $ q [4:0] $end
$scope module tff0 $end
$var wire 1 " clk $end
$var wire 1 % d $end
$var wire 1 # reset $end
$var wire 1 & q $end
$scope module dff0 $end
$var wire 1 " clk $end
$var wire 1 % d $end
$var wire 1 # reset $end
$var reg 1 & q $end
$upscope $end
$upscope $end
$scope module tff1 $end
$var wire 1 ' clk $end
$var wire 1 ( d $end
$var wire 1 # reset $end
$var wire 1 ) q $end
$scope module dff0 $end
$var wire 1 ' clk $end
$var wire 1 ( d $end
$var wire 1 # reset $end
$var reg 1 ) q $end
$upscope $end
$upscope $end
$scope module tff2 $end
$var wire 1 * clk $end
$var wire 1 + d $end
$var wire 1 # reset $end
$var wire 1 , q $end
$scope module dff0 $end
$var wire 1 * clk $end
$var wire 1 + d $end
$var wire 1 # reset $end
$var reg 1 , q $end
$upscope $end
$upscope $end
$scope module tff3 $end
$var wire 1 - clk $end
$var wire 1 . d $end
$var wire 1 # reset $end
$var wire 1 / q $end
$scope module dff0 $end
$var wire 1 - clk $end
$var wire 1 . d $end
$var wire 1 # reset $end
$var reg 1 / q $end
$upscope $end
$upscope $end
$scope module tff4 $end
$var wire 1 0 clk $end
$var wire 1 1 d $end
$var wire 1 # reset $end
$var wire 1 2 q $end
$scope module dff0 $end
$var wire 1 0 clk $end
$var wire 1 1 d $end
$var wire 1 # reset $end
$var reg 1 2 q $end
$upscope $end
$upscope $end
$upscope $end
$upscope $end
$enddefinitions $end
#0
$dumpvars
02
11
00
0/
1.
0-
0,
1+
0*
0)
1(
0'
0&
1%
b0 $
1#
0"
b0 !
$end
#500
1"
#1000
0"
#1500
1"
0#
#2000
0%
1'
b1 !
b1 $
1&
0"
#2500
1"
#3000
0(
1*
1)
1%
0'
b10 !
b10 $
0&
0"
#3500
1"
#4000
0%
1'
b11 !
b11 $
1&
0"
#4500
1"
#5000
0+
1-
1,
1(
0*
0)
1%
0'
b100 !
b100 $
0&
0"
#5500
1"
#6000
0%
1'
b101 !
b101 $
1&
0"
#6500
1"
#7000
0(
1*
1)
1%
0'
b110 !
b110 $
0&
0"
#7500
1"
#8000
0%
1'
b111 !
b111 $
1&
0"
#8500
1"
#9000
0.
10
1/
1+
0-
0,
1(
0*
0)
1%
0'
b1000 !
b1000 $
0&
0"
#9500
1"
#10000
0%
1'
b1001 !
b1001 $
1&
0"
#10500
1"
#11000
0(
1*
1)
1%
0'
b1010 !
b1010 $
0&
0"
#11500
1"
#12000
0%
1'
b1011 !
b1011 $
1&
0"
#12500
1"
#13000
0+
1-
1,
1(
0*
0)
1%
0'
b1100 !
b1100 $
0&
0"
#13500
1"
#14000
0%
1'
b1101 !
b1101 $
1&
0"
#14500
1"
#15000
0(
1*
1)
1%
0'
b1110 !
b1110 $
0&
0"
#15500
1"
#16000
0%
1'
b1111 !
b1111 $
1&
0"
#16500
1"
#17000
01
12
1.
00
0/
1+
0-
0,
1(
0*
0)
1%
0'
b10000 !
b10000 $
0&
0"
#17500
1"
#18000
0%
1'
b10001 !
b10001 $
1&
0"
#18500
1"
#19000
0(
1*
1)
1%
0'
b10010 !
b10010 $
0&
0"
#19500
1(
0*
11
0)
b0 !
b0 $
02
1"
1#
#20000
0"
#20500
1"
0#
#21000
0%
1'
b1 !
b1 $
1&
0"
#21500
1"
#22000
0(
1*
1)
1%
0'
b10 !
b10 $
0&
0"
