verilog/VLSI_experiment/5w/stimulus_carry_save_multiplier.vcd
$date
	Mon Apr 17 20:47:25 2023
$end
$version
	Icarus Verilog
$end
$timescale
	1ns
$end
$scope module stimulus_carry_save_multiplier $end
$var wire 52 ! mul_out_beh [51:0] $end
$var reg 26 " a [25:0] $end
$var reg 26 # b [25:0] $end
$var reg 1 $ clk $end
$var reg 52 % mat_out [51:0] $end
$var reg 1 & rstn $end
$var integer 32 ' err [31:0] $end
$var integer 32 ( i [31:0] $end
$scope module MULT2 $end
$var wire 26 ) a_input [25:0] $end
$var wire 26 * b_input [25:0] $end
$var wire 1 $ clk $end
$var wire 1 & reset $end
$var wire 52 + out [51:0] $end
$var wire 52 , mul_out [51:0] $end
$var wire 26 - b [25:0] $end
$var wire 26 . a [25:0] $end
$scope module dff26a $end
$var wire 1 $ clk $end
$var wire 26 / d [25:0] $end
$var wire 1 & reset $end
$var reg 26 0 q [25:0] $end
$upscope $end
$scope module dff26b $end
$var wire 1 $ clk $end
$var wire 26 1 d [25:0] $end
$var wire 1 & reset $end
$var reg 26 2 q [25:0] $end
$upscope $end
$scope module dff52 $end
$var wire 1 $ clk $end
$var wire 52 3 d [51:0] $end
$var wire 1 & reset $end
$var reg 52 4 q [51:0] $end
$upscope $end
$upscope $end
$upscope $end
$enddefinitions $end
#0
$dumpvars
b0 4
b0 3
b0 2
bx 1
b0 0
bx /
b0 .
b0 -
b0 ,
b0 +
bx *
bx )
b0 (
b0 '
0&
bx %
1$
bx #
bx "
b0 !
$end
#5
0$
#10
1$
#12
1&
#15
0$
#20
b10000111010011100001001010101101011110011011000110 ,
b10000111010011100001001010101101011110011011000110 3
b11010000100100011011101101 .
b11010000100100011011101101 0
b101001100001001100011110 -
b101001100001001100011110 2
1$
b101001100001001100011110 #
b101001100001001100011110 *
b101001100001001100011110 1
b11010000100100011011101101 "
b11010000100100011011101101 )
b11010000100100011011101101 /
#25
0$
#30
b10000111010011100001001010101101011110011011000110 !
b10000111010011100001001010101101011110011011000110 +
b10000111010011100001001010101101011110011011000110 4
b11001011010101100011101101 -
b11001011010101100011101101 2
b1011100000101110010011010110101110001001110010001111 ,
b1011100000101110010011010110101110001001110010001111 3
b11100111111000011111101011 .
b11100111111000011111101011 0
1$
b10000111010011100001001010101101011110011011000110 %
b11001011010101100011101101 #
b11001011010101100011101101 *
b11001011010101100011101101 1
b11100111111000011111101011 "
b11100111111000011111101011 )
b11100111111000011111101011 /
b1 (
#35
0$
#40
b100000100000100011010100 .
b100000100000100011010100 0
b101000011101111111101111001100000100010001001100 ,
b101000011101111111101111001100000100010001001100 3
b1001111101010111100100111 -
b1001111101010111100100111 2
b1011100000101110010011010110101110001001110010001111 !
b1011100000101110010011010110101110001001110010001111 +
b1011100000101110010011010110101110001001110010001111 4
1$
b1011100000101110010011010110101110001001110010001111 %
b1001111101010111100100111 #
b1001111101010111100100111 *
b1001111101010111100100111 1
b100000100000100011010100 "
b100000100000100011010100 )
b100000100000100011010100 /
b10 (
#45
0$
#50
b101000011101111111101111001100000100010001001100 !
b101000011101111111101111001100000100010001001100 +
b101000011101111111101111001100000100010001001100 4
b10000111010011011111001010 -
b10000111010011011111001010 2
b111101110010101011101101111010101011111100000000000 ,
b111101110010101011101101111010101011111100000000000 3
b11101001110100110000000000 .
b11101001110100110000000000 0
1$
b101000011101111111101111001100000100010001001100 %
b10000111010011011111001010 #
b10000111010011011111001010 *
b10000111010011011111001010 1
b11101001110100110000000000 "
b11101001110100110000000000 )
b11101001110100110000000000 /
b11 (
#55
0$
#60
b10100001111000100100101110 .
b10100001111000100100101110 0
b1101011010000110111010000110000000001100110111100 ,
b1101011010000110111010000110000000001100110111100 3
b101010011001111111010010 -
b101010011001111111010010 2
b111101110010101011101101111010101011111100000000000 !
b111101110010101011101101111010101011111100000000000 +
b111101110010101011101101111010101011111100000000000 4
1$
b111101110010101011101101111010101011111100000000000 %
b101010011001111111010010 #
b101010011001111111010010 *
b101010011001111111010010 1
b10100001111000100100101110 "
b10100001111000100100101110 )
b10100001111000100100101110 /
b100 (
#65
0$
#70
b1101011010000110111010000110000000001100110111100 !
b1101011010000110111010000110000000001100110111100 +
b1101011010000110111010000110000000001100110111100 4
b10011010000110110111110100 -
b10011010000110110111110100 2
b111100001000000111010001101011001001101001110100 ,
b111100001000000111010001101011001001101001110100 3
b11000111110000110100001 .
b11000111110000110100001 0
1$
b1101011010000110111010000110000000001100110111100 %
b10011010000110110111110100 #
b10011010000110110111110100 *
b10011010000110110111110100 1
b11000111110000110100001 "
b11000111110000110100001 )
b11000111110000110100001 /
b101 (
#75
0$
#80
b1000111010010111010100011 .
b1000111010010111010100011 0
b1001010111111101010011000011011001110000000001000 ,
b1001010111111101010011000011011001110000000001000 3
b1000011010100100001011000 -
b1000011010100100001011000 2
b111100001000000111010001101011001001101001110100 !
b111100001000000111010001101011001001101001110100 +
b111100001000000111010001101011001001101001110100 4
1$
b111100001000000111010001101011001001101001110100 %
b1000011010100100001011000 #
b1000011010100100001011000 *
b1000011010100100001011000 1
b1000111010010111010100011 "
b1000111010010111010100011 )
b1000111010010111010100011 /
b110 (
#85
0$
#90
b1001010111111101010011000011011001110000000001000 !
b1001010111111101010011000011011001110000000001000 +
b1001010111111101010011000011011001110000000001000 4
b10100111011100011011101001 -
b10100111011100011011101001 2
b101101110010010011110010101000001001000101110111101 ,
b101101110010010011110010101000001001000101110111101 3
b10001100000000000110110101 .
b10001100000000000110110101 0
1$
b1001010111111101010011000011011001110000000001000 %
b10100111011100011011101001 #
b10100111011100011011101001 *
b10100111011100011011101001 1
b10001100000000000110110101 "
b10001100000000000110110101 )
b10001100000000000110110101 /
b111 (
#95
0$
#100
b11110101000111110010101011 .
b11110101000111110010101011 0
b1010100011110001000000111001100001110110111100100110 ,
b1010100011110001000000111001100001110110111100100110 3
b10110000011100000101110010 -
b10110000011100000101110010 2
b101101110010010011110010101000001001000101110111101 !
b101101110010010011110010101000001001000101110111101 +
b101101110010010011110010101000001001000101110111101 4
1$
b101101110010010011110010101000001001000101110111101 %
b10110000011100000101110010 #
b10110000011100000101110010 *
b10110000011100000101110010 1
b11110101000111110010101011 "
b11110101000111110010101011 )
b11110101000111110010101011 /
b1000 (
#105
0$
#110
b1010100011110001000000111001100001110110111100100110 !
b1010100011110001000000111001100001110110111100100110 +
b1010100011110001000000111001100001110110111100100110 4
b10111111100001101101110011 -
b10111111100001101101110011 2
b1011100011001101010100010000100111000011010011100111 ,
b1011100011001101010100010000100111000011010011100111 3
b11110111000000101110111101 .
b11110111000000101110111101 0
1$
b1010100011110001000000111001100001110110111100100110 %
b10111111100001101101110011 #
b10111111100001101101110011 *
b10111111100001101101110011 1
b11110111000000101110111101 "
b11110111000000101110111101 )
b11110111000000101110111101 /
b1001 (
#115
0$
#120
b101000010110010101010010 .
b101000010110010101010010 0
b1001000101101110010101111000111010011000101101100 ,
b1001000101101110010101111000111010011000101101100 3
b1110011010101101011000110 -
b1110011010101101011000110 2
b1011100011001101010100010000100111000011010011100111 !
b1011100011001101010100010000100111000011010011100111 +
b1011100011001101010100010000100111000011010011100111 4
1$
b1011100011001101010100010000100111000011010011100111 %
b1110011010101101011000110 #
b1110011010101101011000110 *
b1110011010101101011000110 1
b101000010110010101010010 "
b101000010110010101010010 )
b101000010110010101010010 /
b1010 (
#125
0$
#130
b1001000101101110010101111000111010011000101101100 !
b1001000101101110010101111000111010011000101101100 +
b1001000101101110010101111000111010011000101101100 4
b10101011101010101000101 -
b10101011101010101000101 2
b1010011010011110001100010110010100010110111011010 ,
b1010011010011110001100010110010100010110111011010 3
b11111000011110001100010010 .
b11111000011110001100010010 0
1$
b1001000101101110010101111000111010011000101101100 %
b10101011101010101000101 #
b10101011101010101000101 *
b10101011101010101000101 1
b11111000011110001100010010 "
b11111000011110001100010010 )
b11111000011110001100010010 /
b1011 (
#135
0$
#140
b11110101000010001110010010 .
b11110101000010001110010010 0
b11100000011011011110001011000000011100100011100000 ,
b11100000011011011110001011000000011100100011100000 3
b111010100111100011110000 -
b111010100111100011110000 2
b1010011010011110001100010110010100010110111011010 !
b1010011010011110001100010110010100010110111011010 +
b1010011010011110001100010110010100010110111011010 4
1$
b1010011010011110001100010110010100010110111011010 %
b111010100111100011110000 #
b111010100111100011110000 *
b111010100111100011110000 1
b11110101000010001110010010 "
b11110101000010001110010010 )
b11110101000010001110010010 /
b1100 (
#145
0$
#150
b11100000011011011110001011000000011100100011100000 !
b11100000011011011110001011000000011100100011100000 +
b11100000011011011110001011000000011100100011100000 4
b11101001110100000111101000 -
b11101001110100000111101000 2
b111000101111100111000000011001110000000100010000000 ,
b111000101111100111000000011001110000000100010000000 3
b1111100010000011001010000 .
b1111100010000011001010000 0
1$
b11100000011011011110001011000000011100100011100000 %
b11101001110100000111101000 #
b11101001110100000111101000 *
b11101001110100000111101000 1
b1111100010000011001010000 "
b1111100010000011001010000 )
b1111100010000011001010000 /
b1101 (
#155
0$
#160
b11001100110111110010111001 .
b11001100110111110010111001 0
b1111100110111110011000000000111010001000101100011 ,
b1111100110111110011000000000111010001000101100011 3
b100111000000100011111011 -
b100111000000100011111011 2
b111000101111100111000000011001110000000100010000000 !
b111000101111100111000000011001110000000100010000000 +
b111000101111100111000000011001110000000100010000000 4
1$
b111000101111100111000000011001110000000100010000000 %
b100111000000100011111011 #
b100111000000100011111011 *
b100111000000100011111011 1
b11001100110111110010111001 "
b11001100110111110010111001 )
b11001100110111110010111001 /
b1110 (
#165
0$
#170
b1111100110111110011000000000111010001000101100011 !
b1111100110111110011000000000111010001000101100011 +
b1111100110111110011000000000111010001000101100011 4
b11010011011010001011110111 -
b11010011011010001011110111 2
b1110111111110111111100110101001111011010100100001 ,
b1110111111110111111100110101001111011010100100001 3
b100100010100101010100111 .
b100100010100101010100111 0
1$
b1111100110111110011000000000111010001000101100011 %
b11010011011010001011110111 #
b11010011011010001011110111 *
b11010011011010001011110111 1
b100100010100101010100111 "
b100100010100101010100111 )
b100100010100101010100111 /
b1111 (
#175
0$
#180
b1101011111110001000110000 .
b1101011111110001000110000 0
b11101000100000000101000100011010110111010101110000 ,
b11101000100000000101000100011010110111010101110000 3
b10001001110100001100111101 -
b10001001110100001100111101 2
b1110111111110111111100110101001111011010100100001 !
b1110111111110111111100110101001111011010100100001 +
b1110111111110111111100110101001111011010100100001 4
1$
b1110111111110111111100110101001111011010100100001 %
b10001001110100001100111101 #
b10001001110100001100111101 *
b10001001110100001100111101 1
b1101011111110001000110000 "
b1101011111110001000110000 )
b1101011111110001000110000 /
b10000 (
#185
0$
#190
b11101000100000000101000100011010110111010101110000 !
b11101000100000000101000100011010110111010101110000 +
b11101000100000000101000100011010110111010101110000 4
b11111111000000101010111101 -
b11111111000000101010111101 2
b1110100110000101101011000011001001010111110111001010 ,
b1110100110000101101011000011001001010111110111001010 3
b11101010011011011010010010 .
b11101010011011011010010010 0
1$
b11101000100000000101000100011010110111010101110000 %
b11111111000000101010111101 #
b11111111000000101010111101 *
b11111111000000101010111101 1
b11101010011011011010010010 "
b11101010011011011010010010 )
b11101010011011011010010010 /
b10001 (
#195
0$
#200
b11001010110011100001100101 .
b11001010110011100001100101 0
b111111011010101110010101111001001100100101110110 ,
b111111011010101110010101111001001100100101110110 3
b10100000000110100111110 -
b10100000000110100111110 2
b1110100110000101101011000011001001010111110111001010 !
b1110100110000101101011000011001001010111110111001010 +
b1110100110000101101011000011001001010111110111001010 4
1$
b1110100110000101101011000011001001010111110111001010 %
b10100000000110100111110 #
b10100000000110100111110 *
b10100000000110100111110 1
b11001010110011100001100101 "
b11001010110011100001100101 )
b11001010110011100001100101 /
b10010 (
#205
0$
#210
b111111011010101110010101111001001100100101110110 !
b111111011010101110010101111001001100100101110110 +
b111111011010101110010101111001001100100101110110 4
b1110001010100110101110011 -
b1110001010100110101110011 2
b110110010111100001011101001110100101010100110101010 ,
b110110010111100001011101001110100101010100110101010 3
b11110101101000010100101110 .
b11110101101000010100101110 0
1$
b111111011010101110010101111001001100100101110110 %
b1110001010100110101110011 #
b1110001010100110101110011 *
b1110001010100110101110011 1
b11110101101000010100101110 "
b11110101101000010100101110 )
b11110101101000010100101110 /
b10011 (
#215
0$
#220
b10100111110111101001111101 .
b10100111110111101001111101 0
b1000111100111010111001100000111000100000111011010 ,
b1000111100111010111001100000111000100000111011010 3
b11011010011011001100010 -
b11011010011011001100010 2
b110110010111100001011101001110100101010100110101010 !
b110110010111100001011101001110100101010100110101010 +
b110110010111100001011101001110100101010100110101010 4
1$
b110110010111100001011101001110100101010100110101010 %
b11011010011011001100010 #
b11011010011011001100010 *
b11011010011011001100010 1
b10100111110111101001111101 "
b10100111110111101001111101 )
b10100111110111101001111101 /
b10100 (
#225
0$
#230
b1000111100111010111001100000111000100000111011010 !
b1000111100111010111001100000111000100000111011010 +
b1000111100111010111001100000111000100000111011010 4
b11110110001111101111001111 -
b11110110001111101111001111 2
b100011001011001110100000010000111011100110000110 ,
b100011001011001110100000010000111011100110000110 3
b1001001001000110011010 .
b1001001001000110011010 0
1$
b1000111100111010111001100000111000100000111011010 %
b11110110001111101111001111 #
b11110110001111101111001111 *
b11110110001111101111001111 1
b1001001001000110011010 "
b1001001001000110011010 )
b1001001001000110011010 /
b10101 (
#235
0$
#240
b11011001011000001000100111 .
b11011001011000001000100111 0
b100000001111000110010101010100011110001110011 ,
b100000001111000110010101010100011110001110011 3
b1001011111011010101 -
b1001011111011010101 2
b100011001011001110100000010000111011100110000110 !
b100011001011001110100000010000111011100110000110 +
b100011001011001110100000010000111011100110000110 4
1$
b100011001011001110100000010000111011100110000110 %
b1001011111011010101 #
b1001011111011010101 *
b1001011111011010101 1
b11011001011000001000100111 "
b11011001011000001000100111 )
b11011001011000001000100111 /
b10110 (
#245
0$
#250
b100000001111000110010101010100011110001110011 !
b100000001111000110010101010100011110001110011 +
b100000001111000110010101010100011110001110011 4
b11000110011000001000100000 -
b11000110011000001000100000 2
b1011100101001000011010001001110011000000100100100000 ,
b1011100101001000011010001001110011000000100100100000 3
b11101111000110100010111001 .
b11101111000110100010111001 0
1$
b100000001111000110010101010100011110001110011 %
b11000110011000001000100000 #
b11000110011000001000100000 *
b11000110011000001000100000 1
b11101111000110100010111001 "
b11101111000110100010111001 )
b11101111000110100010111001 /
b10111 (
#255
0$
#260
b10101101110000011001011001 .
b10101101110000011001011001 0
b1000111000000010111100011001110001101000101011010010 ,
b1000111000000010111100011001110001101000101011010010 3
b11010001001110101100100010 -
b11010001001110101100100010 2
b1011100101001000011010001001110011000000100100100000 !
b1011100101001000011010001001110011000000100100100000 +
b1011100101001000011010001001110011000000100100100000 4
1$
b1011100101001000011010001001110011000000100100100000 %
b11010001001110101100100010 #
b11010001001110101100100010 *
b11010001001110101100100010 1
b10101101110000011001011001 "
b10101101110000011001011001 )
b10101101110000011001011001 /
b11000 (
#265
0$
#270
b1000111000000010111100011001110001101000101011010010 !
b1000111000000010111100011001110001101000101011010010 +
b1000111000000010111100011001110001101000101011010010 4
b11011110011000101100011010 -
b11011110011000101100011010 2
b1010100010000010101110111001110011111101111110110110 ,
b1010100010000010101110111001110011111101111110110110 3
b11000001111110110100000111 .
b11000001111110110100000111 0
1$
b1000111000000010111100011001110001101000101011010010 %
b11011110011000101100011010 #
b11011110011000101100011010 *
b11011110011000101100011010 1
b11000001111110110100000111 "
b11000001111110110100000111 )
b11000001111110110100000111 /
b11001 (
#275
0$
#280
b10111110001111011110110111 .
b10111110001111011110110111 0
b1000000010000001100000010001101100111100010011111 ,
b1000000010000001100000010001101100111100010011111 3
b10101100111011001011001 -
b10101100111011001011001 2
b1010100010000010101110111001110011111101111110110110 !
b1010100010000010101110111001110011111101111110110110 +
b1010100010000010101110111001110011111101111110110110 4
1$
b1010100010000010101110111001110011111101111110110110 %
b10101100111011001011001 #
b10101100111011001011001 *
b10101100111011001011001 1
b10111110001111011110110111 "
b10111110001111011110110111 )
b10111110001111011110110111 /
b11010 (
#285
0$
#290
b1000000010000001100000010001101100111100010011111 !
b1000000010000001100000010001101100111100010011111 +
b1000000010000001100000010001101100111100010011111 4
b1100110010110000010011111 -
b1100110010110000010011111 2
b10100000100100011010001001010111011011010100101011 ,
b10100000100100011010001001010111011011010100101011 3
b1100100011010001111110101 .
b1100100011010001111110101 0
1$
b1000000010000001100000010001101100111100010011111 %
b1100110010110000010011111 #
b1100110010110000010011111 *
b1100110010110000010011111 1
b1100100011010001111110101 "
b1100100011010001111110101 )
b1100100011010001111110101 /
b11011 (
#295
0$
#300
b10100111110011010110011000 .
b10100111110011010110011000 0
b10101110011011010110110010100110001111000110101000 ,
b10101110011011010110110010100110001111000110101000 3
b1000010100001101101110111 -
b1000010100001101101110111 2
b10100000100100011010001001010111011011010100101011 !
b10100000100100011010001001010111011011010100101011 +
b10100000100100011010001001010111011011010100101011 4
1$
b10100000100100011010001001010111011011010100101011 %
b1000010100001101101110111 #
b1000010100001101101110111 *
b1000010100001101101110111 1
b10100111110011010110011000 "
b10100111110011010110011000 )
b10100111110011010110011000 /
b11100 (
#305
0$
#310
b10101110011011010110110010100110001111000110101000 !
b10101110011011010110110010100110001111000110101000 +
b10101110011011010110110010100110001111000110101000 4
b11001100110100010100100110 -
b11001100110100010100100110 2
b10001100001111111000010111000100110000011101100000 ,
b10001100001111111000010111000100110000011101100000 3
b101011110100101110010000 .
b101011110100101110010000 0
1$
b10101110011011010110110010100110001111000110101000 %
b11001100110100010100100110 #
b11001100110100010100100110 *
b11001100110100010100100110 1
b101011110100101110010000 "
b101011110100101110010000 )
b101011110100101110010000 /
b11101 (
#315
0$
#320
b10110100101111110110111110 .
b10110100101111110110111110 0
b100110111111010001000101111001000110011111000101010 ,
b100110111111010001000101111001000110011111000101010 3
b1101110011100010010001011 -
b1101110011100010010001011 2
b10001100001111111000010111000100110000011101100000 !
b10001100001111111000010111000100110000011101100000 +
b10001100001111111000010111000100110000011101100000 4
1$
b10001100001111111000010111000100110000011101100000 %
b1101110011100010010001011 #
b1101110011100010010001011 *
b1101110011100010010001011 1
b10110100101111110110111110 "
b10110100101111110110111110 )
b10110100101111110110111110 /
b11110 (
#325
0$
#330
b100110111111010001000101111001000110011111000101010 !
b100110111111010001000101111001000110011111000101010 +
b100110111111010001000101111001000110011111000101010 4
b11101001001000000011001101 -
b11101001001000000011001101 2
b11101101011110010100101111001110101100111000010 ,
b11101101011110010100101111001110101100111000010 3
b1000001001100011001010 .
b1000001001100011001010 0
1$
b100110111111010001000101111001000110011111000101010 %
b11101001001000000011001101 #
b11101001001000000011001101 *
b11101001001000000011001101 1
b1000001001100011001010 "
b1000001001100011001010 )
b1000001001100011001010 /
b11111 (
#335
0$
#340
b1000110111001000110110010 .
b1000110111001000110110010 0
b110011100100001111001001111101111110100111000110 ,
b110011100100001111001001111101111110100111000110 3
b101110100011011000011011 -
b101110100011011000011011 2
b11101101011110010100101111001110101100111000010 !
b11101101011110010100101111001110101100111000010 +
b11101101011110010100101111001110101100111000010 4
1$
b11101101011110010100101111001110101100111000010 %
b101110100011011000011011 #
b101110100011011000011011 *
b101110100011011000011011 1
b1000110111001000110110010 "
b1000110111001000110110010 )
b1000110111001000110110010 /
b100000 (
#345
0$
#350
b110011100100001111001001111101111110100111000110 !
b110011100100001111001001111101111110100111000110 +
b110011100100001111001001111101111110100111000110 4
b1000011100010001001011010 -
b1000011100010001001011010 2
b1100011110001111001110110101011110000110010010 ,
b1100011110001111001110110101011110000110010010 3
b1011110100011110001101 .
b1011110100011110001101 0
1$
b110011100100001111001001111101111110100111000110 %
b1000011100010001001011010 #
b1000011100010001001011010 *
b1000011100010001001011010 1
b1011110100011110001101 "
b1011110100011110001101 )
b1011110100011110001101 /
b100001 (
#355
0$
#360
b11000110111011010000011 .
b11000110111011010000011 0
b1110011110011100100110101010000000000000000001 ,
b1110011110011100100110101010000000000000000001 3
b100101010000100000101011 -
b100101010000100000101011 2
b1100011110001111001110110101011110000110010010 !
b1100011110001111001110110101011110000110010010 +
b1100011110001111001110110101011110000110010010 4
1$
b1100011110001111001110110101011110000110010010 %
b100101010000100000101011 #
b100101010000100000101011 *
b100101010000100000101011 1
b11000110111011010000011 "
b11000110111011010000011 )
b11000110111011010000011 /
b100010 (
#365
0$
#370
b1110011110011100100110101010000000000000000001 !
b1110011110011100100110101010000000000000000001 +
b1110011110011100100110101010000000000000000001 4
b100010110101010110001110 -
b100010110101010110001110 2
b1110010101111000101111110110010110010110111100010 ,
b1110010101111000101111110110010110010110111100010 3
b11010010110011100010000111 .
b11010010110011100010000111 0
1$
b1110011110011100100110101010000000000000000001 %
b100010110101010110001110 #
b100010110101010110001110 *
b100010110101010110001110 1
b11010010110011100010000111 "
b11010010110011100010000111 )
b11010010110011100010000111 /
b100011 (
#375
0$
#380
b10110001111000000100100111 .
b10110001111000000100100111 0
b1001101010100000010101110000110001011100100110100100 ,
b1001101010100000010101110000110001011100100110100100 3
b11011110100010011110111100 -
b11011110100010011110111100 2
b1110010101111000101111110110010110010110111100010 !
b1110010101111000101111110110010110010110111100010 +
b1110010101111000101111110110010110010110111100010 4
1$
b1110010101111000101111110110010110010110111100010 %
b11011110100010011110111100 #
b11011110100010011110111100 *
b11011110100010011110111100 1
b10110001111000000100100111 "
b10110001111000000100100111 )
b10110001111000000100100111 /
b100100 (
#385
0$
#390
b1001101010100000010101110000110001011100100110100100 !
b1001101010100000010101110000110001011100100110100100 +
b1001101010100000010101110000110001011100100110100100 4
b10010100011001111000010100 -
b10010100011001111000010100 2
b10111100001111000101110011000011110110000001110100 ,
b10111100001111000101110011000011110110000001110100 3
b1010001001011010110111001 .
b1010001001011010110111001 0
1$
b1001101010100000010101110000110001011100100110100100 %
b10010100011001111000010100 #
b10010100011001111000010100 *
b10010100011001111000010100 1
b1010001001011010110111001 "
b1010001001011010110111001 )
b1010001001011010110111001 /
b100101 (
#395
0$
#400
b11110011010000011100000010 .
b11110011010000011100000010 0
b1000010111000001110110110111101101001111100000011010 ,
b1000010111000001110110110111101101001111100000011010 3
b10001100110000111010001101 -
b10001100110000111010001101 2
b10111100001111000101110011000011110110000001110100 !
b10111100001111000101110011000011110110000001110100 +
b10111100001111000101110011000011110110000001110100 4
1$
b10111100001111000101110011000011110110000001110100 %
b10001100110000111010001101 #
b10001100110000111010001101 *
b10001100110000111010001101 1
b11110011010000011100000010 "
b11110011010000011100000010 )
b11110011010000011100000010 /
b100110 (
#405
0$
#410
b1000010111000001110110110111101101001111100000011010 !
b1000010111000001110110110111101101001111100000011010 +
b1000010111000001110110110111101101001111100000011010 4
b100101000110111100000111 -
b100101000110111100000111 2
b101000111001110101011011000100100001111010011 ,
b101000111001110101011011000100100001111010011 3
b1000110100010111010101 .
b1000110100010111010101 0
1$
b1000010111000001110110110111101101001111100000011010 %
b100101000110111100000111 #
b100101000110111100000111 *
b100101000110111100000111 1
b1000110100010111010101 "
b1000110100010111010101 )
b1000110100010111010101 /
b100111 (
#415
0$
#420
b1110000010100011000110011 .
b1110000010100011000110011 0
b101111111001111101011000011000001101110000001100111 ,
b101111111001111101011000011000001101110000001100111 3
b11011010011000000011111101 -
b11011010011000000011111101 2
b101000111001110101011011000100100001111010011 !
b101000111001110101011011000100100001111010011 +
b101000111001110101011011000100100001111010011 4
1$
b101000111001110101011011000100100001111010011 %
b11011010011000000011111101 #
b11011010011000000011111101 *
b11011010011000000011111101 1
b1110000010100011000110011 "
b1110000010100011000110011 )
b1110000010100011000110011 /
b101000 (
#425
0$
#430
b101111111001111101011000011000001101110000001100111 !
b101111111001111101011000011000001101110000001100111 +
b101111111001111101011000011000001101110000001100111 4
b10011111001111110000000101 -
b10011111001111110000000101 2
b11110011000010111111101011111111101000110001001010 ,
b11110011000010111111101011111111101000110001001010 3
b1100001101011011101000010 .
b1100001101011011101000010 0
1$
b101111111001111101011000011000001101110000001100111 %
b10011111001111110000000101 #
b10011111001111110000000101 *
b10011111001111110000000101 1
b1100001101011011101000010 "
b1100001101011011101000010 )
b1100001101011011101000010 /
b101001 (
#435
0$
#440
b11000011111110001110100010 .
b11000011111110001110100010 0
b100010011000110111001011011011110010001011001111110 ,
b100010011000110111001011011011110010001011001111110 3
b1011001110110000000001111 -
b1011001110110000000001111 2
b11110011000010111111101011111111101000110001001010 !
b11110011000010111111101011111111101000110001001010 +
b11110011000010111111101011111111101000110001001010 4
1$
b11110011000010111111101011111111101000110001001010 %
b1011001110110000000001111 #
b1011001110110000000001111 *
b1011001110110000000001111 1
b11000011111110001110100010 "
b11000011111110001110100010 )
b11000011111110001110100010 /
b101010 (
#445
0$
#450
b100010011000110111001011011011110010001011001111110 !
b100010011000110111001011011011110010001011001111110 +
b100010011000110111001011011011110010001011001111110 4
b10000011011001000101001001 -
b10000011011001000101001001 2
b110100001111011100110010110111101001100101001110010 ,
b110100001111011100110010110111101001100101001110010 3
b11001011100100100011100010 .
b11001011100100100011100010 0
1$
b100010011000110111001011011011110010001011001111110 %
b10000011011001000101001001 #
b10000011011001000101001001 *
b10000011011001000101001001 1
b11001011100100100011100010 "
b11001011100100100011100010 )
b11001011100100100011100010 /
b101011 (
#455
0$
#460
b101111110101101110001000 .
b101111110101101110001000 0
b1001100111000111001010101000110011001010010000000 ,
b1001100111000111001010101000110011001010010000000 3
b1100110110111001110010000 -
b1100110110111001110010000 2
b110100001111011100110010110111101001100101001110010 !
b110100001111011100110010110111101001100101001110010 +
b110100001111011100110010110111101001100101001110010 4
1$
b110100001111011100110010110111101001100101001110010 %
b1100110110111001110010000 #
b1100110110111001110010000 *
b1100110110111001110010000 1
b101111110101101110001000 "
b101111110101101110001000 )
b101111110101101110001000 /
b101100 (
#465
0$
#470
b1001100111000111001010101000110011001010010000000 !
b1001100111000111001010101000110011001010010000000 +
b1001100111000111001010101000110011001010010000000 4
b10011011100101000110110 -
b10011011100101000110110 2
b100110000110010100010101111011101111101100001000 ,
b100110000110010100010101111011101111101100001000 3
b1111101011000010011001100 .
b1111101011000010011001100 0
1$
b1001100111000111001010101000110011001010010000000 %
b10011011100101000110110 #
b10011011100101000110110 *
b10011011100101000110110 1
b1111101011000010011001100 "
b1111101011000010011001100 )
b1111101011000010011001100 /
b101101 (
#475
0$
#480
b1110010000100011110111111 .
b1110010000100011110111111 0
b1101101011110000001000001110010001100111001101100 ,
b1101101011110000001000001110010001100111001101100 3
b111101011010110010010100 -
b111101011010110010010100 2
b100110000110010100010101111011101111101100001000 !
b100110000110010100010101111011101111101100001000 +
b100110000110010100010101111011101111101100001000 4
1$
b100110000110010100010101111011101111101100001000 %
b111101011010110010010100 #
b111101011010110010010100 *
b111101011010110010010100 1
b1110010000100011110111111 "
b1110010000100011110111111 )
b1110010000100011110111111 /
b101110 (
#485
0$
#490
b1101101011110000001000001110010001100111001101100 !
b1101101011110000001000001110010001100111001101100 +
b1101101011110000001000001110010001100111001101100 4
b11111100100011101010001 -
b11111100100011101010001 2
b1010001100111011001000010010011000000111000000011 ,
b1010001100111011001000010010011000000111000000011 3
b10100101011101001100010011 .
b10100101011101001100010011 0
1$
b1101101011110000001000001110010001100111001101100 %
b11111100100011101010001 #
b11111100100011101010001 *
b11111100100011101010001 1
b10100101011101001100010011 "
b10100101011101001100010011 )
b10100101011101001100010011 /
b101111 (
#495
0$
#500
b10110101100110001110111011 .
b10110101100110001110111011 0
b10000101100101101011010001111100011101011111100110 ,
b10000101100101101011010001111100011101011111100110 3
b101111000101001001010010 -
b101111000101001001010010 2
b1010001100111011001000010010011000000111000000011 !
b1010001100111011001000010010011000000111000000011 +
b1010001100111011001000010010011000000111000000011 4
1$
b1010001100111011001000010010011000000111000000011 %
b101111000101001001010010 #
b101111000101001001010010 *
b101111000101001001010010 1
b10110101100110001110111011 "
b10110101100110001110111011 )
b10110101100110001110111011 /
b110000 (
#505
0$
#510
b10000101100101101011010001111100011101011111100110 !
b10000101100101101011010001111100011101011111100110 +
b10000101100101101011010001111100011101011111100110 4
b111101011011011000011101 -
b111101011011011000011101 2
b10111001011011110110001011100101100001101011100001 ,
b10111001011011110110001011100101100001101011100001 3
b11000001001100110010010101 .
b11000001001100110010010101 0
1$
b10000101100101101011010001111100011101011111100110 %
b111101011011011000011101 #
b111101011011011000011101 *
b111101011011011000011101 1
b11000001001100110010010101 "
b11000001001100110010010101 )
b11000001001100110010010101 /
b110001 (
#515
0$
#520
b1000110101010011001010001 .
b1000110101010011001010001 0
b1110101111100001011110111010101101110000001101110 ,
b1110101111100001011110111010101101110000001101110 3
b1101010110100100000001110 -
b1101010110100100000001110 2
b10111001011011110110001011100101100001101011100001 !
b10111001011011110110001011100101100001101011100001 +
b10111001011011110110001011100101100001101011100001 4
1$
b10111001011011110110001011100101100001101011100001 %
b1101010110100100000001110 #
b1101010110100100000001110 *
b1101010110100100000001110 1
b1000110101010011001010001 "
b1000110101010011001010001 )
b1000110101010011001010001 /
b110010 (
#525
0$
#530
b1110101111100001011110111010101101110000001101110 !
b1110101111100001011110111010101101110000001101110 +
b1110101111100001011110111010101101110000001101110 4
b1100101101100010011100 -
b1100101101100010011100 2
b100010100011110110110010010100010101110001011000 ,
b100010100011110110110010010100010101110001011000 3
b10101110000000001111111010 .
b10101110000000001111111010 0
1$
b1110101111100001011110111010101101110000001101110 %
b1100101101100010011100 #
b1100101101100010011100 *
b1100101101100010011100 1
b10101110000000001111111010 "
b10101110000000001111111010 )
b10101110000000001111111010 /
b110011 (
#535
0$
