verilog/digitalsystem9/doremi_tb.vcd
$date
	Sun Nov 10 22:13:37 2019
$end
$version
	Icarus Verilog
$end
$timescale
	100ns
$end
$scope module doremi_tb $end
$var wire 1 ! piezo $end
$var reg 1 " clk $end
$var reg 8 # key [7:0] $end
$var reg 1 $ reset $end
$scope module do $end
$var wire 1 " clk $end
$var wire 8 % key [7:0] $end
$var wire 1 ! piezo $end
$var wire 1 $ reset $end
$var reg 1 & buff $end
$var integer 32 ' cnt [31:0] $end
$var integer 32 ( limit [31:0] $end
$upscope $end
$upscope $end
$enddefinitions $end
#0
$dumpvars
bx (
bx '
x&
bx %
1$
bx #
0"
x!
$end
#100
b0 '
0!
0&
1"
#150
0$
#200
0"
b111011101110 (
b1 #
b1 %
#300
1"
#310
b1 '
#320
b10 '
#330
b11 '
#340
b100 '
#350
b101 '
#360
b110 '
#370
b111 '
#380
b1000 '
#390
b1001 '
#400
0"
b1010 '
#410
b1011 '
#420
b1100 '
#430
b1101 '
#440
b1110 '
#450
b1111 '
#460
b10000 '
#470
b10001 '
#480
b10010 '
#490
b10011 '
#500
1"
b10100 '
#510
b10101 '
#520
b10110 '
#530
b10111 '
#540
b11000 '
#550
b11001 '
#560
b11010 '
#570
b11011 '
#580
b11100 '
#590
b11101 '
#600
0"
b11110 '
#610
b11111 '
#620
b100000 '
#630
b100001 '
#640
b100010 '
#650
b100011 '
#660
b100100 '
#670
b100101 '
#680
b100110 '
#690
b100111 '
#700
1"
b101000 '
#710
b101001 '
#720
b101010 '
#730
b101011 '
#740
b101100 '
#750
b101101 '
#760
b101110 '
#770
b101111 '
#780
b110000 '
#790
b110001 '
#800
0"
b110010 '
#810
b110011 '
#820
b110100 '
#830
b110101 '
#840
b110110 '
#850
b110111 '
#860
b111000 '
#870
b111001 '
#880
b111010 '
#890
b111011 '
#900
1"
b111100 '
#910
b111101 '
#920
b111110 '
#930
b111111 '
#940
b1000000 '
#950
b1000001 '
#960
b1000010 '
#970
b1000011 '
#980
b1000100 '
#990
b1000101 '
#1000
0"
b1000110 '
#1010
b1000111 '
#1020
b1001000 '
#1030
b1001001 '
#1040
b1001010 '
#1050
b1001011 '
#1060
b1001100 '
#1070
b1001101 '
#1080
b1001110 '
#1090
b1001111 '
#1100
1"
b1010000 '
#1110
b1010001 '
#1120
b1010010 '
#1130
b1010011 '
#1140
b1010100 '
#1150
b1010101 '
#1160
b1010110 '
#1170
b1010111 '
#1180
b1011000 '
#1190
b1011001 '
#1200
0"
b1011010 '
#1210
b1011011 '
#1220
b1011100 '
#1230
b1011101 '
#1240
b1011110 '
#1250
b1011111 '
#1260
b1100000 '
#1270
b1100001 '
#1280
b1100010 '
#1290
b1100011 '
#1300
1"
b1100100 '
#1310
b1100101 '
#1320
b1100110 '
#1330
b1100111 '
#1340
b1101000 '
#1350
b1101001 '
#1360
b1101010 '
#1370
b1101011 '
#1380
b1101100 '
#1390
b1101101 '
#1400
0"
b1101110 '
#1410
b1101111 '
#1420
b1110000 '
#1430
b1110001 '
#1440
b1110010 '
#1450
b1110011 '
#1460
b1110100 '
#1470
b1110101 '
#1480
b1110110 '
#1490
b1110111 '
#1500
1"
b1111000 '
#1510
b1111001 '
#1520
b1111010 '
#1530
b1111011 '
#1540
b1111100 '
#1550
b1111101 '
#1560
b1111110 '
#1570
b1111111 '
#1580
b10000000 '
#1590
b10000001 '
#1600
0"
b10000010 '
#1610
b10000011 '
#1620
b10000100 '
#1630
b10000101 '
#1640
b10000110 '
#1650
b10000111 '
#1660
b10001000 '
#1670
b10001001 '
#1680
b10001010 '
#1690
b10001011 '
#1700
1"
b10001100 '
#1710
b10001101 '
#1720
b10001110 '
#1730
b10001111 '
#1740
b10010000 '
#1750
b10010001 '
#1760
b10010010 '
#1770
b10010011 '
#1780
b10010100 '
#1790
b10010101 '
#1800
0"
b10010110 '
#1810
b10010111 '
#1820
b10011000 '
#1830
b10011001 '
#1840
b10011010 '
#1850
b10011011 '
#1860
b10011100 '
#1870
b10011101 '
#1880
b10011110 '
#1890
b10011111 '
#1900
1"
b10100000 '
#1910
b10100001 '
#1920
b10100010 '
#1930
b10100011 '
#1940
b10100100 '
#1950
b10100101 '
#1960
b10100110 '
#1970
b10100111 '
#1980
b10101000 '
#1990
b10101001 '
#2000
0"
b10101010 '
#2010
b10101011 '
#2020
b10101100 '
#2030
b10101101 '
#2040
b10101110 '
#2050
b10101111 '
#2060
b10110000 '
#2070
b10110001 '
#2080
b10110010 '
#2090
b10110011 '
#2100
1"
b10110100 '
#2110
b10110101 '
#2120
b10110110 '
#2130
b10110111 '
#2140
b10111000 '
#2150
b10111001 '
#2160
b10111010 '
#2170
b10111011 '
#2180
b10111100 '
#2190
b10111101 '
#2200
0"
b10111110 '
#2210
b10111111 '
#2220
b11000000 '
#2230
b11000001 '
#2240
b11000010 '
#2250
b11000011 '
#2260
b11000100 '
#2270
b11000101 '
#2280
b11000110 '
#2290
b11000111 '
#2300
1"
b11001000 '
#2310
b11001001 '
#2320
b11001010 '
#2330
b11001011 '
#2340
b11001100 '
#2350
b11001101 '
#2360
b11001110 '
#2370
b11001111 '
#2380
b11010000 '
#2390
b11010001 '
#2400
0"
b11010010 '
#2410
b11010011 '
#2420
b11010100 '
#2430
b11010101 '
#2440
b11010110 '
#2450
b11010111 '
#2460
b11011000 '
#2470
b11011001 '
#2480
b11011010 '
#2490
b11011011 '
#2500
1"
b11011100 '
#2510
b11011101 '
#2520
b11011110 '
#2530
b11011111 '
#2540
b11100000 '
#2550
b11100001 '
#2560
b11100010 '
#2570
b11100011 '
#2580
b11100100 '
#2590
b11100101 '
#2600
0"
b11100110 '
#2610
b11100111 '
#2620
b11101000 '
#2630
b11101001 '
#2640
b11101010 '
#2650
b11101011 '
#2660
b11101100 '
#2670
b11101101 '
#2680
b11101110 '
#2690
b11101111 '
#2700
1"
b11110000 '
#2710
b11110001 '
#2720
b11110010 '
#2730
b11110011 '
#2740
b11110100 '
#2750
b11110101 '
#2760
b11110110 '
#2770
b11110111 '
#2780
b11111000 '
#2790
b11111001 '
#2800
0"
b11111010 '
#2810
b11111011 '
#2820
b11111100 '
#2830
b11111101 '
#2840
b11111110 '
#2850
b11111111 '
#2860
b100000000 '
#2870
b100000001 '
#2880
b100000010 '
#2890
b100000011 '
#2900
1"
b100000100 '
#2910
b100000101 '
#2920
b100000110 '
#2930
b100000111 '
#2940
b100001000 '
#2950
b100001001 '
#2960
b100001010 '
#2970
b100001011 '
#2980
b100001100 '
#2990
b100001101 '
#3000
0"
b100001110 '
#3010
b100001111 '
#3020
b100010000 '
#3030
b100010001 '
#3040
b100010010 '
#3050
b100010011 '
#3060
b100010100 '
#3070
b100010101 '
#3080
b100010110 '
#3090
b100010111 '
#3100
1"
b100011000 '
#3110
b100011001 '
#3120
b100011010 '
#3130
b100011011 '
#3140
b100011100 '
#3150
b100011101 '
#3160
b100011110 '
#3170
b100011111 '
#3180
b100100000 '
#3190
b100100001 '
#3200
0"
b100100010 '
#3210
b100100011 '
#3220
b100100100 '
#3230
b100100101 '
#3240
b100100110 '
#3250
b100100111 '
#3260
b100101000 '
#3270
b100101001 '
#3280
b100101010 '
#3290
b100101011 '
#3300
1"
b100101100 '
#3310
b100101101 '
#3320
b100101110 '
#3330
b100101111 '
#3340
b100110000 '
#3350
b100110001 '
#3360
b100110010 '
#3370
b100110011 '
#3380
b100110100 '
#3390
b100110101 '
#3400
0"
b100110110 '
#3410
b100110111 '
#3420
b100111000 '
#3430
b100111001 '
#3440
b100111010 '
#3450
b100111011 '
#3460
b100111100 '
#3470
b100111101 '
#3480
b100111110 '
#3490
b100111111 '
#3500
1"
b101000000 '
#3510
b101000001 '
#3520
b101000010 '
#3530
b101000011 '
#3540
b101000100 '
#3550
b101000101 '
#3560
b101000110 '
#3570
b101000111 '
#3580
b101001000 '
#3590
b101001001 '
#3600
0"
b101001010 '
#3610
b101001011 '
#3620
b101001100 '
#3630
b101001101 '
#3640
b101001110 '
#3650
b101001111 '
#3660
b101010000 '
#3670
b101010001 '
#3680
b101010010 '
#3690
b101010011 '
#3700
1"
b101010100 '
#3710
b101010101 '
#3720
b101010110 '
#3730
b101010111 '
#3740
b101011000 '
#3750
b101011001 '
#3760
b101011010 '
#3770
b101011011 '
#3780
b101011100 '
#3790
b101011101 '
#3800
0"
b101011110 '
#3810
b101011111 '
#3820
b101100000 '
#3830
b101100001 '
#3840
b101100010 '
#3850
b101100011 '
#3860
b101100100 '
#3870
b101100101 '
#3880
b101100110 '
#3890
b101100111 '
#3900
1"
b101101000 '
#3910
b101101001 '
#3920
b101101010 '
#3930
b101101011 '
#3940
b101101100 '
#3950
b101101101 '
#3960
b101101110 '
#3970
b101101111 '
#3980
b101110000 '
#3990
b101110001 '
#4000
0"
b101110010 '
#4010
b101110011 '
#4020
b101110100 '
#4030
b101110101 '
#4040
b101110110 '
#4050
b101110111 '
#4060
b101111000 '
#4070
b101111001 '
#4080
b101111010 '
#4090
b101111011 '
#4100
1"
b101111100 '
#4110
b101111101 '
#4120
b101111110 '
#4130
b101111111 '
#4140
b110000000 '
#4150
b110000001 '
#4160
b110000010 '
#4170
b110000011 '
#4180
b110000100 '
#4190
b110000101 '
#4200
0"
b110000110 '
#4210
b110000111 '
#4220
b110001000 '
#4230
b110001001 '
#4240
b110001010 '
#4250
b110001011 '
#4260
b110001100 '
#4270
b110001101 '
#4280
b110001110 '
#4290
b110001111 '
#4300
1"
b110010000 '
#4310
b110010001 '
#4320
b110010010 '
#4330
b110010011 '
#4340
b110010100 '
#4350
b110010101 '
#4360
b110010110 '
#4370
b110010111 '
#4380
b110011000 '
#4390
b110011001 '
#4400
0"
b110011010 '
#4410
b110011011 '
#4420
b110011100 '
#4430
b110011101 '
#4440
b110011110 '
#4450
b110011111 '
#4460
b110100000 '
#4470
b110100001 '
#4480
b110100010 '
#4490
b110100011 '
#4500
1"
b110100100 '
#4510
b110100101 '
#4520
b110100110 '
#4530
b110100111 '
#4540
b110101000 '
#4550
b110101001 '
#4560
b110101010 '
#4570
b110101011 '
#4580
b110101100 '
#4590
b110101101 '
#4600
0"
b110101110 '
#4610
b110101111 '
#4620
b110110000 '
#4630
b110110001 '
#4640
b110110010 '
#4650
b110110011 '
#4660
b110110100 '
#4670
b110110101 '
#4680
b110110110 '
#4690
b110110111 '
#4700
1"
b110111000 '
#4710
b110111001 '
#4720
b110111010 '
#4730
b110111011 '
#4740
b110111100 '
#4750
b110111101 '
#4760
b110111110 '
#4770
b110111111 '
#4780
b111000000 '
#4790
b111000001 '
#4800
0"
b111000010 '
#4810
b111000011 '
#4820
b111000100 '
#4830
b111000101 '
#4840
b111000110 '
#4850
b111000111 '
#4860
b111001000 '
#4870
b111001001 '
#4880
b111001010 '
#4890
b111001011 '
#4900
1"
b111001100 '
#4910
b111001101 '
#4920
b111001110 '
#4930
b111001111 '
#4940
b111010000 '
#4950
b111010001 '
#4960
b111010010 '
#4970
b111010011 '
#4980
b111010100 '
#4990
b111010101 '
#5000
0"
b111010110 '
#5010
b111010111 '
#5020
b111011000 '
#5030
b111011001 '
#5040
b111011010 '
#5050
b111011011 '
#5060
b111011100 '
#5070
b111011101 '
#5080
b111011110 '
#5090
b111011111 '
#5100
1"
b111100000 '
#5110
b111100001 '
#5120
b111100010 '
#5130
b111100011 '
#5140
b111100100 '
#5150
b111100101 '
#5160
b111100110 '
#5170
b111100111 '
#5180
b111101000 '
#5190
b111101001 '
#5200
0"
b111101010 '
#5210
b111101011 '
#5220
b111101100 '
#5230
b111101101 '
#5240
b111101110 '
#5250
b111101111 '
#5260
b111110000 '
#5270
b111110001 '
#5280
b111110010 '
#5290
b111110011 '
#5300
1"
b111110100 '
#5310
b111110101 '
#5320
b111110110 '
#5330
b111110111 '
#5340
b111111000 '
#5350
b111111001 '
#5360
b111111010 '
#5370
b111111011 '
#5380
b111111100 '
#5390
b111111101 '
#5400
0"
b111111110 '
#5410
b111111111 '
#5420
b1000000000 '
#5430
b1000000001 '
#5440
b1000000010 '
#5450
b1000000011 '
#5460
b1000000100 '
#5470
b1000000101 '
#5480
b1000000110 '
#5490
b1000000111 '
#5500
1"
b1000001000 '
#5510
b1000001001 '
#5520
b1000001010 '
#5530
b1000001011 '
#5540
b1000001100 '
#5550
b1000001101 '
#5560
b1000001110 '
#5570
b1000001111 '
#5580
b1000010000 '
#5590
b1000010001 '
#5600
0"
b1000010010 '
#5610
b1000010011 '
#5620
b1000010100 '
#5630
b1000010101 '
#5640
b1000010110 '
#5650
b1000010111 '
#5660
b1000011000 '
#5670
b1000011001 '
#5680
b1000011010 '
#5690
b1000011011 '
#5700
1"
b1000011100 '
#5710
b1000011101 '
#5720
b1000011110 '
#5730
b1000011111 '
#5740
b1000100000 '
#5750
b1000100001 '
#5760
b1000100010 '
#5770
b1000100011 '
#5780
b1000100100 '
#5790
b1000100101 '
#5800
0"
b1000100110 '
#5810
b1000100111 '
#5820
b1000101000 '
#5830
b1000101001 '
#5840
b1000101010 '
#5850
b1000101011 '
#5860
b1000101100 '
#5870
b1000101101 '
#5880
b1000101110 '
#5890
b1000101111 '
#5900
1"
b1000110000 '
#5910
b1000110001 '
#5920
b1000110010 '
#5930
b1000110011 '
#5940
b1000110100 '
#5950
b1000110101 '
#5960
b1000110110 '
#5970
b1000110111 '
#5980
b1000111000 '
#5990
b1000111001 '
#6000
0"
b1000111010 '
#6010
b1000111011 '
#6020
b1000111100 '
#6030
b1000111101 '
#6040
b1000111110 '
#6050
b1000111111 '
#6060
b1001000000 '
#6070
b1001000001 '
#6080
b1001000010 '
#6090
b1001000011 '
#6100
1"
b1001000100 '
#6110
b1001000101 '
#6120
b1001000110 '
#6130
b1001000111 '
#6140
b1001001000 '
#6150
b1001001001 '
#6160
b1001001010 '
#6170
b1001001011 '
#6180
b1001001100 '
#6190
b1001001101 '
#6200
0"
b1001001110 '
#6210
b1001001111 '
#6220
b1001010000 '
#6230
b1001010001 '
#6240
b1001010010 '
#6250
b1001010011 '
#6260
b1001010100 '
#6270
b1001010101 '
#6280
b1001010110 '
#6290
b1001010111 '
#6300
1"
b1001011000 '
#6310
b1001011001 '
#6320
b1001011010 '
#6330
b1001011011 '
#6340
b1001011100 '
#6350
b1001011101 '
#6360
b1001011110 '
#6370
b1001011111 '
#6380
b1001100000 '
#6390
b1001100001 '
#6400
0"
b1001100010 '
#6410
b1001100011 '
#6420
b1001100100 '
#6430
b1001100101 '
#6440
b1001100110 '
#6450
b1001100111 '
#6460
b1001101000 '
#6470
b1001101001 '
#6480
b1001101010 '
#6490
b1001101011 '
#6500
1"
b1001101100 '
#6510
b1001101101 '
#6520
b1001101110 '
#6530
b1001101111 '
#6540
b1001110000 '
#6550
b1001110001 '
#6560
b1001110010 '
#6570
b1001110011 '
#6580
b1001110100 '
#6590
b1001110101 '
#6600
0"
b1001110110 '
#6610
b1001110111 '
#6620
b1001111000 '
#6630
b1001111001 '
#6640
b1001111010 '
#6650
b1001111011 '
#6660
b1001111100 '
#6670
b1001111101 '
#6680
b1001111110 '
#6690
b1001111111 '
#6700
1"
b1010000000 '
#6710
b1010000001 '
#6720
b1010000010 '
#6730
b1010000011 '
#6740
b1010000100 '
#6750
b1010000101 '
#6760
b1010000110 '
#6770
b1010000111 '
#6780
b1010001000 '
#6790
b1010001001 '
#6800
0"
b1010001010 '
#6810
b1010001011 '
#6820
b1010001100 '
#6830
b1010001101 '
#6840
b1010001110 '
#6850
b1010001111 '
#6860
b1010010000 '
#6870
b1010010001 '
#6880
b1010010010 '
#6890
b1010010011 '
#6900
1"
b1010010100 '
#6910
b1010010101 '
#6920
b1010010110 '
#6930
b1010010111 '
#6940
b1010011000 '
#6950
b1010011001 '
#6960
b1010011010 '
#6970
b1010011011 '
#6980
b1010011100 '
#6990
b1010011101 '
#7000
0"
b1010011110 '
#7010
b1010011111 '
#7020
b1010100000 '
#7030
b1010100001 '
#7040
b1010100010 '
#7050
b1010100011 '
#7060
b1010100100 '
#7070
b1010100101 '
#7080
b1010100110 '
#7090
b1010100111 '
#7100
1"
b1010101000 '
#7110
b1010101001 '
#7120
b1010101010 '
#7130
b1010101011 '
#7140
b1010101100 '
#7150
b1010101101 '
#7160
b1010101110 '
#7170
b1010101111 '
#7180
b1010110000 '
#7190
b1010110001 '
#7200
0"
b1010110010 '
#7210
b1010110011 '
#7220
b1010110100 '
#7230
b1010110101 '
#7240
b1010110110 '
#7250
b1010110111 '
#7260
b1010111000 '
#7270
b1010111001 '
#7280
b1010111010 '
#7290
b1010111011 '
#7300
1"
b1010111100 '
#7310
b1010111101 '
#7320
b1010111110 '
#7330
b1010111111 '
#7340
b1011000000 '
#7350
b1011000001 '
#7360
b1011000010 '
#7370
b1011000011 '
#7380
b1011000100 '
#7390
b1011000101 '
#7400
0"
b1011000110 '
#7410
b1011000111 '
#7420
b1011001000 '
#7430
b1011001001 '
#7440
b1011001010 '
#7450
b1011001011 '
#7460
b1011001100 '
#7470
b1011001101 '
#7480
b1011001110 '
#7490
b1011001111 '
#7500
1"
b1011010000 '
#7510
b1011010001 '
#7520
b1011010010 '
#7530
b1011010011 '
#7540
b1011010100 '
#7550
b1011010101 '
#7560
b1011010110 '
#7570
b1011010111 '
#7580
b1011011000 '
#7590
b1011011001 '
#7600
0"
b1011011010 '
#7610
b1011011011 '
#7620
b1011011100 '
#7630
b1011011101 '
#7640
b1011011110 '
#7650
b1011011111 '
#7660
b1011100000 '
#7670
b1011100001 '
#7680
b1011100010 '
#7690
b1011100011 '
#7700
1"
b1011100100 '
#7710
b1011100101 '
#7720
b1011100110 '
#7730
b1011100111 '
#7740
b1011101000 '
#7750
b1011101001 '
#7760
b1011101010 '
#7770
b1011101011 '
#7780
b1011101100 '
#7790
b1011101101 '
#7800
0"
b1011101110 '
#7810
b1011101111 '
#7820
b1011110000 '
#7830
b1011110001 '
#7840
b1011110010 '
#7850
b1011110011 '
#7860
b1011110100 '
#7870
b1011110101 '
#7880
b1011110110 '
#7890
b1011110111 '
#7900
1"
b1011111000 '
#7910
b1011111001 '
#7920
b1011111010 '
#7930
b1011111011 '
#7940
b1011111100 '
#7950
b1011111101 '
#7960
b1011111110 '
#7970
b1011111111 '
#7980
b1100000000 '
#7990
b1100000001 '
#8000
0"
b1100000010 '
#8010
b1100000011 '
#8020
b1100000100 '
#8030
b1100000101 '
#8040
b1100000110 '
#8050
b1100000111 '
#8060
b1100001000 '
#8070
b1100001001 '
#8080
b1100001010 '
#8090
b1100001011 '
#8100
1"
b1100001100 '
#8110
b1100001101 '
#8120
b1100001110 '
#8130
b1100001111 '
#8140
b1100010000 '
#8150
b1100010001 '
#8160
b1100010010 '
#8170
b1100010011 '
#8180
b1100010100 '
#8190
b1100010101 '
#8200
0"
b1100010110 '
#8210
b1100010111 '
#8220
b1100011000 '
#8230
b1100011001 '
#8240
b1100011010 '
#8250
b1100011011 '
#8260
b1100011100 '
#8270
b1100011101 '
#8280
b1100011110 '
#8290
b1100011111 '
#8300
1"
b1100100000 '
#8310
b1100100001 '
#8320
b1100100010 '
#8330
b1100100011 '
#8340
b1100100100 '
#8350
b1100100101 '
#8360
b1100100110 '
#8370
b1100100111 '
#8380
b1100101000 '
#8390
b1100101001 '
#8400
0"
b1100101010 '
#8410
b1100101011 '
#8420
b1100101100 '
#8430
b1100101101 '
#8440
b1100101110 '
#8450
b1100101111 '
#8460
b1100110000 '
#8470
b1100110001 '
#8480
b1100110010 '
#8490
b1100110011 '
#8500
1"
b1100110100 '
#8510
b1100110101 '
#8520
b1100110110 '
#8530
b1100110111 '
#8540
b1100111000 '
#8550
b1100111001 '
#8560
b1100111010 '
#8570
b1100111011 '
#8580
b1100111100 '
#8590
b1100111101 '
#8600
0"
b1100111110 '
#8610
b1100111111 '
#8620
b1101000000 '
#8630
b1101000001 '
#8640
b1101000010 '
#8650
b1101000011 '
#8660
b1101000100 '
#8670
b1101000101 '
#8680
b1101000110 '
#8690
b1101000111 '
#8700
1"
b1101001000 '
#8710
b1101001001 '
#8720
b1101001010 '
#8730
b1101001011 '
#8740
b1101001100 '
#8750
b1101001101 '
#8760
b1101001110 '
#8770
b1101001111 '
#8780
b1101010000 '
#8790
b1101010001 '
#8800
0"
b1101010010 '
#8810
b1101010011 '
#8820
b1101010100 '
#8830
b1101010101 '
#8840
b1101010110 '
#8850
b1101010111 '
#8860
b1101011000 '
#8870
b1101011001 '
#8880
b1101011010 '
#8890
b1101011011 '
#8900
1"
b1101011100 '
#8910
b1101011101 '
#8920
b1101011110 '
#8930
b1101011111 '
#8940
b1101100000 '
#8950
b1101100001 '
#8960
b1101100010 '
#8970
b1101100011 '
#8980
b1101100100 '
#8990
b1101100101 '
#9000
0"
b1101100110 '
#9010
b1101100111 '
#9020
b1101101000 '
#9030
b1101101001 '
#9040
b1101101010 '
#9050
b1101101011 '
#9060
b1101101100 '
#9070
b1101101101 '
#9080
b1101101110 '
#9090
b1101101111 '
#9100
1"
b1101110000 '
#9110
b1101110001 '
#9120
b1101110010 '
#9130
b1101110011 '
#9140
b1101110100 '
#9150
b1101110101 '
#9160
b1101110110 '
#9170
b1101110111 '
#9180
b1101111000 '
#9190
b1101111001 '
#9200
0"
b1101111010 '
#9210
b1101111011 '
#9220
b1101111100 '
#9230
b1101111101 '
#9240
b1101111110 '
#9250
b1101111111 '
#9260
b1110000000 '
#9270
b1110000001 '
#9280
b1110000010 '
#9290
b1110000011 '
#9300
1"
b1110000100 '
#9310
b1110000101 '
#9320
b1110000110 '
#9330
b1110000111 '
#9340
b1110001000 '
#9350
b1110001001 '
#9360
b1110001010 '
#9370
b1110001011 '
#9380
b1110001100 '
#9390
b1110001101 '
#9400
0"
b1110001110 '
#9410
b1110001111 '
#9420
b1110010000 '
#9430
b1110010001 '
#9440
b1110010010 '
#9450
b1110010011 '
#9460
b1110010100 '
#9470
b1110010101 '
#9480
b1110010110 '
#9490
b1110010111 '
#9500
1"
b1110011000 '
#9510
b1110011001 '
#9520
b1110011010 '
#9530
b1110011011 '
#9540
b1110011100 '
#9550
b1110011101 '
#9560
b1110011110 '
#9570
b1110011111 '
#9580
b1110100000 '
#9590
b1110100001 '
#9600
0"
b1110100010 '
#9610
b1110100011 '
#9620
b1110100100 '
#9630
b1110100101 '
#9640
b1110100110 '
#9650
b1110100111 '
#9660
b1110101000 '
#9670
b1110101001 '
#9680
b1110101010 '
#9690
b1110101011 '
#9700
1"
b1110101100 '
#9710
b1110101101 '
#9720
b1110101110 '
#9730
b1110101111 '
#9740
b1110110000 '
#9750
b1110110001 '
#9760
b1110110010 '
#9770
b1110110011 '
#9780
b1110110100 '
#9790
b1110110101 '
#9800
0"
b1110110110 '
#9810
b1110110111 '
#9820
b1110111000 '
#9830
b1110111001 '
#9840
b1110111010 '
#9850
b1110111011 '
#9860
b1110111100 '
#9870
b1110111101 '
#9880
b1110111110 '
#9890
b1110111111 '
#9900
1"
b1111000000 '
#9910
b1111000001 '
#9920
b1111000010 '
#9930
b1111000011 '
#9940
b1111000100 '
#9950
b1111000101 '
#9960
b1111000110 '
#9970
b1111000111 '
#9980
b1111001000 '
#9990
b1111001001 '
#10000
0"
b1111001010 '
#10010
b1111001011 '
#10020
b1111001100 '
#10030
b1111001101 '
#10040
b1111001110 '
#10050
b1111001111 '
#10060
b1111010000 '
#10070
b1111010001 '
#10080
b1111010010 '
#10090
b1111010011 '
#10100
1"
b1111010100 '
#10110
b1111010101 '
#10120
b1111010110 '
#10130
b1111010111 '
#10140
b1111011000 '
#10150
b1111011001 '
#10160
b1111011010 '
#10170
b1111011011 '
#10180
b1111011100 '
#10190
b1111011101 '
#10200
0"
b1111011110 '
#10210
b1111011111 '
#10220
b1111100000 '
#10230
b1111100001 '
#10240
b1111100010 '
#10250
b1111100011 '
#10260
b1111100100 '
#10270
b1111100101 '
#10280
b1111100110 '
#10290
b1111100111 '
#10300
1"
b1111101000 '
#10310
b1111101001 '
#10320
b1111101010 '
#10330
b1111101011 '
#10340
b1111101100 '
#10350
b1111101101 '
#10360
b1111101110 '
#10370
b1111101111 '
#10380
b1111110000 '
#10390
b1111110001 '
#10400
0"
b1111110010 '
#10410
b1111110011 '
#10420
b1111110100 '
#10430
b1111110101 '
#10440
b1111110110 '
#10450
b1111110111 '
#10460
b1111111000 '
#10470
b1111111001 '
#10480
b1111111010 '
#10490
b1111111011 '
#10500
1"
b1111111100 '
#10510
b1111111101 '
#10520
b1111111110 '
#10530
b1111111111 '
#10540
b10000000000 '
#10550
b10000000001 '
#10560
b10000000010 '
#10570
b10000000011 '
#10580
b10000000100 '
#10590
b10000000101 '
#10600
0"
b10000000110 '
#10610
b10000000111 '
#10620
b10000001000 '
#10630
b10000001001 '
#10640
b10000001010 '
#10650
b10000001011 '
#10660
b10000001100 '
#10670
b10000001101 '
#10680
b10000001110 '
#10690
b10000001111 '
#10700
1"
b10000010000 '
#10710
b10000010001 '
#10720
b10000010010 '
#10730
b10000010011 '
#10740
b10000010100 '
#10750
b10000010101 '
#10760
b10000010110 '
#10770
b10000010111 '
#10780
b10000011000 '
#10790
b10000011001 '
#10800
0"
b10000011010 '
#10810
b10000011011 '
#10820
b10000011100 '
#10830
b10000011101 '
#10840
b10000011110 '
#10850
b10000011111 '
#10860
b10000100000 '
#10870
b10000100001 '
#10880
b10000100010 '
#10890
b10000100011 '
#10900
1"
b10000100100 '
#10910
b10000100101 '
#10920
b10000100110 '
#10930
b10000100111 '
#10940
b10000101000 '
#10950
b10000101001 '
#10960
b10000101010 '
#10970
b10000101011 '
#10980
b10000101100 '
#10990
b10000101101 '
#11000
0"
b10000101110 '
#11010
b10000101111 '
#11020
b10000110000 '
#11030
b10000110001 '
#11040
b10000110010 '
#11050
b10000110011 '
#11060
b10000110100 '
#11070
b10000110101 '
#11080
b10000110110 '
#11090
b10000110111 '
#11100
1"
b10000111000 '
#11110
b10000111001 '
#11120
b10000111010 '
#11130
b10000111011 '
#11140
b10000111100 '
#11150
b10000111101 '
#11160
b10000111110 '
#11170
b10000111111 '
#11180
b10001000000 '
#11190
b10001000001 '
#11200
0"
b10001000010 '
#11210
b10001000011 '
#11220
b10001000100 '
#11230
b10001000101 '
#11240
b10001000110 '
#11250
b10001000111 '
#11260
b10001001000 '
#11270
b10001001001 '
#11280
b10001001010 '
#11290
b10001001011 '
#11300
1"
b10001001100 '
#11310
b10001001101 '
#11320
b10001001110 '
#11330
b10001001111 '
#11340
b10001010000 '
#11350
b10001010001 '
#11360
b10001010010 '
#11370
b10001010011 '
#11380
b10001010100 '
#11390
b10001010101 '
#11400
0"
b10001010110 '
#11410
b10001010111 '
#11420
b10001011000 '
#11430
b10001011001 '
#11440
b10001011010 '
#11450
b10001011011 '
#11460
b10001011100 '
#11470
b10001011101 '
#11480
b10001011110 '
#11490
b10001011111 '
#11500
1"
b10001100000 '
#11510
b10001100001 '
#11520
b10001100010 '
#11530
b10001100011 '
#11540
b10001100100 '
#11550
b10001100101 '
#11560
b10001100110 '
#11570
b10001100111 '
#11580
b10001101000 '
#11590
b10001101001 '
#11600
0"
b10001101010 '
#11610
b10001101011 '
#11620
b10001101100 '
#11630
b10001101101 '
#11640
b10001101110 '
#11650
b10001101111 '
#11660
b10001110000 '
#11670
b10001110001 '
#11680
b10001110010 '
#11690
b10001110011 '
#11700
1"
b10001110100 '
#11710
b10001110101 '
#11720
b10001110110 '
#11730
b10001110111 '
#11740
b10001111000 '
#11750
b10001111001 '
#11760
b10001111010 '
#11770
b10001111011 '
#11780
b10001111100 '
#11790
b10001111101 '
#11800
0"
b10001111110 '
#11810
b10001111111 '
#11820
b10010000000 '
#11830
b10010000001 '
#11840
b10010000010 '
#11850
b10010000011 '
#11860
b10010000100 '
#11870
b10010000101 '
#11880
b10010000110 '
#11890
b10010000111 '
#11900
1"
b10010001000 '
#11910
b10010001001 '
#11920
b10010001010 '
#11930
b10010001011 '
#11940
b10010001100 '
#11950
b10010001101 '
#11960
b10010001110 '
#11970
b10010001111 '
#11980
b10010010000 '
#11990
b10010010001 '
#12000
0"
b10010010010 '
#12010
b10010010011 '
#12020
b10010010100 '
#12030
b10010010101 '
#12040
b10010010110 '
#12050
b10010010111 '
#12060
b10010011000 '
#12070
b10010011001 '
#12080
b10010011010 '
#12090
b10010011011 '
#12100
1"
b10010011100 '
#12110
b10010011101 '
#12120
b10010011110 '
#12130
b10010011111 '
#12140
b10010100000 '
#12150
b10010100001 '
#12160
b10010100010 '
#12170
b10010100011 '
#12180
b10010100100 '
#12190
b10010100101 '
#12200
0"
b10010100110 '
#12210
b10010100111 '
#12220
b10010101000 '
#12230
b10010101001 '
#12240
b10010101010 '
#12250
b10010101011 '
#12260
b10010101100 '
#12270
b10010101101 '
#12280
b10010101110 '
#12290
b10010101111 '
#12300
1"
b10010110000 '
#12310
b10010110001 '
#12320
b10010110010 '
#12330
b10010110011 '
#12340
b10010110100 '
#12350
b10010110101 '
#12360
b10010110110 '
#12370
b10010110111 '
#12380
b10010111000 '
#12390
b10010111001 '
#12400
0"
b10010111010 '
#12410
b10010111011 '
#12420
b10010111100 '
#12430
b10010111101 '
#12440
b10010111110 '
#12450
b10010111111 '
#12460
b10011000000 '
#12470
b10011000001 '
#12480
b10011000010 '
#12490
b10011000011 '
#12500
1"
b10011000100 '
#12510
b10011000101 '
#12520
b10011000110 '
#12530
b10011000111 '
#12540
b10011001000 '
#12550
b10011001001 '
#12560
b10011001010 '
#12570
b10011001011 '
#12580
b10011001100 '
#12590
b10011001101 '
#12600
0"
b10011001110 '
#12610
b10011001111 '
#12620
b10011010000 '
#12630
b10011010001 '
#12640
b10011010010 '
#12650
b10011010011 '
#12660
b10011010100 '
#12670
b10011010101 '
#12680
b10011010110 '
#12690
b10011010111 '
#12700
1"
b10011011000 '
#12710
b10011011001 '
