verilog/VLSI_experiment/7w/Practice_07_ref/stimulus_FIR_filter.vcd
$date
	Fri Apr 28 19:57:55 2023
$end
$version
	Icarus Verilog
$end
$timescale
	10ps
$end
$scope module stimulus_FIR_filter $end
$var wire 12 ! c0 [11:0] $end
$var wire 12 " c1 [11:0] $end
$var wire 12 # c2 [11:0] $end
$var wire 12 $ c3 [11:0] $end
$var wire 12 % c4 [11:0] $end
$var reg 1 & clk $end
$var reg 22 ' out_mat [21:0] $end
$var reg 1 ( rstn $end
$var integer 32 ) err [31:0] $end
$var integer 32 * i [31:0] $end
$scope module FIR $end
$var wire 1 + NCE_IN $end
$var wire 12 , c0 [11:0] $end
$var wire 12 - c1 [11:0] $end
$var wire 12 . c2 [11:0] $end
$var wire 12 / c3 [11:0] $end
$var wire 12 0 c4 [11:0] $end
$var wire 1 & clk $end
$var wire 1 ( rstn $end
$var wire 22 1 trans_out [21:0] $end
$var wire 12 2 trans_in [11:0] $end
$var wire 22 3 direct_out [21:0] $end
$var wire 12 4 direct_in [11:0] $end
$var wire 6 5 RA [5:0] $end
$var wire 22 6 DOt [21:0] $end
$var wire 22 7 DOd [21:0] $end
$var wire 2 8 CA [1:0] $end
$var wire 8 9 ADDR [7:0] $end
$var reg 1 : NCE_OUT $end
$var reg 1 ; NWRT_IN $end
$var reg 1 < NWRT_OUT $end
$scope module DIRECT_INPUT_MEM $end
$var event 1 = write $end
$var event 1 > read $end
$var wire 2 ? CA [1:0] $end
$var wire 1 & CLK $end
$var wire 12 @ DIN [11:0] $end
$var wire 1 + NCE $end
$var wire 1 ; NWRT $end
$var wire 6 A RA [5:0] $end
$var wire 12 B DO [11:0] $end
$var wire 12 C BDO [11:0] $end
$var wire 8 D A [7:0] $end
$var reg 1 E FLAG_X $end
$var reg 12 F do_reg [11:0] $end
$var reg 8 G r_addr [7:0] $end
$var reg 12 H r_din [11:0] $end
$var reg 1 I r_nce $end
$var reg 1 J r_nwrt $end
$var reg 12 K temp_reg [11:0] $end
$var reg 12 L write_data [11:0] $end
$var integer 32 M i [31:0] $end
$upscope $end
$scope module DIRECT_OUTPUT_MEM $end
$var event 1 N write $end
$var event 1 O read $end
$var wire 2 P CA [1:0] $end
$var wire 1 & CLK $end
$var wire 1 : NCE $end
$var wire 1 < NWRT $end
$var wire 6 Q RA [5:0] $end
$var wire 22 R DO [21:0] $end
$var wire 22 S DIN [21:0] $end
$var wire 22 T BDO [21:0] $end
$var wire 8 U A [7:0] $end
$var reg 1 V FLAG_X $end
$var reg 22 W do_reg [21:0] $end
$var reg 8 X r_addr [7:0] $end
$var reg 22 Y r_din [21:0] $end
$var reg 1 Z r_nce $end
$var reg 1 [ r_nwrt $end
$var reg 22 \ temp_reg [21:0] $end
$var reg 22 ] write_data [21:0] $end
$var integer 32 ^ i [31:0] $end
$upscope $end
$scope module Filter1 $end
$var wire 12 _ c0 [11:0] $end
$var wire 12 ` c1 [11:0] $end
$var wire 12 a c2 [11:0] $end
$var wire 12 b c3 [11:0] $end
$var wire 12 c c4 [11:0] $end
$var wire 1 & clk $end
$var wire 12 d direct_in [11:0] $end
$var wire 1 ( rstn $end
$var wire 12 e x4 [11:0] $end
$var wire 12 f x3 [11:0] $end
$var wire 12 g x2 [11:0] $end
$var wire 12 h x1 [11:0] $end
$var wire 12 i x0 [11:0] $end
$var wire 24 j tmp4 [23:0] $end
$var wire 24 k tmp3 [23:0] $end
$var wire 24 l tmp2 [23:0] $end
$var wire 24 m tmp1 [23:0] $end
$var wire 24 n tmp0 [23:0] $end
$var wire 22 o mul_out [21:0] $end
$var wire 22 p mul4 [21:0] $end
$var wire 22 q mul3 [21:0] $end
$var wire 22 r mul2 [21:0] $end
$var wire 22 s mul1 [21:0] $end
$var wire 22 t mul0 [21:0] $end
$var wire 22 u direct_out [21:0] $end
$scope module filt_out $end
$var wire 1 & clk $end
$var wire 22 v q [21:0] $end
$var wire 1 ( rstn $end
$var reg 22 w out [21:0] $end
$upscope $end
$scope module stage0 $end
$var wire 1 & clk $end
$var wire 12 x q [11:0] $end
$var wire 1 ( rstn $end
$var reg 12 y out [11:0] $end
$upscope $end
$scope module stage1 $end
$var wire 1 & clk $end
$var wire 12 z q [11:0] $end
$var wire 1 ( rstn $end
$var reg 12 { out [11:0] $end
$upscope $end
$scope module stage2 $end
$var wire 1 & clk $end
$var wire 12 | q [11:0] $end
$var wire 1 ( rstn $end
$var reg 12 } out [11:0] $end
$upscope $end
$scope module stage3 $end
$var wire 1 & clk $end
$var wire 12 ~ q [11:0] $end
$var wire 1 ( rstn $end
$var reg 12 !" out [11:0] $end
$upscope $end
$scope module stage4 $end
$var wire 1 & clk $end
$var wire 12 "" q [11:0] $end
$var wire 1 ( rstn $end
$var reg 12 #" out [11:0] $end
$upscope $end
$upscope $end
$scope module Filter2 $end
$var wire 12 $" c0 [11:0] $end
$var wire 12 %" c1 [11:0] $end
$var wire 12 &" c2 [11:0] $end
$var wire 12 '" c3 [11:0] $end
$var wire 12 (" c4 [11:0] $end
$var wire 1 & clk $end
$var wire 1 ( rstn $end
$var wire 20 )" x4 [19:0] $end
$var wire 22 *" x3 [21:0] $end
$var wire 22 +" x2 [21:0] $end
$var wire 22 ," x1 [21:0] $end
$var wire 12 -" x0 [11:0] $end
$var wire 22 ." trans_out [21:0] $end
$var wire 12 /" trans_in [11:0] $end
$var wire 24 0" tmp4 [23:0] $end
$var wire 24 1" tmp3 [23:0] $end
$var wire 24 2" tmp2 [23:0] $end
$var wire 24 3" tmp1 [23:0] $end
$var wire 24 4" tmp0 [23:0] $end
$var wire 22 5" sum3 [21:0] $end
$var wire 22 6" sum2 [21:0] $end
$var wire 22 7" sum1 [21:0] $end
$var wire 22 8" sum0 [21:0] $end
$var wire 20 9" mul4 [19:0] $end
$var wire 20 :" mul3 [19:0] $end
$var wire 20 ;" mul2 [19:0] $end
$var wire 20 <" mul1 [19:0] $end
$var wire 20 =" mul0 [19:0] $end
$scope module filt_out $end
$var wire 1 & clk $end
$var wire 22 >" q [21:0] $end
$var wire 1 ( rstn $end
$var reg 22 ?" out [21:0] $end
$upscope $end
$scope module stage0 $end
$var wire 1 & clk $end
$var wire 1 ( rstn $end
$var wire 12 @" q [11:0] $end
$var reg 12 A" out [11:0] $end
$upscope $end
$scope module stage1 $end
$var wire 1 & clk $end
$var wire 22 B" q [21:0] $end
$var wire 1 ( rstn $end
$var reg 22 C" out [21:0] $end
$upscope $end
$scope module stage2 $end
$var wire 1 & clk $end
$var wire 22 D" q [21:0] $end
$var wire 1 ( rstn $end
$var reg 22 E" out [21:0] $end
$upscope $end
$scope module stage3 $end
$var wire 1 & clk $end
$var wire 22 F" q [21:0] $end
$var wire 1 ( rstn $end
$var reg 22 G" out [21:0] $end
$upscope $end
$scope module stage4 $end
$var wire 1 & clk $end
$var wire 20 H" q [19:0] $end
$var wire 1 ( rstn $end
$var reg 20 I" out [19:0] $end
$upscope $end
$upscope $end
$scope module TRANS_INPUT_MEM $end
$var event 1 J" write $end
$var event 1 K" read $end
$var wire 2 L" CA [1:0] $end
$var wire 1 & CLK $end
$var wire 12 M" DIN [11:0] $end
$var wire 1 + NCE $end
$var wire 1 ; NWRT $end
$var wire 6 N" RA [5:0] $end
$var wire 12 O" DO [11:0] $end
$var wire 12 P" BDO [11:0] $end
$var wire 8 Q" A [7:0] $end
$var reg 1 R" FLAG_X $end
$var reg 12 S" do_reg [11:0] $end
$var reg 8 T" r_addr [7:0] $end
$var reg 12 U" r_din [11:0] $end
$var reg 1 V" r_nce $end
$var reg 1 W" r_nwrt $end
$var reg 12 X" temp_reg [11:0] $end
$var reg 12 Y" write_data [11:0] $end
$var integer 32 Z" i [31:0] $end
$upscope $end
$scope module TRANS_OUTPUT_MEM $end
$var event 1 [" write $end
$var event 1 \" read $end
$var wire 2 ]" CA [1:0] $end
$var wire 1 & CLK $end
$var wire 22 ^" DIN [21:0] $end
$var wire 1 : NCE $end
$var wire 1 < NWRT $end
$var wire 6 _" RA [5:0] $end
$var wire 22 `" DO [21:0] $end
$var wire 22 a" BDO [21:0] $end
$var wire 8 b" A [7:0] $end
$var reg 1 c" FLAG_X $end
$var reg 22 d" do_reg [21:0] $end
$var reg 8 e" r_addr [7:0] $end
$var reg 22 f" r_din [21:0] $end
$var reg 1 g" r_nce $end
$var reg 1 h" r_nwrt $end
$var reg 22 i" temp_reg [21:0] $end
$var reg 22 j" write_data [21:0] $end
$var integer 32 k" i [31:0] $end
$upscope $end
$scope module counter $end
$var wire 1 & clk $end
$var wire 1 ( rstn $end
$var reg 8 l" count [7:0] $end
$upscope $end
$upscope $end
$upscope $end
$enddefinitions $end
#0
$dumpvars
b0 l"
b100000000 k"
bx j"
bx i"
xh"
xg"
bx f"
bx e"
bx d"
0c"
b0 b"
bx a"
bx `"
b0 _"
b0 ^"
b0 ]"
1\"
1["
b100000000 Z"
bx Y"
bx X"
xW"
xV"
b0 U"
bx T"
bx S"
0R"
b0 Q"
bx P"
bx O"
b0 N"
b0 M"
b0 L"
1K"
1J"
b0 I"
b0 H"
b0 G"
b0 F"
b0 E"
b0 D"
b0 C"
b0 B"
b0 A"
bx @"
b0 ?"
b0 >"
b0 ="
b0 <"
b0 ;"
b0 :"
b0 9"
b0 8"
b0 7"
b0 6"
b0 5"
b0 4"
b0 3"
b0 2"
b0 1"
b0 0"
bx /"
b0 ."
b0 -"
b0 ,"
b0 +"
b0 *"
b0 )"
b11001110010 ("
b110010100000 '"
b10000011111 &"
b110010101101 %"
b1001100001 $"
b0 #"
b0 ""
b0 !"
b0 ~
b0 }
b0 |
b0 {
b0 z
b0 y
bx x
b0 w
b0 v
b0 u
b0 t
b0 s
b0 r
b0 q
b0 p
b0 o
b0 n
b0 m
b0 l
b0 k
b0 j
b0 i
b0 h
b0 g
b0 f
b0 e
bx d
b11001110010 c
b110010100000 b
b10000011111 a
b110010101101 `
b1001100001 _
b100000000 ^
bx ]
bx \
x[
xZ
bx Y
bx X
bx W
0V
b0 U
bx T
b0 S
bx R
b0 Q
b0 P
1O
1N
b100000000 M
bx L
bx K
xJ
xI
b0 H
bx G
bx F
0E
b0 D
bx C
bx B
b0 A
b0 @
b0 ?
1>
1=
1<
1;
1:
b0 9
b0 8
bx 7
bx 6
b0 5
bx 4
b0 3
bx 2
b0 1
b11001110010 0
b110010100000 /
b10000011111 .
b110010101101 -
b1001100001 ,
1+
b0 *
b0 )
0(
bx '
1&
b11001110010 %
b110010100000 $
b10000011111 #
b110010101101 "
b1001100001 !
$end
#500
0&
#1000
b0 D
b0 U
b0 Q"
b0 b"
b0 8
b0 ?
b0 P
b0 L"
b0 ]"
0+
b0 9
b0 l"
b0 e"
b0 f"
1g"
1h"
b0 X
b0 Y
1Z
1[
b0 T"
1V"
1W"
b0 G
1I
1J
1(
1&
#1500
0&
#2000
b1 D
b1 U
b1 Q"
b1 b"
b1 8
b1 ?
b1 P
b1 L"
b1 ]"
bx o
bx v
bx t
bx 8"
bx >"
bx ="
bx 7"
bx B"
bx <"
bx 6"
bx D"
bx ;"
bx 5"
bx F"
bx :"
bx 9"
bx H"
b1 9
b1 l"
bx n
bx i
bx y
bx z
bx 4"
bx 3"
bx 2"
bx 1"
bx 0"
bx -"
bx A"
0I
0V"
1&
#2010
1>
1K"
#2020
b10100001001 4
b10100001001 B
b10100001001 d
b10100001001 x
b10100001001 2
b10100001001 /"
b10100001001 @"
b10100001001 O"
b10100001001 C
b10100001001 P"
b10100001001 F
b10100001001 S"
#2500
0&
#3000
b10111111101001101 ="
b11011110100001100011 <"
b101001100000000011 ;"
b11011110000000110100 :"
b1000000111010000000 9"
b1000000111010000000 H"
bx s
bx o
bx v
b10111111101001101 t
b10 D
b10 U
b10 Q"
b10 b"
b10 8
b10 ?
b10 P
b10 L"
b10 ]"
bx 1
bx ."
bx ?"
bx ^"
bx ,"
bx C"
bx +"
bx E"
bx *"
bx G"
bx )"
bx I"
b10111111101001101001 4"
b111011110100001100010101 3"
b101001100000000010111 2"
b111011110000000110100000 1"
b1000000111010000000010 0"
b10100001001 -"
b10100001001 A"
bx 3
bx S
bx u
bx w
bx m
bx h
bx {
bx |
b10111111101001101001 n
b10100001001 i
b10100001001 y
b10100001001 z
b10 9
b10 l"
b1 e"
b1 X
b1 T"
b1 G
1&
#3010
1K"
1>
#3020
b11001111110 2
b11001111110 /"
b11001111110 @"
b11001111110 O"
b11001111110 4
b11001111110 B
b11001111110 d
b11001111110 x
b11001111110 P"
b11001111110 C
b11001111110 S"
b11001111110 F
#3500
0&
#4000
b11 D
b11 U
b11 Q"
b11 b"
b11 8
b11 ?
b11 P
b11 L"
b11 ]"
b11110111000111000 t
b1111011110100001100011 s
bx r
b11110111000111000 ="
b11010100110101100101 <"
b110101100000101000 ;"
b11010100001011011000 :"
b1010011101100000100 9"
b1010011101100000100 H"
b11 9
b11 l"
b11110111000110111110 n
b11001111110 i
b11001111110 y
b11001111110 z
b111011110100001100010101 m
b10100001001 h
b10100001001 {
b10100001001 |
bx l
bx g
bx }
bx ~
b11110111000110111110 4"
b111010100110101100100110 3"
b110101100000101000010 2"
b111010100001011011000000 1"
b1010011101100000011100 0"
b11001111110 -"
b11001111110 A"
b10101000101011000 5"
b10101000101011000 F"
b1000000111010000000 )"
b1000000111010000000 I"
b10 G
b10 T"
b10 X
bx Y
b10 e"
bx f"
1&
#4010
1>
1K"
#4020
b101000001000 4
b101000001000 B
b101000001000 d
b101000001000 x
b101000001000 2
b101000001000 /"
b101000001000 @"
b101000001000 O"
b101000001000 C
b101000001000 P"
b101000001000 F
b101000001000 S"
#4500
0&
#5000
b11100011100110100001 ="
b100111101011101101 <"
b11001110110011011111 ;"
b101000010010100000 :"
b10110011000011110010 9"
b10110011000011110010 H"
bx q
bx o
bx v
b101001100000000011 r
b1111010100110101100101 s
b1111100011100110100001 t
b1 5
b1 A
b1 Q
b1 N"
b1 _"
b100 D
b100 U
b100 Q"
b100 b"
b0 8
b0 ?
b0 P
b0 L"
b0 ]"
b1111100011111000110111 6"
b1111100011111000110111 D"
b10101000101011000 *"
b10101000101011000 G"
b1111011111110100100 5"
b1111011111110100100 F"
b1010011101100000100 )"
b1010011101100000100 I"
b111100011100110100001000 4"
b100111101011101101000 3"
b111001110110011011111000 2"
b101000010010100000000 1"
b110110011000011110010000 0"
b101000001000 -"
b101000001000 A"
bx k
bx f
bx !"
bx ""
b101001100000000010111 l
b10100001001 g
b10100001001 }
b10100001001 ~
b111010100110101100100110 m
b11001111110 h
b11001111110 {
b11001111110 |
b111100011100110100001000 n
b101000001000 i
b101000001000 y
b101000001000 z
b100 9
b100 l"
b11 e"
b11 X
b11 T"
b11 G
1&
#5010
1K"
1>
#5020
b11010011101 2
b11010011101 /"
b11010011101 @"
b11010011101 O"
b11010011101 4
b11010011101 B
b11010011101 d
b11010011101 x
b11010011101 P"
b11010011101 C
b11010011101 S"
b11010011101 F
#5500
0&
#6000
b101 D
b101 U
b101 Q"
b101 b"
b1 8
b1 ?
b1 P
b1 L"
b1 ]"
b11111011101110000 t
b100111101011101101 s
b110101100000101000 r
b1111011110000000110100 q
bx p
b11111011101110000 ="
b11010100000010000011 <"
b110110100000100000 ;"
b11010011010111000100 :"
b1010101001111111101 9"
b1010101001111111101 H"
b101 9
b101 l"
b11111011101101111101 n
b11010011101 i
b11010011101 y
b11010011101 z
b100111101011101101000 m
b101000001000 h
b101000001000 {
b101000001000 |
b110101100000101000010 l
b11001111110 g
b11001111110 }
b11001111110 ~
b111011110000000110100000 k
b10100001001 f
b10100001001 !"
b10100001001 ""
bx j
bx e
bx #"
b11111011101101111101 4"
b111010100000010000011001 3"
b110110100000100000011 2"
b111010011010111000100000 1"
b1010101001111111101010 0"
b11010011101 -"
b11010011101 A"
b1110000110011010110110 5"
b1110000110011010110110 F"
b10110011000011110010 )"
b10110011000011110010 I"
b10110010011111000100 6"
b10110010011111000100 D"
b1111011111110100100 *"
b1111011111110100100 G"
b1110110111111010111010 7"
b1110110111111010111010 B"
b1111100011111000110111 +"
b1111100011111000110111 E"
b100 G
b100 T"
b100 X
b100 e"
1&
#6010
1>
1K"
#6020
b1000011110 4
b1000011110 B
b1000011110 d
b1000011110 x
b1000011110 2
b1000011110 /"
b1000011110 @"
b1000011110 O"
b1000011110 C
b1000011110 P"
b1000011110 F
b1000011110 S"
#6500
0&
#7000
b1010000100101100 ="
b11110001111011001001 <"
b10001011100110100 ;"
b11110001101101011000 :"
b11011010010101100 9"
b11011010010101100 H"
b1111000001111111100110 o
b1111000001111111100110 v
b1000000111010000000 p
b1111010100001011011000 q
b1111001110110011011111 r
b1111010100000010000011 s
b1010000100101100 t
b110 D
b110 U
b110 Q"
b110 b"
b10 8
b10 ?
b10 P
b10 L"
b10 ]"
b1111000001111111100110 8"
b1111000001111111100110 >"
b1110110111111010111010 ,"
b1110110111111010111010 C"
b10100100011010001101 7"
b10100100011010001101 B"
b10110010011111000100 +"
b10110010011111000100 E"
b1110010111110111101010 6"
b1110010111110111101010 D"
b1110000110011010110110 *"
b1110000110011010110110 G"
b1000110111101010101 5"
b1000110111101010101 F"
b1010101001111111101 )"
b1010101001111111101 I"
b1010000100101011110 4"
b111110001111011001000110 3"
b10001011100110100010 2"
b111110001101101011000000 1"
b11011010010101011100 0"
b1000011110 -"
b1000011110 A"
b1000000111010000000010 j
b10100001001 e
b10100001001 #"
b111010100001011011000000 k
b11001111110 f
b11001111110 !"
b11001111110 ""
b111001110110011011111000 l
b101000001000 g
b101000001000 }
b101000001000 ~
b111010100000010000011001 m
b11010011101 h
b11010011101 {
b11010011101 |
b1010000100101011110 n
b1000011110 i
b1000011110 y
b1000011110 z
b110 9
b110 l"
b101 e"
b101 X
b101 T"
b101 G
1&
#7010
1K"
1>
#7020
b100110001111 2
b100110001111 /"
b100110001111 @"
b100110001111 O"
b100110001111 4
b100110001111 B
b100110001111 d
b100110001111 x
b100110001111 P"
b100110001111 C
b100110001111 S"
b100110001111 F
#7500
0&
#8000
b111 D
b111 U
b111 Q"
b111 b"
b11 8
b11 ?
b11 P
b11 L"
b11 ]"
b1111100001010110100110 t
b1111110001111011001001 s
b110110100000100000 r
b101000010010100000 q
b10000101110000110011 o
b10000101110000110011 v
b1010011101100000100 p
b11100001010110100110 ="
b101010110100110100 <"
b11001010111010001010 ;"
b101011011110101100 :"
b10101100111101110110 9"
b10101100111101110110 H"
b111 9
b111 l"
b111100001010110100101111 n
b100110001111 i
b100110001111 y
b100110001111 z
b111110001111011001000110 m
b1000011110 h
b1000011110 {
b1000011110 |
b110110100000100000011 l
b11010011101 g
b11010011101 }
b11010011101 ~
b101000010010100000000 k
b101000001000 f
b101000001000 !"
b101000001000 ""
b1010011101100000011100 j
b11001111110 e
b11001111110 #"
b1111000001111111100110 3
b1111000001111111100110 S
b1111000001111111100110 u
b1111000001111111100110 w
b111100001010110100101111 4"
b101010110100110100011 3"
b111001010111010001010001 2"
b101011011110101100000 1"
b110101100111101110101110 0"
b100110001111 -"
b100110001111 A"
b1000110110001011000 5"
b1000110110001011000 F"
b11011010010101100 )"
b11011010010101100 I"
b10001110111011111 6"
b10001110111011111 D"
b1000110111101010101 *"
b1000110111101010101 G"
b1111000010101100011110 7"
b1111000010101100011110 B"
b1110010111110111101010 +"
b1110010111110111101010 E"
b10000101110000110011 8"
b10000101110000110011 >"
b10100100011010001101 ,"
b10100100011010001101 C"
b1111000001111111100110 1
b1111000001111111100110 ."
b1111000001111111100110 ?"
b1111000001111111100110 ^"
0:
0<
b110 G
b110 T"
b110 X
b110 e"
b1111000001111111100101 '
1&
#8010
1>
1K"
#8020
b110001110100 4
b110001110100 B
b110001110100 d
b110001110100 x
b110001110100 2
b110001110100 /"
b110001110100 @"
b110001110100 O"
b110001110100 C
b110001110100 P"
b110001110100 F
b110001110100 S"
#8200
b1 )
#8500
0&
#9000
b11101111000111111111 ="
b10111100101001101 <"
b11100010110001000010 ;"
b10111111100010000 :"
b11010010010001110101 9"
b11010010010001110101 H"
b1110110011000011110010 p
b1111010011010111000100 q
b10001011100110100 r
b101010110100110100 s
b1110110001110100011101 o
b1110110001110100011101 v
b1111101111000111111111 t
b10 5
b10 A
b10 Q
b10 N"
b10 _"
b1000 D
b1000 U
b1000 Q"
b1000 b"
b0 8
b0 ?
b0 P
b0 L"
b0 ]"
b10000101110000110011 1
b10000101110000110011 ."
b10000101110000110011 ?"
b10000101110000110011 ^"
b1110110001110100011101 8"
b1110110001110100011101 >"
b1111000010101100011110 ,"
b1111000010101100011110 C"
b101001011100101100 7"
b101001011100101100 B"
b10001110111011111 +"
b10001110111011111 E"
b101001100010011010 6"
b101001100010011010 D"
b1000110110001011000 *"
b1000110110001011000 G"
b1111000100111010000110 5"
b1111000100111010000110 F"
b10101100111101110110 )"
b10101100111101110110 I"
b111101111000111111110100 4"
b10111100101001100100 3"
b111100010110001000001100 2"
b10111111100010000000 1"
b111010010010001110101000 0"
b110001110100 -"
b110001110100 A"
b10000101110000110011 3
b10000101110000110011 S
b10000101110000110011 u
b10000101110000110011 w
b110110011000011110010000 j
b101000001000 e
b101000001000 #"
b111010011010111000100000 k
b11010011101 f
b11010011101 !"
b11010011101 ""
b10001011100110100010 l
b1000011110 g
b1000011110 }
b1000011110 ~
b101010110100110100011 m
b100110001111 h
b100110001111 {
b100110001111 |
b111101111000111111110100 n
b110001110100 i
b110001110100 y
b110001110100 z
b1000 9
b1000 l"
b111 e"
b1111000001111111100110 f"
0g"
0h"
b111 X
b1111000001111111100110 Y
0Z
0[
b111 T"
b111 G
b10000101110000110000 '
1&
b1 *
#9010
b1111000001111111100110 j"
b1111000001111111100110 ]
1["
1N
1K"
1>
#9020
b11000000 2
b11000000 /"
b11000000 @"
b11000000 O"
b11000000 4
b11000000 B
b11000000 d
b11000000 x
b11000000 P"
b11000000 C
b11000000 S"
b11000000 F
#9200
b10 )
#9500
0&
#10000
b1001 D
b1001 U
b1001 Q"
b1001 b"
b1 8
b1 ?
b1 P
b1 L"
b1 ]"
b11100100011000 t
b10111100101001101 s
b1111001010111010001010 r
b1111110001101101011000 q
b101101000001000100 o
b101101000001000100 v
b1010101001111111101 p
b11100100011000 ="
b11111011000000111000 <"
b110001011101000 ;"
b11111010111100000000 :"
b1001101010110000 9"
b1001101010110000 H"
b1001 9
b1001 l"
b11100100011000000 n
b11000000 i
b11000000 y
b11000000 z
b10111100101001100100 m
b110001110100 h
b110001110100 {
b110001110100 |
b111001010111010001010001 l
b100110001111 g
b100110001111 }
b100110001111 ~
b111110001101101011000000 k
b1000011110 f
b1000011110 !"
b1000011110 ""
b1010101001111111101010 j
b11010011101 e
b11010011101 #"
b1110110001110100011101 3
b1110110001110100011101 S
b1110110001110100011101 u
b1110110001110100011101 w
b11100100011000000 4"
b111111011000000111000000 3"
b110001011101000000 2"
b111111010111100000000000 1"
b1001101010110000000 0"
b11000000 -"
b11000000 A"
b1111001101001101110101 5"
b1111001101001101110101 F"
b11010010010001110101 )"
b11010010010001110101 I"
b1111001011000101101110 6"
b1111001011000101101110 D"
b1111000100111010000110 *"
b1111000100111010000110 G"
b100100100011010010 7"
b100100100011010010 B"
b101001100010011010 +"
b101001100010011010 E"
b101101000001000100 8"
b101101000001000100 >"
b101001011100101100 ,"
b101001011100101100 C"
b1110110001110100011101 1
b1110110001110100011101 ."
b1110110001110100011101 ?"
b1110110001110100011101 ^"
b1000 G
b1000 T"
b1000 X
b10000101110000110011 Y
b1000 e"
b10000101110000110011 f"
b1110110001110100011100 '
1&
b10 *
#10010
b10000101110000110011 ]
b10000101110000110011 j"
1>
1K"
1N
1["
#10020
b11101010001 4
b11101010001 B
b11101010001 d
b11101010001 x
b11101010001 2
b11101010001 /"
b11101010001 @"
b11101010001 O"
b11101010001 C
b11101010001 P"
b11101010001 F
b11101010001 S"
#10200
b11 )
#10500
0&
#11000
b100010110011110110 ="
b11001111010110111000 <"
b111100010011011010 ;"
b11001110100111010100 :"
b1011110010100000010 9"
b1011110010100000010 H"
b11011010010101100 p
b101011011110101100 q
b1111100010110001000010 r
b1111111011000000111000 s
b1000111010111001000 o
b1000111010111001000 v
b100010110011110110 t
b1010 D
b1010 U
b1010 Q"
b1010 b"
b10 8
b10 ?
b10 P
b10 L"
b10 ]"
b101101000001000100 1
b101101000001000100 ."
b101101000001000100 ?"
b101101000001000100 ^"
b1000111010111001000 8"
b1000111010111001000 >"
b100100100011010010 ,"
b100100100011010010 C"
b1110011010011100100110 7"
b1110011010011100100110 B"
b1111001011000101101110 +"
b1111001011000101101110 E"
b1001100001001111 6"
b1001100001001111 D"
b1111001101001101110101 *"
b1111001101001101110101 G"
b1111011000010010000100 5"
b1111011000010010000100 F"
b1001101010110000 )"
b1001101010110000 I"
b100010110011110110001 4"
b111001111010110110111101 3"
b111100010011011001111 2"
b111001110100111010100000 1"
b1011110010100000010010 0"
b11101010001 -"
b11101010001 A"
b101101000001000100 3
b101101000001000100 S
b101101000001000100 u
b101101000001000100 w
b11011010010101011100 j
b1000011110 e
b1000011110 #"
b101011011110101100000 k
b100110001111 f
b100110001111 !"
b100110001111 ""
b111100010110001000001100 l
b110001110100 g
b110001110100 }
b110001110100 ~
b111111011000000111000000 m
b11000000 h
b11000000 {
b11000000 |
b100010110011110110001 n
b11101010001 i
b11101010001 y
b11101010001 z
b1010 9
b1010 l"
b1001 e"
b1110110001110100011101 f"
b1001 X
b1110110001110100011101 Y
b1001 T"
b1001 G
b101101000001000011 '
1&
b11 *
#11010
b1110110001110100011101 j"
b1110110001110100011101 ]
1["
1N
1K"
1>
#11020
b11101110000 2
b11101110000 /"
b11101110000 @"
b11101110000 O"
b11101110000 4
b11101110000 B
b11101110000 d
b11101110000 x
b11101110000 P"
b11101110000 C
b11101110000 S"
b11101110000 F
#11200
b100 )
#11500
0&
#12000
b1011 D
b1011 U
b1011 Q"
b1011 b"
b11 8
b11 ?
b11 P
b11 L"
b11 ]"
b100011011000101110 t
b1111001111010110111000 s
b110001011101000 r
b10111111100010000 q
b1110111101110101010100 o
b1110111101110101010100 v
b1110101100111101110110 p
b100011011000101110 ="
b11001110100011010110 <"
b111101010011010010 ;"
b11001101110011000000 :"
b1011111110111111100 9"
b1011111110111111100 H"
b1011 9
b1011 l"
b100011011000101110000 n
b11101110000 i
b11101110000 y
b11101110000 z
b111001111010110110111101 m
b11101010001 h
b11101010001 {
b11101010001 |
b110001011101000000 l
b11000000 g
b11000000 }
b11000000 ~
b10111111100010000000 k
b110001110100 f
b110001110100 !"
b110001110100 ""
b110101100111101110101110 j
b100110001111 e
b100110001111 #"
b1000111010111001000 3
b1000111010111001000 S
b1000111010111001000 u
b1000111010111001000 w
b100011011000101110000 4"
b111001110100011010110000 3"
b111101010011010010000 2"
b111001101110011000000000 1"
b1011111110111111100000 0"
b11101110000 -"
b11101110000 A"
b101100000111000010 5"
b101100000111000010 F"
b1011110010100000010 )"
b1011110010100000010 I"
b10101100101010110 6"
b10101100101010110 D"
b1111011000010010000100 *"
b1111011000010010000100 G"
b1111011000000100100101 7"
b1111011000000100100101 B"
b1001100001001111 +"
b1001100001001111 E"
b1110111101110101010100 8"
b1110111101110101010100 >"
b1110011010011100100110 ,"
b1110011010011100100110 C"
b1000111010111001000 1
b1000111010111001000 ."
b1000111010111001000 ?"
b1000111010111001000 ^"
b1010 G
b1010 T"
b1010 X
b101101000001000100 Y
b1010 e"
b101101000001000100 f"
b1000111010111000110 '
1&
b100 *
#12010
b101101000001000100 ]
b101101000001000100 j"
1>
1K"
1N
1["
#12020
b101010000101 4
b101010000101 B
b101010000101 d
b101010000101 x
b101010000101 2
b101010000101 /"
b101010000101 @"
b101010000101 O"
b101010000101 C
b101010000101 P"
b101010000101 F
b101010000101 S"
#12200
b101 )
#12500
0&
#13000
b11100101111011001101 ="
b100100011011111100 <"
b11010010110101000011 ;"
b100100111111100100 :"
b10111001010110100111 9"
b10111001010110100111 H"
b1111010010010001110101 p
b1111111010111100000000 q
b111100010011011010 r
b1111001110100011010110 s
b1110111101111111110010 o
b1110111101111111110010 v
b1111100101111011001101 t
b11 5
b11 A
b11 Q
b11 N"
b11 _"
b1100 D
b1100 U
b1100 Q"
b1100 b"
b0 8
b0 ?
b0 P
b0 L"
b0 ]"
b1110111101110101010100 1
b1110111101110101010100 ."
b1110111101110101010100 ?"
b1110111101110101010100 ^"
b1110111101111111110010 8"
b1110111101111111110010 >"
b1111011000000100100101 ,"
b1111011000000100100101 C"
b111010000001010010 7"
b111010000001010010 B"
b10101100101010110 +"
b10101100101010110 E"
b1111111110111100000101 6"
b1111111110111100000101 D"
b101100000111000010 *"
b101100000111000010 G"
b10000100110111100000 5"
b10000100110111100000 F"
b1011111110111111100 )"
b1011111110111111100 I"
b111100101111011001100101 4"
b100100011011111100001 3"
b111010010110101000011011 2"
b100100111111100100000 1"
b110111001010110100111010 0"
b101010000101 -"
b101010000101 A"
b1110111101110101010100 3
b1110111101110101010100 S
b1110111101110101010100 u
b1110111101110101010100 w
b111010010010001110101000 j
b110001110100 e
b110001110100 #"
b111111010111100000000000 k
b11000000 f
b11000000 !"
b11000000 ""
b111100010011011001111 l
b11101010001 g
b11101010001 }
b11101010001 ~
b111001110100011010110000 m
b11101110000 h
b11101110000 {
b11101110000 |
b111100101111011001100101 n
b101010000101 i
b101010000101 y
b101010000101 z
b1100 9
b1100 l"
b1011 e"
b1000111010111001000 f"
b1011 X
b1000111010111001000 Y
b1011 T"
b1011 G
b1110111101110101010010 '
1&
b101 *
#13010
b1000111010111001000 j"
b1000111010111001000 ]
1["
1N
1K"
1>
#13020
b11110000111 2
b11110000111 /"
b11110000111 @"
b11110000111 O"
b11110000111 4
b11110000111 B
b11110000111 d
b11110000111 x
b11110000111 P"
b11110000111 C
b11110000111 S"
b11110000111 F
